<?xml version="1.0" encoding="utf-8"?>
<!-- Generator: Adobe Illustrator 19.0.0, SVG Export Plug-In . SVG Version: 6.00 Build 0)  -->
<svg version="1.1" id="Capa_1" xmlns="http://www.w3.org/2000/svg" xmlns:xlink="http://www.w3.org/1999/xlink" x="0px" y="0px"
	 viewBox="-49 141 512 512" style="enable-background:new -49 141 512 512;" xml:space="preserve">
<style type="text/css">
	.st0{fill:#EDEBED;}
	.st1{fill:#FFFFFF;}
	.st2{fill:#E6646E;}
	.st3{fill:#5C414B;}
	.st4{fill:#503441;}
	.st5{fill:#E6AF78;}
	.st6{fill:#D29B6E;}
	.st7{fill:#F0C087;}
	.st8{fill:#FF8087;}
</style>
<path class="st0" d="M247.7,360.4h162.5c18,0,32.5-14.6,32.5-32.5v-130c0-18-14.6-32.5-32.5-32.5H247.7c-18,0-32.5,14.6-32.5,32.5
	v130C215.2,345.9,229.7,360.4,247.7,360.4z"/>
<g>
	<path class="st1" d="M345.2,254.8h-32.5c-4.5,0-8.1-3.6-8.1-8.1s3.6-8.1,8.1-8.1h32.5c4.5,0,8.1,3.6,8.1,8.1
		C353.4,251.1,349.7,254.8,345.2,254.8z"/>
	<path class="st1" d="M410.2,254.8h-32.5c-4.5,0-8.1-3.6-8.1-8.1s3.6-8.1,8.1-8.1h32.5c4.5,0,8.1,3.6,8.1,8.1
		S414.7,254.8,410.2,254.8z"/>
	<path class="st1" d="M280.2,254.8h-24.4c-4.5,0-8.1-3.6-8.1-8.1s3.6-8.1,8.1-8.1h24.4c4.5,0,8.1,3.6,8.1,8.1
		C288.3,251.1,284.7,254.8,280.2,254.8z"/>
	<path class="st1" d="M345.2,287.3h-32.5c-4.5,0-8.1-3.6-8.1-8.1s3.6-8.1,8.1-8.1h32.5c4.5,0,8.1,3.6,8.1,8.1
		C353.4,283.6,349.7,287.3,345.2,287.3z"/>
	<path class="st1" d="M410.2,287.3h-32.5c-4.5,0-8.1-3.6-8.1-8.1s3.6-8.1,8.1-8.1h32.5c4.5,0,8.1,3.6,8.1,8.1
		S414.7,287.3,410.2,287.3z"/>
	<path class="st1" d="M280.2,287.3h-24.4c-4.5,0-8.1-3.6-8.1-8.1s3.6-8.1,8.1-8.1h24.4c4.5,0,8.1,3.6,8.1,8.1
		C288.3,283.6,284.7,287.3,280.2,287.3z"/>
</g>
<g>
	<path class="st2" d="M345.2,319.8h-32.5c-4.5,0-8.1-3.6-8.1-8.1c0-4.5,3.6-8.1,8.1-8.1h32.5c4.5,0,8.1,3.6,8.1,8.1
		C353.4,316.2,349.7,319.8,345.2,319.8z"/>
	<path class="st2" d="M410.2,319.8h-32.5c-4.5,0-8.1-3.6-8.1-8.1c0-4.5,3.6-8.1,8.1-8.1h32.5c4.5,0,8.1,3.6,8.1,8.1
		C418.4,316.2,414.7,319.8,410.2,319.8z"/>
	<path class="st2" d="M280.2,319.8h-24.4c-4.5,0-8.1-3.6-8.1-8.1c0-4.5,3.6-8.1,8.1-8.1h24.4c4.5,0,8.1,3.6,8.1,8.1
		C288.3,316.2,284.7,319.8,280.2,319.8z"/>
	<path class="st2" d="M410.2,165.4H247.7c-18,0-32.5,14.6-32.5,32.5v8.1h227.6v-8.1C442.7,179.9,428.2,165.4,410.2,165.4z"/>
</g>
<g>
	<path class="st3" d="M255.8,189.8c-4.5,0-8.1-3.6-8.1-8.1v-32.5c0-4.5,3.6-8.1,8.1-8.1s8.1,3.6,8.1,8.1v32.5
		C264,186.1,260.3,189.8,255.8,189.8z"/>
	<path class="st3" d="M402.1,189.8c-4.5,0-8.1-3.6-8.1-8.1v-32.5c0-4.5,3.6-8.1,8.1-8.1s8.1,3.6,8.1,8.1v32.5
		C410.2,186.1,406.6,189.8,402.1,189.8z"/>
</g>
<g>
	<path class="st4" d="M255.8,173.5c-4.5,0-8.1-3.6-8.1-8.1v16.3c0,4.5,3.6,8.1,8.1,8.1s8.1-3.6,8.1-8.1v-16.3
		C264,169.9,260.3,173.5,255.8,173.5z"/>
	<path class="st4" d="M402.1,173.5c-4.5,0-8.1-3.6-8.1-8.1v16.3c0,4.5,3.6,8.1,8.1,8.1s8.1-3.6,8.1-8.1v-16.3
		C410.2,169.9,406.6,173.5,402.1,173.5z"/>
</g>
<path class="st2" d="M256.7,454.8l-46.3-18.2H46l-46.3,18.2c-17.8,7-29.1,24.4-28.4,43.5l5.6,140.4c0.3,8,6.9,14.3,14.9,14.3h272.6
	c8,0,14.6-6.3,14.9-14.3l5.6-140.4C285.8,479.2,274.4,461.8,256.7,454.8z"/>
<polygon class="st3" points="117.3,488.6 107.7,653 148.6,653 139.1,488.6 "/>
<path class="st4" d="M135,496.1h-13.6c-4.5,0-8.1-3.6-8.1-8.1v-21.8h29.9V488C143.1,492.5,139.5,496.1,135,496.1z"/>
<rect x="75.9" y="376.5" class="st5" width="104.6" height="89.7"/>
<path class="st6" d="M75.9,404.5c14.8,10.7,32.9,16.9,52.3,16.9s37.5-6.3,52.3-16.9v-27.9H75.9V404.5z"/>
<path class="st3" d="M128.2,190c-37.3,2-58.5,22.4-58.5,22.4s-31.1,0-31.1,37.4c0,29.9,7.5,59.5,7.5,59.5h171.8
	C232.8,227.1,197.3,186.3,128.2,190z"/>
<path class="st4" d="M83.3,278.5c-27.4-34.3-13.7-66.1-13.7-66.1s-31.1,0-31.1,37.4c0,29.9,7.5,59.5,7.5,59.5h37.4V278.5z"/>
<path class="st7" d="M210.4,301.8h-7.5l-9.8-18c-1.6-2.8-4.8-4.3-8-3.7c-49.2,9-81.5-2.4-93.8-8.2c-3.2-1.5-7-0.5-9.1,2.4
	c-7.6,10.6-15.9,18.9-20.9,23.5c-2.8,2.6-6.4,4-10.2,4h-5.4c0,0,0,0,0,0c-0.8,0-1.7,0.1-2.5,0.3c-7.3,1.4-12.2,8.4-12.2,15.8v5.4
	c0,7.1,4.6,13.9,11.5,15.5c1.6,0.4,3.1,0.5,4.6,0.4c3.7-0.3,7,2.4,7.6,6.1c6.4,34.8,36.8,61.2,73.4,61.2s67.1-26.4,73.4-61.2
	c0.6-3.5,3.7-6.1,7.2-6h1.5c8.3,0,14.9-6.7,14.9-14.9v-7.5C225.3,308.5,218.6,301.8,210.4,301.8z"/>
<path class="st5" d="M83.3,331.7v-58.5c-0.4,0.4-0.8,0.7-1.2,1.1c-7.6,10.6-15.9,18.9-20.9,23.5c-2.8,2.6-6.4,4-10.2,4h-5.4
	c0,0,0,0,0,0c-0.8,0-1.7,0.1-2.5,0.3c-7.3,1.4-12.2,8.4-12.2,15.8v5.4c0,7.1,4.6,13.9,11.5,15.5c1.6,0.4,3.1,0.5,4.6,0.4
	c3.7-0.3,7,2.4,7.6,6.1c6.4,34.8,36.8,61.2,73.4,61.2c5.1,0,10-0.6,14.8-1.5C108.9,397.9,83.3,367.8,83.3,331.7z"/>
<g>
	<path class="st8" d="M128.2,466.4l-54.5-47.7c-3-2.6-7.4-2.4-10.2,0.3L46,436.6l34.7,52.1c5.2,7.8,16.3,8.9,23,2.3L128.2,466.4z"/>
	<path class="st8" d="M128.2,466.4l54.5-47.7c3-2.6,7.4-2.4,10.2,0.3l17.5,17.5l-34.7,52.1c-5.2,7.8-16.3,8.9-23,2.3L128.2,466.4z"
		/>
	<path class="st8" d="M245.9,505.6l32.5-32.5c4.5,7.4,7,16.1,6.6,25.2l-5.6,140.4c-0.3,8-6.9,14.3-14.9,14.3h-31.7V537.3
		C232.8,525.4,237.5,514,245.9,505.6z"/>
	<path class="st8" d="M10.4,505.6l-32.5-32.5c-4.5,7.4-7,16.1-6.6,25.2l5.6,140.4c0.3,8,6.9,14.3,14.9,14.3h31.7V537.3
		C23.6,525.4,18.8,514,10.4,505.6z"/>
	<path class="st8" d="M54.1,555.9h36c4.5,0,8.1-3.6,8.1-8.1v-6.2c0-4.5-3.6-8.1-8.1-8.1h-36c-4.5,0-8.1,3.6-8.1,8.1v6.2
		C46,552.2,49.6,555.9,54.1,555.9z"/>
</g>
</svg>
