<?xml version="1.0" encoding="utf-8"?>
<!-- Generator: Adobe Illustrator 19.0.0, SVG Export Plug-In . SVG Version: 6.00 Build 0)  -->
<svg version="1.1" id="Capa_1" xmlns="http://www.w3.org/2000/svg" xmlns:xlink="http://www.w3.org/1999/xlink" x="0px" y="0px"
	 viewBox="-49 141 512 512" style="enable-background:new -49 141 512 512;" xml:space="preserve">
<style type="text/css">
	.st0{fill:#50536E;}
	.st1{fill:#484B63;}
	.st2{fill:#D8D5ED;}
	.st3{fill:#FFD659;}
	.st4{fill:#FFBD54;}
	.st5{fill:#FF2C5C;}
	.st6{fill:#4FC6F5;}
	.st7{fill:#3BB3E3;}
</style>
<g>
	<path class="st0" d="M404.8,308H9.2v-86.3c0-2.2,1.8-4,4-4h387.6c2.2,0,4,1.8,4,4L404.8,308L404.8,308z"/>
	<path class="st1" d="M373.9,217.7V308h30.9v-86.3c0-2.2-1.8-4-4-4H373.9z"/>
	<path class="st2" d="M373.9,308H40.1V145.1c0-2.3,1.8-4.1,4.1-4.1h325.5c2.3,0,4.1,1.8,4.1,4.1V308z"/>
	<path class="st3" d="M432.1,493.8H-18.1c-17.1,0-30.9-13.8-30.9-30.9V298.1c0-17.1,13.8-30.9,30.9-30.9h450.2
		c17.1,0,30.9,13.8,30.9,30.9v164.8C463,480,449.2,493.8,432.1,493.8z"/>
	<path class="st4" d="M432.1,267.2h-30.9c17.1,0,30.9,13.8,30.9,30.9v164.8c0,17.1-13.8,30.9-30.9,30.9h30.9
		c17.1,0,30.9-13.8,30.9-30.9V298.1C463,281,449.2,267.2,432.1,267.2z"/>
	<path class="st0" d="M402.7,493.8H11.3v-90.6c0-9.1,7.4-16.5,16.5-16.5h358.4c9.1,0,16.5,7.4,16.5,16.5V493.8z"/>
	<path class="st1" d="M386.2,386.7h-30.9c9.1,0,16.5,7.4,16.5,16.5v90.6h30.9v-90.6C402.7,394.1,395.3,386.7,386.2,386.7z"/>
	<path class="st2" d="M369.8,638.1H44.2c-2.3,0-4.1-1.8-4.1-4.1V432c0-2.3,1.8-4.1,4.1-4.1h325.5c2.3,0,4.1,1.8,4.1,4.1v201.9
		C373.9,636.2,372,638.1,369.8,638.1z"/>
	<g>
		<path class="st0" d="M98.8,494.1h216.3c4.1,0,7.5-3.4,7.5-7.5s-3.4-7.5-7.5-7.5H98.8c-4.1,0-7.5,3.4-7.5,7.5
			S94.7,494.1,98.8,494.1z"/>
		<path class="st0" d="M315.2,513.5H98.8c-4.1,0-7.5,3.4-7.5,7.5s3.4,7.5,7.5,7.5h216.3c4.1,0,7.5-3.4,7.5-7.5
			S319.3,513.5,315.2,513.5z"/>
		<path class="st0" d="M315.2,547.8H98.8c-4.1,0-7.5,3.4-7.5,7.5c0,4.1,3.4,7.5,7.5,7.5h216.3c4.1,0,7.5-3.4,7.5-7.5
			C322.7,551.2,319.3,547.8,315.2,547.8z"/>
		<path class="st0" d="M154,582.2H98.8c-4.1,0-7.5,3.4-7.5,7.5s3.4,7.5,7.5,7.5H154c4.1,0,7.5-3.4,7.5-7.5S158.1,582.2,154,582.2z"
			/>
	</g>
	<circle class="st5" cx="397.4" cy="587.4" r="65.6"/>
	<path class="st6" d="M435.5,559.9c-3.1-2.8-7.8-2.5-10.6,0.6L390.6,599l-23-18.3c-3.2-2.6-8-2.1-10.5,1.2c-2.6,3.2-2.1,8,1.2,10.5
		l28.5,22.8c1.4,1.1,3,1.6,4.7,1.6c2.1,0,4.1-0.9,5.6-2.5l39.1-43.9C438.9,567.4,438.6,562.6,435.5,559.9z"/>
	<path class="st6" d="M369.8,343H44.2c-9.7,0-17.5-7.8-17.5-17.5v0c0-9.7,7.8-17.5,17.5-17.5h325.6c9.7,0,17.5,7.8,17.5,17.5v0
		C387.3,335.2,379.4,343,369.8,343z"/>
	<path class="st7" d="M369.8,308h-30.9c9.7,0,17.5,7.8,17.5,17.5v0c0,9.7-7.8,17.5-17.5,17.5h30.9c9.7,0,17.5-7.8,17.5-17.5v0
		C387.3,315.9,379.4,308,369.8,308z"/>
</g>
</svg>
