<?xml version="1.0" encoding="utf-8"?>
<!-- Generator: Adobe Illustrator 19.0.0, SVG Export Plug-In . SVG Version: 6.00 Build 0)  -->
<svg version="1.1" id="Layer_1" xmlns="http://www.w3.org/2000/svg" xmlns:xlink="http://www.w3.org/1999/xlink" x="0px" y="0px"
	 viewBox="-49 141 512 512" style="enable-background:new -49 141 512 512;" xml:space="preserve">
<style type="text/css">
	.st0{fill:#FFF8D5;}
	.st1{fill:#FFE3BA;}
	.st2{fill:#FFE565;}
	.st3{fill:#FFD400;}
	.st4{fill:#FFAB2D;}
	.st5{fill:#FF9900;}
</style>
<path class="st0" d="M-49,141h512v512H-49V141z"/>
<path class="st1" d="M207,141h256v512H207V141z"/>
<path class="st2" d="M463,653H-49V141h151v75c0,8.3,6.7,15,15,15h180c8.3,0,15-6.7,15-15v-75h151V653z"/>
<path class="st3" d="M312,141v75c0,8.3-6.7,15-15,15h-90v422h256V141H312z"/>
<path class="st4" d="M207,587.2L71.8,452H147V311h120v141h75.2L207,587.2z"/>
<path class="st5" d="M267,452V311h-60v276.2L342.2,452H267z"/>
</svg>
