<?xml version="1.0" encoding="utf-8"?>
<!-- Generator: Adobe Illustrator 19.0.0, SVG Export Plug-In . SVG Version: 6.00 Build 0)  -->
<svg version="1.1" id="Layer_1" xmlns="http://www.w3.org/2000/svg" xmlns:xlink="http://www.w3.org/1999/xlink" x="0px" y="0px"
	 viewBox="-49 141 512 512" style="enable-background:new -49 141 512 512;" xml:space="preserve">
<style type="text/css">
	.st0{fill:#99503D;}
	.st1{fill:#663325;}
	.st2{fill:#EDE9E8;}
	.st3{fill:#DFD7D5;}
	.st4{fill:#FF4B00;}
	.st5{fill:#DD3400;}
	.st6{fill:#D2C5C2;}
	.st7{fill:#C4B3AF;}
	.st8{fill:#FF7816;}
	.st9{fill:#93BF00;}
	.st10{fill:#81A713;}
</style>
<path class="st0" d="M463,441c0,33-27,60-60,60H11v-30h30l226-18.6L403,441l-136-11.1L41,411H11v-30h392C436,381,463,408,463,441z"
	/>
<path class="st1" d="M463,441c0,33-27,60-60,60H267v-48.6L403,441l-136-11.1V381h136C436,381,463,408,463,441z"/>
<path class="st2" d="M433,441c0,16.5-13.5,30-30,30H41c16.5,0,30-13.5,30-30s-13.5-30-30-30h362C419.5,411,433,424.5,433,441z"/>
<path class="st3" d="M433,441c0,16.5-13.5,30-30,30H267v-60h136C419.5,411,433,424.5,433,441z"/>
<path class="st4" d="M252,441h30v90h-30V441z"/>
<path class="st5" d="M267,441h15v90h-15V441z"/>
<path class="st6" d="M162,426h210v30H162V426z"/>
<path class="st7" d="M267,426h105v30H267V426z"/>
<path class="st8" d="M267,494.7l-45,45V653h90V539.7L267,494.7z"/>
<path class="st4" d="M267,494.7l45,45V653h-45V494.7z"/>
<path class="st4" d="M147,309.9L11,321l136,11.4l120,9.9l105,8.7h31v30H11c-33,0-60-27-60-60s27-60,60-60h392v30h-31l-105,8.7
	L147,309.9z"/>
<path class="st2" d="M372,351H11c-16.5,0-30-13.5-30-30s13.5-30,30-30h361c-16.5,0-30,13.5-30,30S355.5,351,372,351z"/>
<path class="st6" d="M41,306h211v30H41V306z"/>
<path class="st5" d="M403,261v30h-31l-105,8.7V261H403z"/>
<path class="st5" d="M372,351h31v30H267v-38.7L372,351z"/>
<path class="st3" d="M372,351H267v-60h105c-16.5,0-30,13.5-30,30S355.5,351,372,351z"/>
<path class="st9" d="M463,201c0,33-27,60-60,60H11v-30h30l226-18.6L403,201l-136-11.1L41,171H11v-30h392C436,141,463,168,463,201z"
	/>
<path class="st10" d="M463,201c0,33-27,60-60,60H267v-48.6L403,201l-136-11.1V141h136C436,141,463,168,463,201z"/>
<path class="st2" d="M433,201c0,16.5-13.5,30-30,30H41c16.5,0,30-13.5,30-30s-13.5-30-30-30h362C419.5,171,433,184.5,433,201z"/>
<path class="st3" d="M433,201c0,16.5-13.5,30-30,30H267v-60h136C419.5,171,433,184.5,433,201z"/>
<path class="st6" d="M162,186h210v30H162V186z"/>
<path class="st7" d="M267,186h105v30H267V186z"/>
</svg>
