<?xml version="1.0" encoding="utf-8"?>
<!-- Generator: Adobe Illustrator 19.0.0, SVG Export Plug-In . SVG Version: 6.00 Build 0)  -->
<svg version="1.1" id="Capa_1" xmlns="http://www.w3.org/2000/svg" xmlns:xlink="http://www.w3.org/1999/xlink" x="0px" y="0px"
	 viewBox="-49 141 512 512" style="enable-background:new -49 141 512 512;" xml:space="preserve">
<style type="text/css">
	.st0{fill:#D8D5ED;}
	.st1{fill:#BEBADE;}
	.st2{fill:#FF2C5C;}
	.st3{fill:#E62753;}
	.st4{fill:#EBAD88;}
	.st5{fill:#E89776;}
	.st6{fill:#363636;}
	.st7{fill:#FFD659;}
	.st8{fill:#FFBD54;}
	.st9{fill:#FFA954;}
	.st10{fill:#4FC6F5;}
	.st11{fill:#3BB3E3;}
</style>
<g>
	<path class="st0" d="M332.2,653H-43c-3.3,0-6-2.7-6-6V147c0-3.3,2.7-6,6-6h375.2c17.1,0,30.9,13.8,30.9,30.9v450.2
		C363.1,639.2,349.2,653,332.2,653z"/>
	<path class="st1" d="M332.2,141h-30.9c17.1,0,30.9,13.8,30.9,30.9v450.2c0,17.1-13.8,30.9-30.9,30.9h30.9
		c17.1,0,30.9-13.8,30.9-30.9V171.9C363.1,154.8,349.2,141,332.2,141z"/>
	<path class="st2" d="M12.8,653H-43c-3.3,0-6-2.7-6-6V147c0-3.3,2.7-6,6-6h55.8V653z"/>
	<rect x="-18.1" y="141" class="st3" width="30.9" height="512"/>
	<path class="st2" d="M294.6,341.4H86.5c-2.3,0-4.1-1.8-4.1-4.1v-63.9c0-2.3,1.8-4.1,4.1-4.1h208.1c2.3,0,4.1,1.8,4.1,4.1v63.9
		C298.7,339.5,296.8,341.4,294.6,341.4z"/>
	<path class="st4" d="M206.3,546.3l-11.8,11.8l-86.2,24.1c-1.3,0.3-2.3,0.1-2.9-0.5c-0.6-0.6-0.9-1.7-0.5-2.9l24.1-86.2l11.8-11.8
		L206.3,546.3z"/>
	<path class="st5" d="M172.6,536.2l-67.3,45.4c0.6,0.6,1.7,0.9,2.9,0.5l86.2-24.1L172.6,536.2z"/>
	<path class="st6" d="M140.7,573.1l-32.4,9.1c-2.5,0.7-4.1-0.9-3.5-3.5l9.1-32.4L140.7,573.1z"/>
	<g>
		
			<rect x="251.2" y="197.2" transform="matrix(-0.7071 -0.7071 0.7071 -0.7071 188.9764 831.493)" class="st7" width="30.9" height="358.8"/>
		
			<rect x="273.1" y="219.1" transform="matrix(-0.7071 -0.7071 0.7071 -0.7071 210.8289 884.251)" class="st8" width="30.9" height="358.8"/>
		
			<rect x="295" y="240.9" transform="matrix(-0.7071 -0.7071 0.7071 -0.7071 232.6836 937.01)" class="st9" width="30.9" height="358.8"/>
	</g>
	<path class="st10" d="M434.9,317.7l-65.6-65.6l23.3-23.3c6.5-6.5,16.9-6.5,23.4,0l42.2,42.2c6.5,6.5,6.5,16.9,0,23.4L434.9,317.7z"
		/>
	<path class="st11" d="M458.2,271.1l-21.9-21.9c6.5,6.5,6.5,16.9,0,23.4L413,295.8l21.9,21.9l23.3-23.3
		C464.6,288,464.6,277.5,458.2,271.1z"/>
</g>
</svg>
