<?xml version="1.0" encoding="iso-8859-1"?>
<!-- Generator: Adobe Illustrator 19.0.0, SVG Export Plug-In . SVG Version: 6.00 Build 0)  -->
<svg version="1.1" id="Layer_1" xmlns="http://www.w3.org/2000/svg" xmlns:xlink="http://www.w3.org/1999/xlink" x="0px" y="0px"
	 viewBox="0 0 120 120" style="enable-background:new 0 0 120 120;" xml:space="preserve">
<g>
	<path id="XMLID_48_" style="fill:#F5BA62;" d="M24.567,59.842H3.997l11.754-29.388h20.571L24.567,59.842z M24.567,59.842"/>
	<path id="XMLID_47_" style="fill:#F5BA62;" d="M95.097,59.842h20.57l-11.755-29.388h-20.57L95.097,59.842z M95.097,59.842"/>
	<rect id="XMLID_38_" x="36.322" y="30.454" style="fill:#DA922A;" width="47.019" height="29.388"/>
	<path id="XMLID_49_" style="fill:#C2832B;" d="M95.097,59.842H24.567l11.755-29.388h47.019L95.097,59.842z M95.097,59.842"/>
	<g>
		<path style="fill:#C9523B;" d="M28.515,32.426l-0.562,7.624h11.026l0.561-7.624H28.515z M28.515,32.426"/>
		<path style="fill:#E4C421;" d="M25.316,76.147l10.999,0.366l0.167-2.306L25.483,73.84L25.316,76.147z M25.316,76.147"/>
		<path style="fill:#C9523B;" d="M24.928,81.553h11.026l0.362-5.034l-10.999-0.363L24.928,81.553z M24.928,81.553"/>
		<path style="fill:#C9523B;" d="M25.483,73.84l10.999,0.367l2.065-29.077H27.523L25.483,73.84z M25.483,73.84"/>
		<path style="fill:#E4C421;" d="M27.523,45.13h11.025l0.431-5.081H27.953L27.523,45.13z M27.523,45.13"/>
		<rect id="XMLID_25_" x="39.822" y="12.098" style="fill:#E4C421;" width="15.246" height="8.47"/>
		<rect id="XMLID_24_" x="39.822" y="35.814" style="fill:#E4C421;" width="15.246" height="45.739"/>
		<rect id="XMLID_23_" x="39.822" y="20.569" style="fill:#D6B329;" width="15.246" height="15.246"/>
		<rect id="XMLID_22_" x="56.76" y="43.438" style="fill:#618B7D;" width="11.012" height="9.316"/>
		<rect id="XMLID_21_" x="56.76" y="52.754" style="fill:#ABCB57;" width="11.012" height="17.786"/>
		<rect id="XMLID_20_" x="56.76" y="73.93" style="fill:#ABCB57;" width="11.012" height="7.623"/>
		<rect id="XMLID_19_" x="56.76" y="70.54" style="fill:#E4C421;" width="11.012" height="3.39"/>
		<rect id="XMLID_18_" x="56.76" y="30.731" style="fill:#ABCB57;" width="11.012" height="12.707"/>
		<rect id="XMLID_17_" x="56.76" y="19.722" style="fill:#ABCB57;" width="11.012" height="8.469"/>
		<rect id="XMLID_16_" x="56.76" y="28.191" style="fill:#618B7D;" width="11.012" height="2.54"/>
		<path style="fill:#ABCB57;" d="M73.528,17.804l-5.316,0.369l0.229,2.889l5.314-0.371L73.528,17.804z M73.528,17.804"/>
		<path style="fill:#618B7D;" d="M73.224,81.553h5.343l-0.582-7.355l-5.291,0.682L73.224,81.553z M73.224,81.553"/>
		<path style="fill:#618B7D;" d="M73.062,11.676l-5.313,0.422l0.464,6.075l5.316-0.369L73.062,11.676z M73.062,11.676"/>
		<path style="fill:#618B7D;" d="M73.755,20.692l-5.314,0.371l3.87,48.962l5.291-0.678L73.755,20.692z M73.755,20.692"/>
		<path style="fill:#ABCB57;" d="M72.312,70.025l0.382,4.845l5.291-0.68l-0.382-4.844L72.312,70.025z M72.312,70.025"/>
		<rect id="XMLID_5_" x="79.629" y="70.54" style="fill:#C9523B;" width="15.248" height="11.012"/>
		<rect id="XMLID_4_" x="79.629" y="24.803" style="fill:#C9523B;" width="15.248" height="33.034"/>
		<rect id="XMLID_3_" x="79.629" y="57.837" style="fill:#E4C421;" width="15.248" height="12.704"/>
		<rect id="XMLID_2_" x="11.868" y="11.546" style="fill:none;" width="96.54" height="78.656"/>
	</g>
	<rect id="XMLID_1_" x="24.567" y="59.842" style="fill:#EB9E2C;" width="70.529" height="47.018"/>
	<path style="fill:#FFFFFF;" d="M86.28,95.107H71.587c-1.624,0-2.94-1.317-2.94-2.94c0-1.624,1.316-2.94,2.94-2.94H86.28
		c1.624,0,2.938,1.316,2.938,2.94C89.218,93.789,87.904,95.107,86.28,95.107L86.28,95.107z M86.28,95.107"/>
</g>
<path style="fill:#C9523B;" d="M68.647,80.412l-8.815-2.938l-8.816,2.938v-20.57h17.631V80.412z M68.647,80.412"/>
<g id="XMLID_50_">
</g>
<g id="XMLID_51_">
</g>
<g id="XMLID_52_">
</g>
<g id="XMLID_53_">
</g>
<g id="XMLID_54_">
</g>
<g id="XMLID_55_">
</g>
</svg>
