<?xml version="1.0" encoding="iso-8859-1"?>
<!-- Generator: Adobe Illustrator 19.0.0, SVG Export Plug-In . SVG Version: 6.00 Build 0)  -->
<svg version="1.1" id="Capa_1" xmlns="http://www.w3.org/2000/svg" xmlns:xlink="http://www.w3.org/1999/xlink" x="0px" y="0px"
	 viewBox="0 0 511.999 511.999" style="enable-background:new 0 0 511.999 511.999;" xml:space="preserve">
<g>
	<path style="fill:#F8BF00;" d="M394.862,151.949h-25.031c-0.844,0-1.563-0.597-1.731-1.424
		c-2.959-14.513-8.666-28.027-16.56-39.969c-0.465-0.704-0.379-1.633,0.218-2.23l17.702-17.702c3.404-3.404,3.404-8.923,0-12.327
		L351.345,60.18c-3.404-3.404-8.924-3.404-12.328,0l-17.702,17.702c-0.597,0.597-1.526,0.684-2.23,0.218
		c-11.943-7.894-25.456-13.601-39.969-16.561c-0.827-0.169-1.424-0.887-1.424-1.731V34.779c0-4.814-3.903-8.717-8.717-8.717h-25.619
		c-4.814,0-8.717,3.903-8.717,8.717V59.81c0,0.844-0.597,1.562-1.424,1.731c-14.513,2.96-28.026,8.666-39.969,16.561
		c-0.704,0.466-1.633,0.379-2.23-0.218l-17.702-17.702c-3.404-3.404-8.924-3.404-12.328,0L142.87,78.296
		c-3.404,3.404-3.404,8.923,0,12.327l17.702,17.702c0.597,0.597,0.684,1.526,0.218,2.23c-7.894,11.943-13.601,25.456-16.561,39.969
		c-0.169,0.827-0.887,1.424-1.731,1.424h-25.031c-4.814,0-8.717,3.903-8.717,8.717v25.618c0,4.814,3.903,8.717,8.717,8.717H142.5
		c0.844,0,1.562,0.597,1.731,1.424c2.96,14.513,8.666,28.026,16.561,39.969c0.465,0.704,0.378,1.633-0.218,2.23l-17.702,17.702
		c-3.404,3.404-3.404,8.923,0,12.328l18.115,18.115c3.404,3.404,8.923,3.404,12.328,0l17.702-17.702
		c0.597-0.597,1.526-0.684,2.23-0.218c11.942,7.894,25.456,13.601,39.969,16.561c0.827,0.169,1.424,0.887,1.424,1.731v25.031
		c0,4.814,3.903,8.717,8.717,8.717h25.619c4.814,0,8.717-3.903,8.717-8.717V287.14c0-0.844,0.597-1.562,1.424-1.731
		c14.513-2.96,28.026-8.666,39.969-16.561c0.704-0.465,1.633-0.378,2.23,0.218l17.702,17.702c3.404,3.404,8.924,3.404,12.328,0
		l18.115-18.115c3.404-3.404,3.404-8.923,0-12.328l-17.702-17.702c-0.597-0.597-0.684-1.526-0.218-2.23
		c7.894-11.942,13.601-25.456,16.56-39.969c0.169-0.827,0.887-1.424,1.731-1.424h25.031c4.814,0,8.717-3.903,8.717-8.717v-25.619
		C403.579,155.852,399.676,151.949,394.862,151.949z M256.357,248.302c-41.325,0-74.826-33.501-74.826-74.826
		s33.501-74.826,74.826-74.826s74.826,33.501,74.826,74.826S297.682,248.302,256.357,248.302z"/>
	<path style="fill:#F8BF00;" d="M296.237,170.15l-17.156-29.716c-1.188-2.057-3.383-3.325-5.759-3.325h-34.313
		c-2.376,0-4.571,1.267-5.759,3.325l-17.156,29.716c-1.188,2.057-1.188,4.592,0,6.65l17.156,29.716
		c1.188,2.057,3.383,3.325,5.759,3.325h34.313c2.376,0,4.571-1.267,5.759-3.325l17.156-29.716
		C297.425,174.743,297.425,172.208,296.237,170.15z"/>
</g>
<g>
	<path style="fill:#EFA603;" d="M160.573,108.325c0.597,0.597,0.684,1.526,0.218,2.231c-7.894,11.943-13.6,25.456-16.56,39.969
		c-0.169,0.827-0.887,1.424-1.731,1.424h20.605c0.844,0,1.562-0.597,1.731-1.424c2.96-14.513,8.666-28.026,16.56-39.969
		c0.465-0.704,0.378-1.634-0.218-2.231l-17.703-17.702c-3.404-3.404-3.404-8.923,0-12.327l13.977-13.976l-4.139-4.139
		c-3.404-3.404-8.923-3.404-12.327,0L142.87,78.296c-3.404,3.404-3.404,8.923,0,12.327L160.573,108.325z"/>
	<path style="fill:#EFA603;" d="M129.357,186.284v-25.618c0-4.814,3.902-8.717,8.717-8.717h-20.605
		c-4.814,0-8.717,3.903-8.717,8.717v25.618c0,4.814,3.902,8.717,8.717,8.717h20.605
		C133.259,195.001,129.357,191.099,129.357,186.284z"/>
	<path style="fill:#EFA603;" d="M163.475,268.655c-3.404-3.404-3.404-8.923,0-12.328l17.703-17.702
		c0.597-0.597,0.684-1.526,0.218-2.23c-7.894-11.942-13.6-25.456-16.56-39.969c-0.169-0.827-0.887-1.424-1.731-1.424H142.5
		c0.844,0,1.562,0.597,1.731,1.424c2.96,14.513,8.666,28.026,16.56,39.969c0.465,0.704,0.378,1.633-0.218,2.23l-17.703,17.702
		c-3.404,3.404-3.404,8.923,0,12.328l18.115,18.115c3.404,3.404,8.923,3.404,12.327,0l4.139-4.139L163.475,268.655z"/>
	<path style="fill:#EFA603;" d="M255.244,34.779c0-4.814,3.903-8.717,8.717-8.717h-20.605c-4.814,0-8.717,3.903-8.717,8.717V59.81
		c0,0.844-0.597,1.562-1.424,1.731c0,0,6.311-1.518,19.289-1.711c1.514-0.023,2.74-1.254,2.74-2.768L255.244,34.779L255.244,34.779z
		"/>
	<path style="fill:#EFA603;" d="M255.244,312.172v-22.75c0-1.257-1.02-2.279-2.276-2.293c-14.402-0.152-19.753-1.719-19.753-1.719
		c0.827,0.169,1.424,0.887,1.424,1.731v25.031c0,4.814,3.903,8.717,8.717,8.717h20.605
		C259.147,320.889,255.244,316.986,255.244,312.172z"/>
	<path style="fill:#EFA603;" d="M253.855,206.516L236.699,176.8c-1.188-2.057-1.188-4.592,0-6.65l17.156-29.716
		c1.188-2.057,3.383-3.325,5.759-3.325h-20.605c-2.376,0-4.571,1.267-5.759,3.325l-17.156,29.716c-1.188,2.057-1.188,4.592,0,6.65
		l17.156,29.716c1.188,2.057,3.383,3.325,5.759,3.325h20.605C257.238,209.841,255.042,208.573,253.855,206.516z"/>
</g>
<path style="fill:#EADCD6;" d="M468.206,397.349c-53.411-1.771-61.197-23.36-115.625-31.801
	c-56.776-8.805-96.664,31.917-96.664,31.917l0.178,28.982h219.284v-21.725C475.379,400.728,472.198,397.482,468.206,397.349z"/>
<path style="fill:#DDCDC7;" d="M346.77,364.816c-53.667-5.306-90.853,32.649-90.853,32.649l0.178,28.982H276.7v-23.168
	c0-3.872,1.699-7.544,4.656-10.044C290.926,385.141,314.64,367.982,346.77,364.816z"/>
<path style="fill:#EADCD6;" d="M160.448,365.548c-54.329,8.425-62.186,29.952-115.334,31.791c-4.168,0.144-7.464,3.588-7.464,7.758
	v21.349h219.284l0.178-28.982C257.113,397.465,217.224,356.744,160.448,365.548z"/>
<path style="fill:#DDCDC7;" d="M58.255,404.268c0-3.592,1.932-6.755,4.826-8.474c-5.402,0.78-11.331,1.316-17.967,1.546
	c-4.168,0.144-7.464,3.588-7.464,7.758v21.349h20.605V404.268z"/>
<path style="fill:#BA7052;" d="M502.433,425.417H9.566C4.283,425.417,0,429.7,0,434.983v17.62c0,5.283,4.283,9.566,9.566,9.566
	h217.452c2.753,0,5.052,1.985,5.592,4.684c2.175,10.883,11.783,19.083,23.306,19.083c11.759,0,21.524-8.539,23.431-19.755
	c0.395-2.324,2.426-4.013,4.784-4.013h218.302c5.283,0,9.566-4.283,9.566-9.566v-17.62
	C511.999,429.7,507.716,425.417,502.433,425.417z"/>
<path style="fill:#AD644B;" d="M502.433,441.565H284.131c-2.357,0-4.388,1.689-4.784,4.013
	c-1.907,11.216-11.671,19.755-23.431,19.755c-11.523,0-21.131-8.2-23.306-19.083c-0.54-2.7-2.839-4.684-5.592-4.684H9.566
	c-4.774,0-8.72-3.501-9.438-8.074C0.051,433.978,0,434.474,0,434.983v17.62c0,5.283,4.283,9.566,9.566,9.566h217.452
	c2.753,0,5.052,1.985,5.592,4.685c2.175,10.883,11.783,19.083,23.306,19.083c11.759,0,21.524-8.539,23.431-19.755
	c0.395-2.324,2.426-4.013,4.784-4.013h218.302c5.284,0,9.566-4.283,9.566-9.566v-17.62c0-0.509-0.051-1.005-0.128-1.492
	C511.153,438.063,507.207,441.565,502.433,441.565z"/>
<g>
</g>
<g>
</g>
<g>
</g>
<g>
</g>
<g>
</g>
<g>
</g>
<g>
</g>
<g>
</g>
<g>
</g>
<g>
</g>
<g>
</g>
<g>
</g>
<g>
</g>
<g>
</g>
<g>
</g>
</svg>
