<?xml version="1.0" encoding="utf-8"?>
<!-- Generator: Adobe Illustrator 19.0.0, SVG Export Plug-In . SVG Version: 6.00 Build 0)  -->
<svg version="1.1" id="Layer_1" xmlns="http://www.w3.org/2000/svg" xmlns:xlink="http://www.w3.org/1999/xlink" x="0px" y="0px"
	 viewBox="-75 167 460 460" style="enable-background:new -75 167 460 460;" xml:space="preserve">
<style type="text/css">
	.st0{fill:#C8523B;}
	.st1{fill:#E5C400;}
	.st2{fill:#59595A;}
	.st3{fill:#608A7C;}
	.st4{fill:#ABCB57;}
	.st5{fill:#B9BBBC;}
	.st6{opacity:0.3;fill:#5B5B5F;enable-background:new    ;}
</style>
<g>
	<polygon class="st0" points="4.3,309.5 1.6,345.8 54.1,345.8 56.8,309.5 	"/>
	<polygon class="st1" points="-10.9,517.8 41.5,519.5 42.3,508.5 -10.1,506.8 	"/>
	<polygon class="st0" points="-12.8,543.5 39.7,543.5 41.5,519.5 -10.9,517.8 	"/>
	<polygon class="st0" points="-10.1,506.8 42.3,508.5 52.1,370 -0.4,370 	"/>
	<polygon class="st1" points="-0.4,370 52.1,370 54.1,345.8 1.6,345.8 	"/>
	<rect x="58.2" y="212.7" class="st1" width="72.6" height="40.4"/>
	<rect x="58.2" y="325.5" class="st1" width="72.6" height="217.9"/>
	<rect x="58.2" y="252.9" class="st2" width="72.6" height="72.6"/>
	<rect x="138.9" y="362" class="st3" width="52.5" height="44.4"/>
	<rect x="138.9" y="406.3" class="st4" width="52.5" height="84.7"/>
	<rect x="138.9" y="507.2" class="st4" width="52.5" height="36.3"/>
	<rect x="138.9" y="491.1" class="st1" width="52.5" height="16.1"/>
	<rect x="138.9" y="301.4" class="st4" width="52.5" height="60.5"/>
	<rect x="138.9" y="248.9" class="st4" width="52.5" height="40.3"/>
	<rect x="138.9" y="289.3" class="st3" width="52.5" height="12.1"/>
	<polygon class="st4" points="218.7,239.8 193.4,241.6 194.5,255.4 219.8,253.6 	"/>
	<polygon class="st3" points="217.3,543.5 242.7,543.5 240,508.5 214.8,511.7 	"/>
	<polygon class="st3" points="216.5,210.6 191.2,212.7 193.4,241.6 218.7,239.8 	"/>
	<polygon class="st3" points="219.8,253.6 194.5,255.4 212.9,488.6 238.1,485.4 	"/>
	<polygon class="st4" points="212.9,488.6 214.8,511.7 240,508.5 238.1,485.4 	"/>
	<rect x="247.8" y="491.1" class="st0" width="72.6" height="52.5"/>
	<rect x="247.8" y="273.2" class="st0" width="72.6" height="157.4"/>
	<rect x="247.8" y="430.5" class="st1" width="72.6" height="60.5"/>
	<rect x="-75" y="543.5" class="st5" width="460" height="40"/>
	<rect x="-75" y="563.5" class="st6" width="460" height="20"/>
</g>
</svg>
