<?xml version="1.0" encoding="utf-8"?>
<!-- Generator: Adobe Illustrator 19.0.0, SVG Export Plug-In . SVG Version: 6.00 Build 0)  -->
<svg version="1.1" id="Capa_1" xmlns="http://www.w3.org/2000/svg" xmlns:xlink="http://www.w3.org/1999/xlink" x="0px" y="0px"
	 viewBox="-49 141 512 512" style="enable-background:new -49 141 512 512;" xml:space="preserve">
<style type="text/css">
	.st0{fill:#A4D9F5;}
	.st1{fill:#CAE8F9;}
	.st2{fill:#B7E0F6;}
	.st3{fill:#1689FC;}
	.st4{fill:#136EF1;}
	.st5{fill:#18A7FC;}
	.st6{fill:#4DBBEB;}
	.st7{fill:#81C8EE;}
	.st8{fill:#1DE8F1;}
	.st9{fill:#1BD9DE;}
</style>
<path class="st0" d="M418,653H313V322h135c8.3,0,15,6.7,15,15v271C463,632.9,442.9,653,418,653z"/>
<path class="st1" d="M418,653H26c-41.4,0-75-33.6-75-75V156c0-8.4,6.6-15,15-15h392c8.4,0,15,6.6,15,15v452
	C373,632.9,393.1,653,418,653z"/>
<path class="st2" d="M418,653H162V141h196c8.4,0,15,6.6,15,15v452C373,632.9,393.1,653,418,653z"/>
<path class="st3" d="M102,412c-49.5,0-91,40.5-91,90v15c0,8.4,6.6,15,15,15h151c8.4,0,15-6.6,15-15v-15C192,452.5,151.5,412,102,412
	z"/>
<path class="st4" d="M192,502v15c0,8.4-6.6,15-15,15h-75V412C151.5,412,192,452.5,192,502z"/>
<path class="st5" d="M102,322c-33,0-61,27-61,60s28,60,61,60s60-27,60-60S135,322,102,322z"/>
<path class="st3" d="M162,382c0,33-27,60-60,60V322C135,322,162,349,162,382z"/>
<path class="st6" d="M298,532h-61c-8.3,0-15-6.7-15-15c0-8.3,6.7-15,15-15h61c8.3,0,15,6.7,15,15C313,525.3,306.3,532,298,532z"/>
<path class="st7" d="M313,578c0,8.4-6.6,15-15,15H26c-8.4,0-15-6.6-15-15c0-8.4,6.6-15,15-15h272C306.4,563,313,569.6,313,578z"/>
<g>
	<path class="st6" d="M298,352h-61c-8.3,0-15-6.7-15-15s6.7-15,15-15h61c8.3,0,15,6.7,15,15S306.3,352,298,352z"/>
	<path class="st6" d="M298,412h-61c-8.3,0-15-6.7-15-15s6.7-15,15-15h61c8.3,0,15,6.7,15,15C313,405.3,306.3,412,298,412z"/>
	<path class="st6" d="M298,472h-61c-8.3,0-15-6.7-15-15s6.7-15,15-15h61c8.3,0,15,6.7,15,15S306.3,472,298,472z"/>
</g>
<path class="st8" d="M298,201H26c-8.4,0-15,6.6-15,15v61c0,8.4,6.6,15,15,15h272c8.4,0,15-6.6,15-15v-61
	C313,207.6,306.4,201,298,201z"/>
<path class="st6" d="M313,578c0,8.4-6.6,15-15,15H162v-30h136C306.4,563,313,569.6,313,578z"/>
<path class="st9" d="M313,216v61c0,8.4-6.6,15-15,15H162v-91h136C306.4,201,313,207.6,313,216z"/>
</svg>
