<?xml version="1.0" encoding="utf-8"?>
<!-- Generator: Adobe Illustrator 19.0.0, SVG Export Plug-In . SVG Version: 6.00 Build 0)  -->
<svg version="1.1" id="Layer_1" xmlns="http://www.w3.org/2000/svg" xmlns:xlink="http://www.w3.org/1999/xlink" x="0px" y="0px"
	 viewBox="-41 164.9 512 512" style="enable-background:new -41 164.9 512 512;" xml:space="preserve">
<style type="text/css">
	.st0{fill:#509FE8;}
	.st1{fill:#4D8CCF;}
	.st2{fill:#F6F6F7;}
	.st3{fill:#DF7A6E;}
	.st4{fill:#FF8C78;}
	.st5{fill:#B3B9BF;}
</style>
<g>
	<path class="st0" d="M386,186.8H44c-13.9,0-25.1,11.7-25.1,26V629c0,14.3,11.3,26,25.1,26h342c13.9,0,25.1-11.7,25.1-26V212.8
		C411.1,198.5,399.9,186.8,386,186.8z"/>
	<g>
		<path class="st1" d="M52.5,612.2c0,4.5,3.6,8.2,8,8.2h290.7c4.4,0,8-3.7,8-8.2V209.3c0-5.1-4-9.2-9-9.2H61.5c-5,0-9,4.1-9,9.2
			L52.5,612.2L52.5,612.2z"/>
		<path class="st1" d="M395.1,646.7h-342c-13.9,0-25.1-11.6-25.1-25.8V208.3c0-5.4,1.7-10.5,4.5-14.6c-8,4.3-13.5,12.9-13.5,22.9
			v412.6c0,14.2,11.3,25.8,25.1,25.8h342c8.6,0,16.1-4.4,20.7-11.1C403.2,645.7,399.3,646.7,395.1,646.7z"/>
	</g>
	<path class="st2" d="M61.1,604.2c0,4.4,3.6,8,8,8h290.7c4.4,0,8-3.6,8-8V220.9c0-5-4-9-9-9H70.1c-5,0-9,4-9,9L61.1,604.2
		L61.1,604.2z"/>
	<path class="st3" d="M315.8,459.7l-85.5-171c-2.9-5.8-8.8-9.5-15.3-9.5s-12.4,3.7-15.3,9.5l-85.5,171c-4.2,8.4-0.8,18.7,7.6,22.9
		c8.4,4.2,18.7,0.8,22.9-7.6l33.8-67.5h72.9l33.8,67.5c3,6,9,9.5,15.3,9.5c2.6,0,5.2-0.6,7.6-1.8C316.6,478.4,320,468.2,315.8,459.7
		z M195.6,373.3l19.4-38.7l19.4,38.7H195.6L195.6,373.3z"/>
	<path class="st4" d="M309.1,288.3H300v-9.1c0-4.4-3.6-8-8-8c-4.4,0-8,3.6-8,8v9.1h-9.1c-4.4,0-8,3.6-8,8c0,4.4,3.6,8,8,8h9.1v9.1
		c0,4.4,3.6,8,8,8c4.4,0,8-3.6,8-8v-9.1h9.1c4.4,0,8-3.6,8-8C317.1,291.9,313.5,288.3,309.1,288.3z"/>
	<g>
		<path class="st5" d="M283.4,535.2H146.6c-4.4,0-8-3.6-8-8c0-4.4,3.6-8,8-8h136.8c4.4,0,8,3.6,8,8
			C291.4,531.7,287.8,535.2,283.4,535.2z"/>
		<path class="st5" d="M223.6,569.5h-77c-4.4,0-8-3.6-8-8c0-4.4,3.6-8,8-8h77c4.4,0,8,3.6,8,8C231.6,565.9,228,569.5,223.6,569.5z"
			/>
	</g>
</g>
</svg>
