<?xml version="1.0" encoding="iso-8859-1"?>
<!-- Generator: Adobe Illustrator 19.0.0, SVG Export Plug-In . SVG Version: 6.00 Build 0)  -->
<svg version="1.1" id="Layer_1" xmlns="http://www.w3.org/2000/svg" xmlns:xlink="http://www.w3.org/1999/xlink" x="0px" y="0px"
	 viewBox="0 0 150 150" style="enable-background:new 0 0 150 150;" xml:space="preserve">
<g id="Accounting">
	<g id="Paper_Sheet">
		<path id="XMLID_77_" style="fill:#F4F4F4;" d="M76.821,14.439H18.462v103.17h77.672V29.542
			C89.864,16.793,76.821,14.439,76.821,14.439z"/>
		<rect id="XMLID_76_" x="62.993" y="24.835" style="fill:#C4C4C4;" width="25.596" height="5.639"/>
		<rect id="XMLID_75_" x="62.993" y="32.092" style="fill:#C4C4C4;" width="25.596" height="1.569"/>
		<rect id="XMLID_74_" x="62.993" y="34.053" style="fill:#C4C4C4;" width="25.596" height="1.569"/>
		<path id="XMLID_73_" style="fill:#D8D9D8;" d="M76.821,14.439c5.884,8.434,3.236,17.947,3.236,17.947
			c9.513-5.59,16.077-2.844,16.077-2.844C89.864,16.793,76.821,14.439,76.821,14.439z"/>
		<rect id="XMLID_72_" x="30.924" y="44.449" style="fill:#43AA93;" width="3.727" height="29.617"/>
		<rect id="XMLID_71_" x="35.631" y="55.563" style="fill:#35302E;" width="3.727" height="18.503"/>
		<rect id="XMLID_70_" x="40.731" y="50.202" style="fill:#56C3BA;" width="3.727" height="23.864"/>
		<polygon id="XMLID_69_" style="fill:#3D3D3C;" points="27.982,76.518 27.982,35.377 27.492,35.377 27.492,76.518 27.492,76.763 
			27.492,77.008 68.877,77.008 68.877,76.518 		"/>
		<rect id="XMLID_68_" x="57.403" y="58.669" style="fill:#43AA93;" width="3.727" height="15.397"/>
		<rect id="XMLID_67_" x="52.794" y="50.202" style="fill:#35302E;" width="3.727" height="23.864"/>
		<rect id="XMLID_66_" x="62.307" y="53.275" style="fill:#56C3BA;" width="3.727" height="20.791"/>
		<circle id="XMLID_65_" style="fill:#43AA93;" cx="53.571" cy="30.474" r="6.473"/>
		<rect id="XMLID_64_" x="70.283" y="54.125" style="fill:#43AA93;" width="4.838" height="4.838"/>
		<rect id="XMLID_63_" x="70.283" y="61.971" style="fill:#35302E;" width="4.838" height="4.838"/>
		<rect id="XMLID_62_" x="70.283" y="69.816" style="fill:#56C3BA;" width="4.838" height="4.838"/>
		<rect id="XMLID_61_" x="77.475" y="54.125" style="fill:#C4C4C4;" width="11.114" height="1.438"/>
		<rect id="XMLID_60_" x="77.475" y="56.234" style="fill:#C4C4C4;" width="11.114" height="2.09"/>
		<rect id="XMLID_59_" x="77.475" y="61.971" style="fill:#C4C4C4;" width="11.114" height="1.438"/>
		<rect id="XMLID_58_" x="77.475" y="64.08" style="fill:#C4C4C4;" width="11.114" height="2.09"/>
		<rect id="XMLID_57_" x="77.475" y="69.816" style="fill:#C4C4C4;" width="11.114" height="1.438"/>
		<rect id="XMLID_56_" x="77.475" y="71.926" style="fill:#C4C4C4;" width="11.114" height="2.09"/>
		<rect id="XMLID_55_" x="27.492" y="80.931" style="fill:#C4C4C4;" width="31.775" height="8.042"/>
		<rect id="XMLID_54_" x="27.492" y="90.672" style="fill:#355A52;" width="13.24" height="12.618"/>
		<rect id="XMLID_53_" x="42.594" y="90.672" style="fill:#C4C4C4;" width="16.672" height="0.85"/>
		<rect id="XMLID_52_" x="42.594" y="92.634" style="fill:#C4C4C4;" width="16.672" height="0.85"/>
		<rect id="XMLID_51_" x="42.594" y="94.595" style="fill:#C4C4C4;" width="16.672" height="0.85"/>
		<rect id="XMLID_50_" x="42.594" y="96.557" style="fill:#C4C4C4;" width="16.672" height="0.85"/>
		<rect id="XMLID_49_" x="42.594" y="98.518" style="fill:#C4C4C4;" width="16.672" height="0.85"/>
		<rect id="XMLID_48_" x="42.594" y="100.479" style="fill:#C4C4C4;" width="16.672" height="0.85"/>
		<rect id="XMLID_47_" x="42.594" y="102.441" style="fill:#C4C4C4;" width="16.672" height="0.85"/>
		<rect id="XMLID_46_" x="27.492" y="105.252" style="fill:#C4C4C4;" width="31.775" height="3.334"/>
		<rect id="XMLID_45_" x="64.17" y="80.931" style="fill:#C4C4C4;" width="24.419" height="1.896"/>
		<rect id="XMLID_44_" x="64.17" y="84.952" style="fill:#C4C4C4;" width="24.419" height="13.991"/>
		<rect id="XMLID_43_" x="71.917" y="100.055" style="fill:#C4C4C4;" width="16.672" height="0.85"/>
		<rect id="XMLID_42_" x="71.917" y="102.016" style="fill:#C4C4C4;" width="16.672" height="0.85"/>
		<rect id="XMLID_41_" x="71.917" y="103.977" style="fill:#C4C4C4;" width="16.672" height="0.85"/>
	</g>
	<g id="Calculator">
		<path id="XMLID_40_" style="fill:#36302E;" d="M143.484,126.443c0,1.331-1.079,2.41-2.41,2.41H92.88
			c-1.331,0-2.41-1.079-2.41-2.41V62.246c0-1.331,1.079-2.41,2.41-2.41h48.195c1.331,0,2.41,1.079,2.41,2.41V126.443z"/>
		<path id="XMLID_39_" style="fill:#88C0B7;" d="M136.659,64.824h-2.255h-2.935h-2.633h-5.175H97.298c-1.331,0-2.41,1.079-2.41,2.41
			v10.978c0,1.331,1.079,2.41,2.41,2.41h14.334h5.295h19.733c1.331,0,2.41-1.079,2.41-2.41V67.233
			C139.069,65.903,137.99,64.824,136.659,64.824z"/>
		<path id="XMLID_38_" style="fill:#D2ECED;" d="M128.837,64.824h-5.175l-11.735,15.274c-0.126,0.164-0.223,0.341-0.295,0.524h5.295
			l11.53-15.007C128.643,65.373,128.769,65.103,128.837,64.824z"/>
		<path id="XMLID_37_" style="fill:#D2ECED;" d="M125.653,74.305c0.51,0.391,1.24,0.296,1.632-0.214l7.121-9.268h-2.935
			l-6.031,7.849C125.047,73.183,125.143,73.913,125.653,74.305z"/>
		<path id="XMLID_36_" style="fill:#56C3BA;" d="M139.002,121.121c0,1.331-1.079,2.41-2.41,2.41h-6.025
			c-1.331,0-2.41-1.079-2.41-2.41v-16.334c0-1.331,1.079-2.41,2.41-2.41h6.025c1.331,0,2.41,1.079,2.41,2.41V121.121z"/>
		<path id="XMLID_35_" style="fill:#786B69;" d="M104.723,121.859c0,0.924-0.749,1.673-1.673,1.673h-6.389
			c-0.924,0-1.673-0.749-1.673-1.673v-6.389c0-0.924,0.749-1.673,1.673-1.673h6.389c0.924,0,1.673,0.749,1.673,1.673V121.859z"/>
		<path id="XMLID_34_" style="fill:#786B69;" d="M115.674,121.859c0,0.924-0.749,1.673-1.673,1.673h-6.389
			c-0.924,0-1.673-0.749-1.673-1.673v-6.389c0-0.924,0.749-1.673,1.673-1.673h6.389c0.924,0,1.673,0.749,1.673,1.673V121.859z"/>
		<path id="XMLID_33_" style="fill:#786B69;" d="M126.92,121.859c0,0.924-0.749,1.673-1.673,1.673h-6.389
			c-0.924,0-1.673-0.749-1.673-1.673v-6.389c0-0.924,0.749-1.673,1.673-1.673h6.389c0.924,0,1.673,0.749,1.673,1.673V121.859z"/>
		<path id="XMLID_32_" style="fill:#786B69;" d="M104.723,110.44c0,0.924-0.749,1.673-1.673,1.673h-6.389
			c-0.924,0-1.673-0.749-1.673-1.673v-6.389c0-0.924,0.749-1.673,1.673-1.673h6.389c0.924,0,1.673,0.749,1.673,1.673V110.44z"/>
		<path id="XMLID_31_" style="fill:#786B69;" d="M115.674,110.44c0,0.924-0.749,1.673-1.673,1.673h-6.389
			c-0.924,0-1.673-0.749-1.673-1.673v-6.389c0-0.924,0.749-1.673,1.673-1.673h6.389c0.924,0,1.673,0.749,1.673,1.673V110.44z"/>
		<path id="XMLID_30_" style="fill:#786B69;" d="M126.92,110.44c0,0.924-0.749,1.673-1.673,1.673h-6.389
			c-0.924,0-1.673-0.749-1.673-1.673v-6.389c0-0.924,0.749-1.673,1.673-1.673h6.389c0.924,0,1.673,0.749,1.673,1.673V110.44z"/>
		<path id="XMLID_29_" style="fill:#786B69;" d="M104.575,98.992c0,0.924-0.749,1.673-1.673,1.673h-6.389
			c-0.924,0-1.673-0.749-1.673-1.673v-6.389c0-0.924,0.749-1.673,1.673-1.673h6.389c0.924,0,1.673,0.749,1.673,1.673V98.992z"/>
		<path id="XMLID_28_" style="fill:#786B69;" d="M115.526,98.992c0,0.924-0.749,1.673-1.673,1.673h-6.389
			c-0.924,0-1.673-0.749-1.673-1.673v-6.389c0-0.924,0.749-1.673,1.673-1.673h6.389c0.924,0,1.673,0.749,1.673,1.673V98.992z"/>
		<path id="XMLID_27_" style="fill:#786B69;" d="M126.772,98.992c0,0.924-0.749,1.673-1.673,1.673h-6.389
			c-0.924,0-1.673-0.749-1.673-1.673v-6.389c0-0.924,0.749-1.673,1.673-1.673h6.389c0.924,0,1.673,0.749,1.673,1.673V98.992z"/>
		<path id="XMLID_26_" style="fill:#43AA93;" d="M139.002,93.341c0-1.331-1.079-2.41-2.41-2.41h-6.025
			c-1.331,0-2.41,1.079-2.41,2.41v4.915c0,1.331,1.079,2.41,2.41,2.41h6.025c1.331,0,2.41-1.079,2.41-2.41V93.341z"/>
		<path id="XMLID_25_" style="fill:#DF4528;" d="M126.772,85.91c0,1.331-1.079,2.41-2.41,2.41H97.251c-1.331,0-2.41-1.079-2.41-2.41
			v-0.067c0-1.331,1.079-2.41,2.41-2.41h27.111c1.331,0,2.41,1.079,2.41,2.41V85.91z"/>
		<path id="XMLID_24_" style="fill:#992224;" d="M139.002,86.078c0,1.331-1.079,2.41-2.41,2.41h-5.346
			c-1.331,0-2.41-1.079-2.41-2.41v-0.235c0-1.331,1.079-2.41,2.41-2.41h5.346c1.331,0,2.41,1.079,2.41,2.41V86.078z"/>
	</g>
	<g id="Pen">
		<path id="XMLID_23_" style="fill:#36302E;" d="M10.42,80.391c-0.961,0.754-2.351,0.586-3.104-0.376l-3.61-4.604
			C2.951,74.45,3.119,73.06,4.08,72.307l1.196-0.938c0.961-0.754,2.351-0.585,3.105,0.375l3.61,4.604
			c0.754,0.961,0.585,2.351-0.376,3.105L10.42,80.391z"/>
		<path id="XMLID_22_" style="fill:#DF4528;" d="M42.573,113.873c-0.078-0.231-0.194-0.453-0.353-0.656l-26.143-33.34l-1.535-1.957
			l-1.358-1.732c-0.027-0.035-0.057-0.067-0.086-0.099c-0.769-0.871-2.093-1.003-3.019-0.277L7.251,78.03
			c-0.961,0.754-1.129,2.144-0.376,3.105l1.358,1.732l1.535,1.958l26.144,33.34c0.167,0.213,0.367,0.385,0.585,0.518
			c0.085,0.07,0.171,0.136,0.259,0.201c2.234,1.647,5.341,1.721,5.85,1.322C43.244,119.706,43.869,116.482,42.573,113.873z"/>
		<path id="XMLID_21_" style="fill:#36302E;" d="M44.35,122.205c-0.32,0.251-0.784,0.195-1.035-0.125l-2.359-3.009
			c-0.251-0.321-0.195-0.784,0.125-1.035l0,0c0.32-0.251,0.784-0.195,1.035,0.125l2.359,3.009
			C44.727,121.49,44.671,121.953,44.35,122.205L44.35,122.205z"/>
		<path id="XMLID_20_" style="fill:#ED5C48;" d="M42.607,120.205c0.637-0.499,1.262-3.723-0.033-6.332
			c-0.078-0.231-0.194-0.453-0.353-0.656l-26.143-33.34l-1.535-1.957l-1.358-1.732c-0.027-0.035-0.057-0.067-0.086-0.099
			l23.659,42.794C38.991,120.53,42.098,120.604,42.607,120.205z"/>
		
			<rect id="XMLID_19_" x="8.147" y="80.128" transform="matrix(0.7869 -0.617 0.617 0.7869 -47.6199 24.8381)" style="fill:#36302E;" width="8.017" height="2.488"/>
		<path id="XMLID_18_" style="fill:#36302E;" d="M21.558,91.894c-0.394,0.309-0.963,0.24-1.272-0.154l-9.95-12.689
			c-0.309-0.394-0.24-0.963,0.154-1.272l0,0c0.393-0.309,0.963-0.24,1.272,0.154l9.95,12.688
			C22.021,91.016,21.952,91.586,21.558,91.894L21.558,91.894z"/>
	</g>
	<g id="Pie_Chart">
		<path id="XMLID_17_" style="fill:#43AA93;" d="M104.47,20.061v16.147h16.147C120.617,27.29,113.388,20.061,104.47,20.061z"/>
		<path id="XMLID_16_" style="fill:#ED5C48;" d="M103.264,21.596c-8.918,0-16.147,7.229-16.147,16.147
			c0,8.918,7.229,16.147,16.147,16.147c4.737,0,8.998-2.04,11.952-5.29l-11.952-10.857V21.596z"/>
		<path id="XMLID_15_" style="fill:#35302E;" d="M104.58,37.195l11.952,10.857c2.606-2.868,4.195-6.677,4.195-10.857H104.58z"/>
	</g>
	<g id="Coin">
		<g>
			<g>
				<path id="XMLID_14_" style="fill:#F3BC2F;" d="M88.351,125.825c0-1.23-0.721-2.228-1.611-2.228H67.948
					c-0.89,0-1.611,0.998-1.611,2.228v2.337c0,0.07,0.003,0.138,0.008,0.206c-0.003,0.044-0.008,0.088-0.008,0.133
					c0,2.708,4.928,4.904,11.007,4.904c6.079,0,11.007-2.195,11.007-4.904c0-0.044-0.005-0.088-0.008-0.133
					c0.005-0.068,0.008-0.137,0.008-0.206V125.825z"/>
				<ellipse id="XMLID_13_" style="fill:#F2D554;" cx="77.344" cy="125.487" rx="11.007" ry="4.904"/>
			</g>
			<g>
				<path id="XMLID_12_" style="fill:#F3BC2F;" d="M85.905,121.156c0-1.23-0.721-2.228-1.611-2.228H65.502
					c-0.889,0-1.611,0.997-1.611,2.228v2.337c0,0.07,0.003,0.138,0.008,0.206c-0.003,0.044-0.008,0.088-0.008,0.133
					c0,2.708,4.928,4.904,11.007,4.904c6.079,0,11.007-2.195,11.007-4.904c0-0.045-0.005-0.089-0.008-0.133
					c0.005-0.068,0.008-0.137,0.008-0.206V121.156z"/>
				<ellipse id="XMLID_11_" style="fill:#F2D554;" cx="74.898" cy="120.817" rx="11.007" ry="4.904"/>
			</g>
			<g>
				<path id="XMLID_10_" style="fill:#F3BC2F;" d="M89.224,116.559c0-1.23-0.721-2.228-1.611-2.228H68.822
					c-0.89,0-1.611,0.998-1.611,2.228v2.337c0,0.07,0.003,0.138,0.008,0.206c-0.003,0.044-0.008,0.088-0.008,0.133
					c0,2.708,4.928,4.904,11.007,4.904c6.079,0,11.007-2.195,11.007-4.904c0-0.044-0.005-0.088-0.008-0.133
					c0.005-0.068,0.008-0.136,0.008-0.206V116.559z"/>
				<ellipse id="XMLID_9_" style="fill:#F2D554;" cx="78.218" cy="116.22" rx="11.007" ry="4.904"/>
			</g>
		</g>
		<g>
			<path id="XMLID_8_" style="fill:#F3BC2F;" d="M63.061,128.475c0.026-1.187-0.649-2.165-1.507-2.184L43.42,125.89
				c-0.858-0.019-1.576,0.929-1.602,2.116l-0.05,2.255c-0.002,0.067,0,0.133,0.003,0.199c-0.004,0.043-0.009,0.085-0.01,0.128
				c-0.058,2.613,4.651,4.837,10.517,4.967c5.866,0.13,10.668-1.884,10.726-4.497c0.001-0.043-0.003-0.085-0.004-0.128
				c0.006-0.066,0.01-0.132,0.012-0.199L63.061,128.475z"/>
			
				<ellipse id="XMLID_7_" transform="matrix(0.9998 0.0221 -0.0221 0.9998 2.8436 -1.1293)" style="fill:#F2D554;" cx="52.447" cy="127.913" rx="10.624" ry="4.733"/>
		</g>
		<g>
			<path id="XMLID_6_" style="fill:#F3BC2F;" d="M32.964,122.001c0-1.236-0.725-2.239-1.619-2.239H12.464
				c-0.894,0-1.619,1.002-1.619,2.239v2.348c0,0.07,0.003,0.139,0.008,0.207c-0.003,0.044-0.008,0.089-0.008,0.133
				c0,2.721,4.951,4.927,11.059,4.927c6.108,0,11.059-2.206,11.059-4.927c0-0.045-0.005-0.089-0.008-0.133
				c0.005-0.068,0.008-0.137,0.008-0.207V122.001z"/>
			<ellipse id="XMLID_5_" style="fill:#F2D554;" cx="21.905" cy="121.661" rx="11.059" ry="4.927"/>
		</g>
		<g>
			<path id="XMLID_4_" style="fill:#F3BC2F;" d="M67.632,111.301c-0.859-0.826-2.038-0.992-2.635-0.371l-12.606,13.113
				c-0.597,0.621-0.384,1.793,0.474,2.618l1.631,1.568c0.049,0.047,0.098,0.091,0.149,0.133c0.029,0.031,0.056,0.064,0.087,0.094
				c1.89,1.816,6.728-0.149,10.805-4.392c4.078-4.242,5.851-9.153,3.961-10.97c-0.031-0.03-0.065-0.056-0.098-0.084
				c-0.045-0.049-0.09-0.097-0.139-0.144L67.632,111.301z"/>
			
				<ellipse id="XMLID_3_" transform="matrix(0.693 -0.7209 0.7209 0.693 -67.1898 79.72)" style="fill:#F2D554;" cx="60.012" cy="118.754" rx="10.654" ry="4.747"/>
		</g>
		<g>
			<path id="XMLID_2_" style="fill:#F3BC2F;" d="M31.217,118.06c0-1.236-0.725-2.239-1.619-2.239H10.717
				c-0.894,0-1.619,1.002-1.619,2.239v2.348c0,0.07,0.003,0.139,0.008,0.207c-0.003,0.044-0.008,0.088-0.008,0.133
				c0,2.721,4.951,4.927,11.059,4.927c6.108,0,11.059-2.206,11.059-4.927c0-0.045-0.005-0.089-0.008-0.133
				c0.005-0.069,0.008-0.137,0.008-0.207V118.06z"/>
			<ellipse id="XMLID_1_" style="fill:#F2D554;" cx="20.158" cy="117.72" rx="11.059" ry="4.927"/>
		</g>
	</g>
</g>
<g id="XMLID_78_">
</g>
<g id="XMLID_79_">
</g>
<g id="XMLID_80_">
</g>
<g id="XMLID_81_">
</g>
<g id="XMLID_82_">
</g>
<g id="XMLID_83_">
</g>
</svg>
