<?xml version="1.0" encoding="utf-8"?>
<!-- Generator: Adobe Illustrator 19.0.0, SVG Export Plug-In . SVG Version: 6.00 Build 0)  -->
<svg version="1.1" id="Layer_1" xmlns="http://www.w3.org/2000/svg" xmlns:xlink="http://www.w3.org/1999/xlink" x="0px" y="0px"
	 viewBox="-69.2 141.2 512 512" style="enable-background:new -69.2 141.2 512 512;" xml:space="preserve">
<style type="text/css">
	.st0{fill:#E1E6E9;}
	.st1{fill:#44C4A1;}
	.st2{fill:#64798A;}
	.st3{fill:#E56353;}
	.st4{fill:#D5D6DB;}
	.st5{fill:#EBF0F3;}
	.st6{fill:#2F4859;}
	.st7{fill:#3A556A;}
</style>
<rect x="-43" y="376.3" class="st0" width="459.4" height="229.6"/>
<rect x="-43" y="443.6" class="st1" width="459.4" height="129.9"/>
<g>
	<rect x="83" y="585" class="st2" width="207.6" height="7.2"/>
	<rect x="44" y="418.2" class="st2" width="159.6" height="7.2"/>
	<rect x="44" y="396.6" class="st2" width="112.3" height="7.2"/>
</g>
<polygon class="st3" points="17.1,384.7 -8.5,384.7 -21.2,408.3 -8.5,431.9 17.1,431.9 29.9,408.3 "/>
<g>
	<rect x="258.7" y="400" class="st4" width="19.2" height="25.4"/>
	<rect x="280.4" y="400" class="st4" width="19.2" height="25.4"/>
	<rect x="302" y="400" class="st4" width="19.2" height="25.4"/>
	<rect x="323.7" y="400" class="st4" width="19.2" height="25.4"/>
	<rect x="345.4" y="400" class="st4" width="19.2" height="25.4"/>
	<rect x="367.1" y="400" class="st4" width="19.2" height="25.4"/>
</g>
<g>
	<rect x="-20" y="472.1" class="st5" width="258.3" height="7.2"/>
	<rect x="-20" y="505.2" class="st5" width="258.3" height="7.2"/>
	<rect x="272.9" y="537.9" class="st5" width="120.6" height="7.2"/>
	<rect x="272.9" y="472.1" class="st5" width="120.6" height="33.8"/>
	
		<rect x="-43" y="376.3" transform="matrix(0.9857 -0.1686 0.1686 0.9857 -80.131 38.515)" class="st5" width="459.4" height="229.6"/>
</g>
<rect x="-40" y="443.4" transform="matrix(0.9857 -0.1686 0.1686 0.9857 -82.9842 39.2558)" class="st1" width="459.4" height="129.9"/>
<g>
	
		<rect x="99.4" y="583.6" transform="matrix(0.9857 -0.1686 0.1686 0.9857 -96.0864 42.6605)" class="st2" width="207.6" height="7.2"/>
	
		<rect x="33.2" y="429.8" transform="matrix(0.9857 -0.1686 0.1686 0.9857 -71.4508 25.2639)" class="st2" width="159.6" height="7.2"/>
	
		<rect x="29.9" y="412.5" transform="matrix(0.9857 -0.1686 0.1686 0.9857 -68.9237 20.4657)" class="st2" width="112.3" height="7.2"/>
</g>
<polygon class="st3" points="1.6,414.9 -23.6,419.2 -32.2,444.5 -15.7,465.6 9.5,461.3 18.1,435.9 "/>
<g>
	
		<rect x="244.3" y="387.4" transform="matrix(0.9857 -0.1686 0.1686 0.9857 -63.8121 48.5295)" class="st4" width="19.2" height="25.4"/>
	
		<rect x="265.7" y="383.7" transform="matrix(0.9857 -0.1686 0.1686 0.9857 -62.8961 52.0789)" class="st4" width="19.2" height="25.4"/>
	
		<rect x="287" y="380.1" transform="matrix(0.9857 -0.1686 0.1686 0.9857 -61.9709 55.626)" class="st4" width="19.2" height="25.4"/>
	
		<rect x="308.4" y="376.4" transform="matrix(0.9857 -0.1686 0.1686 0.9857 -61.0498 59.1739)" class="st4" width="19.2" height="25.4"/>
	
		<rect x="329.7" y="372.8" transform="matrix(0.9857 -0.1686 0.1686 0.9857 -60.1317 62.7271)" class="st4" width="19.2" height="25.4"/>
	
		<rect x="351.1" y="369.1" transform="matrix(0.9857 -0.1686 0.1686 0.9857 -59.2047 66.2773)" class="st4" width="19.2" height="25.4"/>
</g>
<g>
	
		<rect x="-21.5" y="485.4" transform="matrix(0.9857 -0.1686 0.1686 0.9857 -80.8952 25.1514)" class="st5" width="258.3" height="7.2"/>
	
		<rect x="-15.9" y="518" transform="matrix(0.9857 -0.1686 0.1686 0.9857 -86.3116 26.5629)" class="st5" width="258.3" height="7.2"/>
	
		<rect x="279.3" y="512.5" transform="matrix(0.9857 -0.1686 0.1686 0.9857 -82.1497 64.6482)" class="st5" width="120.6" height="7.2"/>
	
		<rect x="270.5" y="447.4" transform="matrix(0.9857 -0.1686 0.1686 0.9857 -73.5446 62.4126)" class="st5" width="120.6" height="33.8"/>
</g>
<polygon class="st6" points="386.2,190.2 382.1,187.7 384.5,183.8 380.2,181.1 322.4,275.4 326.8,278.1 369.4,208.5 373.5,211 "/>
<path class="st3" d="M362.8,227.2l-92.4,154.4l27.1,16.6l94-153.5C385.2,241.9,368.7,231.8,362.8,227.2z"/>
<path class="st2" d="M213.6,495.7L213.6,495.7c-1.7,2.8-3,5.8-3.8,9l-0.9,3.6c-0.2,1,0.2,2,1,2.5c0.9,0.5,2,0.4,2.7-0.2l2.8-2.4
	c2.5-2.1,4.6-4.6,6.3-7.4L213.6,495.7z"/>
<path class="st3" d="M297.5,398.2l-27.1-16.6l-37.8,61.8c-1.4,2.4-2.8,4.8-4,7.3c-6.8,14.1-12,29-15.7,44.5c-0.1,0.4,0.1,0.8,0.4,1
	l8.1,4.9c0.3,0.2,0.8,0.2,1.1-0.1c12.3-10,23.2-21.5,32.9-34.6c1.4-2,2.8-4,4.1-6.1L297.5,398.2z"/>
<g>
	<path class="st4" d="M276.4,371.5l-1.4,2.3c9.7,6.8,16.2,10.7,27.3,16.5l1.4-2.3C292.6,382.2,286.2,378.4,276.4,371.5z"/>
	<path class="st4" d="M281.4,363.2l-1.4,2.3c9.8,6.9,16.3,10.8,27.4,16.6l1.4-2.3C297.6,374,291.2,370.1,281.4,363.2z"/>
	<path class="st4" d="M286.3,354.9l-1.4,2.3c9.8,6.9,16.3,10.8,27.4,16.6l1.4-2.3C302.6,365.8,296.2,361.9,286.3,354.9z"/>
	<path class="st4" d="M291.3,346.7l-1.4,2.3c9.9,6.9,16.4,10.8,27.5,16.7l1.4-2.3C307.7,357.5,301.2,353.6,291.3,346.7z"/>
	<path class="st4" d="M296.3,338.4l-1.4,2.3c9.9,7,16.4,10.9,27.6,16.8l1.4-2.3C312.7,349.3,306.2,345.4,296.3,338.4z"/>
	<path class="st4" d="M327.5,349.2l1.4-2.3c-11.3-5.9-17.7-9.8-27.7-16.8l-1.4,2.3C309.8,339.4,316.3,343.3,327.5,349.2z"/>
	<path class="st4" d="M271.5,379.8C271.4,379.8,271.4,379.8,271.5,379.8l-1.4,2.3c9.7,6.8,16.2,10.7,27.2,16.5l1.4-2.3
		C287.6,390.5,281.2,386.6,271.5,379.8z"/>
</g>
<path class="st7" d="M391.5,244.7l41-67.1l-38.1-3l-1.9,2.8l-29.8,49.8C368.7,231.8,385.2,241.9,391.5,244.7z"/>
<path class="st6" d="M430.8,178.8c-0.3-2.9-9.2-5.6-19.7-6.1c-10.5-0.5-18.8,1.4-18.5,4.3c0.3,2.9,9.2,5.6,19.7,6.1
	C422.8,183.6,431.1,181.7,430.8,178.8z"/>
<path class="st7" d="M423.6,178.5c-0.2-1.8-5.7-3.5-12.3-3.8c-6.6-0.3-11.8,0.9-11.5,2.7s5.7,3.5,12.3,3.8
	C418.6,181.5,423.8,180.3,423.6,178.5z"/>
<path class="st5" d="M415.3,152.4L400.9,176l-1,1.6c0.6,1.7,5.8,3.3,12.2,3.6c4,0.2,7.5-0.2,9.6-0.9l1.5-2.4l9.2-15
	C434.8,158.7,417.8,148.3,415.3,152.4z"/>
</svg>
