<?xml version="1.0" encoding="utf-8"?>
<!-- Generator: Adobe Illustrator 19.0.0, SVG Export Plug-In . SVG Version: 6.00 Build 0)  -->
<svg version="1.1" id="Layer_1" xmlns="http://www.w3.org/2000/svg" xmlns:xlink="http://www.w3.org/1999/xlink" x="0px" y="0px"
	 viewBox="-42 165.9 511 511" style="enable-background:new -42 165.9 511 511;" xml:space="preserve">
<style type="text/css">
	.st0{fill:#E6E7E8;}
	.st1{fill:#FFC477;}
	.st2{fill:#FFDE55;}
	.st3{fill:#787680;}
	.st4{fill:#1E81CE;}
	.st5{fill:#FF7956;}
	.st6{fill:#FF6243;}
</style>
<g>
	<path class="st0" d="M336.8,254c-9.7,0-17.6-7.9-17.6-17.6v-70.5H37.3c-9.7,0-17.6,7.9-17.6,17.6v475.8c0,9.7,7.9,17.6,17.6,17.6
		h352.4c9.7,0,17.6-7.9,17.6-17.6V254H336.8z M143,483.1v52.9H72.5v-70.5H143V483.1z M143,359.7v52.9H72.5v-70.5H143V359.7z"/>
	<path class="st1" d="M301.6,398.9c10.9-6.3,17.6-17.8,17.6-30.4v-17.6c0-19.5-15.8-35.2-35.2-35.2c-19.5,0-35.2,15.8-35.2,35.2
		v17.6c0,12.5,6.8,24.1,17.6,30.4v22.5h35.2V398.9z"/>
	<path class="st2" d="M72.5,342.1v70.5H143v-70.5H72.5z"/>
	<path class="st2" d="M72.5,535.9H143v-70.5H72.5V535.9z"/>
	<path class="st3" d="M319.2,236.4c0,9.7,7.9,17.6,17.6,17.6h70.5l-88.1-88.1V236.4z"/>
	<path class="st4" d="M292.8,447.8l8.8,70.5L284,535.9l-17.6-17.6l8.8-70.5l-8.8-35.2c-29.2,0-52.9,23.7-52.9,52.9v88.1h141v-88.1
		c0-29.2-23.7-52.9-52.9-52.9L292.8,447.8z"/>
	<path class="st5" d="M292.8,447.8l8.8-35.2h-35.2l8.8,35.2H292.8z"/>
	<path class="st5" d="M266.4,518.3l17.6,17.6l17.6-17.6l-8.8-70.5h-17.6L266.4,518.3z"/>
	<g>
		<path class="st6" d="M116.6,395c-2.3,0-4.6-0.9-6.2-2.6l-17.6-17.6l12.5-12.5l11.4,11.4l55.4-55.4l12.5,12.5l-61.7,61.7
			C121.2,394,118.9,395,116.6,395z"/>
		<path class="st6" d="M116.6,518.3c-2.3,0-4.6-0.9-6.2-2.6l-17.6-17.6l12.5-12.5l11.4,11.4l55.4-55.4l12.5,12.5l-61.7,61.7
			C121.2,517.4,118.9,518.3,116.6,518.3z"/>
	</g>
</g>
</svg>
