<?xml version="1.0" encoding="utf-8"?>
<!-- Generator: Adobe Illustrator 19.0.0, SVG Export Plug-In . SVG Version: 6.00 Build 0)  -->
<svg version="1.1" id="Layer_1" xmlns="http://www.w3.org/2000/svg" xmlns:xlink="http://www.w3.org/1999/xlink" x="0px" y="0px"
	 viewBox="-41 164.9 512 512" style="enable-background:new -41 164.9 512 512;" xml:space="preserve">
<style type="text/css">
	.st0{fill:#C3E678;}
	.st1{fill:#EFF2FA;}
	.st2{fill:#FFD782;}
	.st3{fill:#FF6464;}
	.st4{fill:#FFC36E;}
	.st5{opacity:0.97;}
	.st6{fill:#AFB9D2;}
	.st7{fill:#C7CFE2;}
	.st8{fill:#D7DEED;}
</style>
<path class="st0" d="M382.7,659.2H47.3c-9.8,0-17.7-7.9-17.7-17.7v-459c0-9.8,7.9-17.7,17.7-17.7h335.4c9.8,0,17.7,7.9,17.7,17.7
	v459C400.4,651.3,392.5,659.2,382.7,659.2z"/>
<path class="st1" d="M365.1,588.6V235.5c-19.5,0-35.3-15.8-35.3-35.3H100.2c0,19.5-15.8,35.3-35.3,35.3v353.1
	c19.5,0,35.3,15.8,35.3,35.3h229.5C329.8,604.4,345.6,588.6,365.1,588.6z"/>
<path class="st2" d="M329.8,632.8H100.2c-4.9,0-8.8-4-8.8-8.8c0-14.6-11.9-26.5-26.5-26.5c-4.9,0-8.8-4-8.8-8.8V235.5
	c0-4.9,4-8.8,8.8-8.8c14.6,0,26.5-11.9,26.5-26.5c0-4.9,4-8.8,8.8-8.8h229.5c4.9,0,8.8,4,8.8,8.8c0,14.6,11.9,26.5,26.5,26.5
	c4.9,0,8.8,4,8.8,8.8v353.1c0,4.9-4,8.8-8.8,8.8c-14.6,0-26.5,11.9-26.5,26.5C338.6,628.8,334.6,632.8,329.8,632.8z M108.2,615.1
	h213.6c3.5-17.3,17.2-30.9,34.4-34.4V243.4c-17.3-3.5-30.9-17.2-34.4-34.4H108.2c-3.5,17.3-17.2,30.9-34.4,34.4v337.2
	C91,584.2,104.7,597.8,108.2,615.1z"/>
<g>
	<path class="st3" d="M340.3,662.7l-20.6-5.1l-12.6,17c-2.7,3.7-8.4,2.8-9.9-1.5L268,591.8l49.8-17.9l29.3,81.4
		C348.6,659.5,344.7,663.7,340.3,662.7z"/>
	<path class="st3" d="M213.3,662.7l20.6-5.1l12.6,17c2.7,3.7,8.4,2.8,9.9-1.5l29.3-81.4l-49.8-17.9l-29.3,81.4
		C205,659.5,208.8,663.7,213.3,662.7z"/>
</g>
<circle class="st2" cx="276.8" cy="544.5" r="61.8"/>
<circle class="st4" cx="276.8" cy="544.5" r="44.1"/>
<path class="st2" d="M294.4,306.1H135.6c-4.9,0-8.8-4-8.8-8.8l0,0c0-4.9,4-8.8,8.8-8.8h158.9c4.9,0,8.8,4,8.8,8.8l0,0
	C303.3,302.2,299.3,306.1,294.4,306.1z"/>
<g class="st5">
	<path class="st6" d="M144.4,376.8h-17.7c-4.9,0-8.8-4-8.8-8.8l0,0c0-4.9,4-8.8,8.8-8.8h17.7c4.9,0,8.8,4,8.8,8.8l0,0
		C153.2,372.8,149.3,376.8,144.4,376.8z"/>
</g>
<g class="st5">
	<path class="st7" d="M303.3,376.8H179.7c-4.9,0-8.8-4-8.8-8.8l0,0c0-4.9,4-8.8,8.8-8.8h123.6c4.9,0,8.8,4,8.8,8.8l0,0
		C312.1,372.8,308.2,376.8,303.3,376.8z"/>
</g>
<g class="st5">
	<path class="st6" d="M144.4,412.1h-17.7c-4.9,0-8.8-4-8.8-8.8l0,0c0-4.9,4-8.8,8.8-8.8h17.7c4.9,0,8.8,4,8.8,8.8l0,0
		C153.2,408.1,149.3,412.1,144.4,412.1z"/>
</g>
<g class="st5">
	<path class="st7" d="M303.3,412.1H179.7c-4.9,0-8.8-4-8.8-8.8l0,0c0-4.9,4-8.8,8.8-8.8h123.6c4.9,0,8.8,4,8.8,8.8l0,0
		C312.1,408.1,308.2,412.1,303.3,412.1z"/>
</g>
<g class="st5">
	<path class="st6" d="M144.4,447.4h-17.7c-4.9,0-8.8-4-8.8-8.8l0,0c0-4.9,4-8.8,8.8-8.8h17.7c4.9,0,8.8,4,8.8,8.8l0,0
		C153.2,443.4,149.3,447.4,144.4,447.4z"/>
</g>
<g class="st5">
	<path class="st7" d="M303.3,447.4H179.7c-4.9,0-8.8-4-8.8-8.8l0,0c0-4.9,4-8.8,8.8-8.8h123.6c4.9,0,8.8,4,8.8,8.8l0,0
		C312.1,443.4,308.2,447.4,303.3,447.4z"/>
</g>
<g>
	<path class="st8" d="M188.5,526.8h-61.8c-4.9,0-8.8-4-8.8-8.8l0,0c0-4.9,4-8.8,8.8-8.8h61.8c4.9,0,8.8,4,8.8,8.8l0,0
		C197.3,522.9,193.4,526.8,188.5,526.8z"/>
	<path class="st8" d="M162,562.1h-35.3c-4.9,0-8.8-4-8.8-8.8l0,0c0-4.9,4-8.8,8.8-8.8H162c4.9,0,8.8,4,8.8,8.8l0,0
		C170.9,558.2,166.9,562.1,162,562.1z"/>
</g>
<path class="st2" d="M268,270.8H162c-4.9,0-8.8-4-8.8-8.8l0,0c0-4.9,4-8.8,8.8-8.8H268c4.9,0,8.8,4,8.8,8.8l0,0
	C276.8,266.9,272.8,270.8,268,270.8z"/>
</svg>
