<?xml version="1.0" encoding="utf-8"?>
<!-- Generator: Adobe Illustrator 19.0.0, SVG Export Plug-In . SVG Version: 6.00 Build 0)  -->
<svg version="1.1" id="Layer_1" xmlns="http://www.w3.org/2000/svg" xmlns:xlink="http://www.w3.org/1999/xlink" x="0px" y="0px"
	 viewBox="-41 164.9 512 512" style="enable-background:new -41 164.9 512 512;" xml:space="preserve">
<style type="text/css">
	.st0{fill:#DC4D41;}
	.st1{fill:#EA6B65;}
	.st2{fill:#F3AF3E;}
	.st3{fill:#99D8AA;}
	.st4{fill:#6CBAE5;}
	.st5{fill:#5D9AA4;}
</style>
<path class="st0" d="M163.7,294.8l49.1-49.1l37.7,37.7l-49.1,49.1L163.7,294.8z"/>
<path class="st1" d="M54.5,345l128.9-128.9l36.8,36.8L91.3,381.8L54.5,345z"/>
<path class="st1" d="M281.5,203.9l18.4,18.4L195.6,326.6l36.8,36.8l104.3-104.3l18.4,18.4l18.4-92L281.5,203.9z"/>
<path class="st2" d="M2.4,564.1h69.4v104.1H2.4V564.1z"/>
<path class="st3" d="M123.9,503.3h69.4v164.9h-69.4V503.3z"/>
<path class="st4" d="M245.4,416.6h69.4v251.7h-69.4V416.6z"/>
<path class="st1" d="M366.9,338.4h69.4v329.8h-69.4V338.4z"/>
<g>
	<path class="st5" d="M462.3,676.9H-32.3c-4.8,0-8.7-3.9-8.7-8.7V173.6c0-4.8,3.9-8.7,8.7-8.7s8.7,3.9,8.7,8.7v486h486
		c4.8,0,8.7,3.9,8.7,8.7C471,673,467.1,676.9,462.3,676.9z"/>
	<path class="st5" d="M28.4,520.7h17.4V538H28.4V520.7z"/>
	<path class="st5" d="M149.9,459.9h17.4v17.4h-17.4V459.9z"/>
	<path class="st5" d="M271.4,373.2h17.4v17.4h-17.4V373.2z"/>
	<path class="st5" d="M392.9,295.1h17.4v17.4h-17.4V295.1z"/>
</g>
</svg>
