<?xml version="1.0" encoding="utf-8"?>
<!-- Generator: Adobe Illustrator 19.0.0, SVG Export Plug-In . SVG Version: 6.00 Build 0)  -->
<svg version="1.1" id="Layer_1" xmlns="http://www.w3.org/2000/svg" xmlns:xlink="http://www.w3.org/1999/xlink" x="0px" y="0px"
	 viewBox="-49 141 512 512" style="enable-background:new -49 141 512 512;" xml:space="preserve">
<style type="text/css">
	.st0{fill:#4982AA;}
	.st1{fill:#6CB8DD;}
	.st2{fill:#B3DCF4;}
	.st3{fill:#EDBA89;}
	.st4{fill:#87BED5;}
	.st5{fill:#6598CB;}
	.st6{fill:#694B4B;}
	.st7{fill:#563B3B;}
	.st8{fill:#FBCB99;}
</style>
<path class="st0" d="M462.5,397c0,139.5-114.5,250.5-255.8,250.5S-49,536.5-49,397S65.5,144.3,206.8,144.3S462.5,257.5,462.5,397z"
	/>
<g>
	<path class="st1" d="M136.3,153.8C82.1,169.4,35.2,202.4,2.1,246.4c18.2,7.1,40.1,13.2,64.6,17.9c6.8-20.1,15.1-38.9,24.8-55.9
		C104.7,185.7,119.8,167.3,136.3,153.8z"/>
	<path class="st1" d="M-8,260.9c-24.5,37.8-39.4,82.5-41,130.4h94.8c0.7-38.9,6.1-76.4,15.8-110.5C35.1,275.6,11.4,268.9-8,260.9z"
		/>
</g>
<g>
	<path class="st2" d="M422,260.9c-19.5,8-43.1,14.7-69.6,20c9.7,34.1,15.1,71.6,15.8,110.5H463C461.4,343.4,446.6,298.7,422,260.9z"
		/>
	<path class="st2" d="M307.5,217.1c-25.1-43.6-57.5-69.1-91.8-72.8v132.5c40.6-0.4,79.6-3.7,114.4-9.4
		C323.8,249.3,316.3,232.4,307.5,217.1z"/>
</g>
<path class="st1" d="M368.2,408.7c-0.1,7.7-0.5,15.4-1,23c-0.3,4.6-4.1,8.1-8.6,8.1c-0.2,0-0.4,0-0.6,0c-4.8-0.3-8.4-4.4-8-9.2
	c0.5-7.2,0.8-14.5,0.9-21.8h-88.4c-4.8,0-8.6-3.9-8.6-8.6c0-4.8,3.9-8.6,8.6-8.6h88.4c-0.7-37.9-6.1-74.4-15.6-107.4
	c-36.4,6.1-77.3,9.6-119.7,10.1v78.3c0,4.8-3.9,8.6-8.6,8.6c-4.8,0-8.6-3.9-8.6-8.6v-78.3c-42.3-0.4-83.2-4-119.7-10.1
	c-9.5,33-14.9,69.5-15.6,107.4h88.5c4.8,0,8.6,3.9,8.6,8.6c0,4.8-3.9,8.6-8.6,8.6H63.1c0.1,7.1,0.4,14.1,0.9,21.1
	c0.3,4.8-3.3,8.9-8.1,9.2c-4.8,0.3-8.9-3.3-9.2-8.1c-0.5-7.3-0.8-14.8-0.9-22.2H-49c0.7,20.8,3.9,41.3,9.4,61
	c32.8,104.3,130.3,180,245.4,180c136.6,0,250.8-108.8,256.7-241L368.2,408.7L368.2,408.7z"/>
<path class="st2" d="M277.7,153.8c16.5,13.5,31.6,31.9,44.7,54.7c9.8,16.9,18.1,35.7,24.8,55.9c24.4-4.8,46.4-10.8,64.6-17.9
	C378.8,202.4,331.9,169.4,277.7,153.8z"/>
<path class="st1" d="M198.4,144.3c-34.4,3.7-66.7,29.2-91.8,72.8c-8.8,15.3-16.4,32.2-22.6,50.3c34.9,5.7,74,9,114.4,9.4
	L198.4,144.3L198.4,144.3z"/>
<g>
	<path class="st2" d="M99.1,269.7c30.9,4.3,64.6,6.8,99.3,7.1V144.3c-20.9,2.2-41,12.5-59.2,30C119.6,202.4,105.7,234.7,99.1,269.7z
		"/>
	<path class="st2" d="M367.2,431.7c-0.3,4.6-4.1,8.1-8.6,8.1c-0.2,0-0.4,0-0.6,0c-4.8-0.3-8.4-4.4-8-9.2c0.5-7.2,0.8-14.5,0.9-21.8
		h-88.4c-4.8,0-8.6-3.9-8.6-8.6c0-4.8,3.9-8.6,8.6-8.6h88.4c-0.7-37.9-6.1-74.4-15.6-107.4c-36.4,6.1-77.3,9.6-119.7,10.1v78.3
		c0,4.8-3.9,8.6-8.6,8.6c-4.8,0-8.6-3.9-8.6-8.6v-78.3c-35.5-0.4-70.1-2.9-101.8-7.4c-1.1,9.4-1.7,19-1.7,28.8
		c0,26.5,4.2,52,11.9,75.9h44.9c4.8,0,8.6,3.9,8.6,8.6c0,4.8-3.9,8.6-8.6,8.6h-38.6c36.8,90.1,125.3,153.6,228.6,153.6
		c22.3,0,44.1-2.5,64.7-8.1c33.5-39.6,52.8-90.8,56.2-145.6h-94.4C368.1,416.4,367.7,424.1,367.2,431.7z"/>
</g>
<path class="st3" d="M392,492.9l-0.5,0.4c0,0,0,0,0,0L392,492.9L392,492.9z M391.5,492.9l-0.1,0.2c0,0,0,0,0-0.1L391.5,492.9
	L391.5,492.9L391.5,492.9z M259.4,451.8l-0.6,0.5c0,0,0,0,0,0L259.4,451.8L259.4,451.8z M258.7,451.8l-0.1,0.3c0,0,0,0-0.1-0.1
	L258.7,451.8L258.7,451.8z M95.1,492.9l-0.5,0.4c0,0,0,0,0,0L95.1,492.9L95.1,492.9z M94.6,492.9l-0.1,0.2c0,0,0,0,0-0.1L94.6,492.9
	L94.6,492.9L94.6,492.9z"/>
<path class="st4" d="M410.4,496.9v-16.6c0-5.7-0.9-11.3-2.5-16.5c0-0.1-0.1-0.2-0.1-0.3c0-0.1-0.1-0.2-0.1-0.4
	c-7.5-21.5-27.4-28.5-40.6-30.8c-0.6,4.2-4.3,7.3-8.5,7.3c-0.2,0-0.4,0-0.6,0c-0.4,0-0.7-0.1-1.1-0.1v109.7h-14.6
	c0.8,3.9,0.7,9.9,0.7,14.7c0,7.2-3.1,9.4-4,11.9s-19,40.3-22.3,20.2c-2-12-8.4-21.1-13.2-26.5l-0.1,0c-0.9-1.1-1.9-2.1-2.9-3
	c0,0-0.1-0.1-0.1-0.1l-0.1-0.1c-0.4-0.4-0.8-0.8-1.2-1.1c-0.2-0.2-0.4-0.4-0.6-0.5l0,0c-0.3-0.2-0.5-0.5-0.8-0.7
	c-0.4-0.3-0.8-0.7-1.2-1c-0.1-0.1-0.2-0.1-0.2-0.2c-4.6-3.7-9.6-6.6-14.4-8.3l-41.7-16.7v-2c13.6-7.6,23-20.6,25.9-35.7
	c0.8-0.1,1.6-0.3,2.3-0.5c2.1-0.6,4-1.5,5.9-2.7c1.1-0.7,2.1-1.5,3-2.5c1.1-0.7,2.1-1.6,2.9-2.5c3.7-4.2,5.9-9.4,6.5-14.9v-5
	c-0.5-5.3-2.6-10.4-6.1-14.5v-19.7c-0.3-1.9-0.5-4-0.7-6.4c-0.7-8.9-2.8-16.4-5.7-22.7h-11.9c-4.8,0-8.6-3.9-8.6-8.6
	c0-4.6,3.5-8.3,8-8.6c-16.1-14.8-38.2-17-46.5-17.3c-0.1,0.3-0.2,0.7-0.3,1V619h-87.7v-40.6l-14.1-5.6l0,0.1l-31.7-12.7
	c10.3-6.1,17.6-16.2,20.1-27.8c0.4-0.1,0.7-0.2,1.1-0.3c1.7-0.5,3.4-1.3,5-2.3c0.9-0.6,1.8-1.3,2.6-2.1c0.9-0.6,1.7-1.3,2.5-2.2
	c3.6-4.1,5.6-9.3,5.6-14.7c0-5.1-1.8-10-4.9-14v-16.6c0-2.7-0.2-5.3-0.5-7.8c-5.1-33.4-35.7-39.7-49.1-40.9c-0.6,3.9-3.8,7.1-8,7.3
	c-1.6,0.1-3.1-0.3-4.5-0.9v160.2c43,32.3,96.5,51.5,154.4,51.5c74.8,0,142.1-31.9,189.1-82.9l-16.5-6.6
	c10.3-6.1,17.6-16.2,20.1-27.8c0.4-0.1,0.7-0.2,1.1-0.3c1.7-0.5,3.4-1.3,5-2.3c0.9-0.6,1.8-1.3,2.6-2.1c0.9-0.6,1.7-1.3,2.5-2.2
	c3.6-4.1,5.6-9.3,5.6-14.7C415.3,505.7,413.5,500.8,410.4,496.9z"/>
<path class="st5" d="M433.1,618.4c0-0.6,0-1.3,0-1.9c0-0.1,0-0.2,0-0.3c0-0.3,0-0.6-0.1-1c0-0.4,0-0.8-0.1-1.2c0-0.2,0-0.3-0.1-0.5
	c-0.1-0.5-0.1-1.1-0.2-1.6c0,0,0-0.1,0-0.1c-1.4-10.8-6.4-18.8-11.9-24.1c0,0-0.1,0-0.1-0.1c-0.3-0.3-0.6-0.6-0.9-0.8
	c-0.1-0.1-0.3-0.3-0.4-0.4c-0.2-0.2-0.3-0.3-0.5-0.4c-0.3-0.2-0.6-0.5-0.8-0.7c0,0-0.1,0-0.1-0.1c-3.6-2.9-7.1-4.8-9.9-5.7
	c0,0,0,0,0,0l-0.1,0c0,0,0,0,0,0l-36.6-14.7l-9.2,9.5l-9.4,9.1l-9.4-9.1l-9.2-9.5l-36.6,14.7c0,0,0,0,0,0l-0.1,0c0,0,0,0,0,0
	c-2.8,1-6.4,2.8-9.9,5.7c0,0-0.1,0-0.1,0.1c-0.3,0.2-0.6,0.5-0.8,0.7c-0.2,0.1-0.3,0.3-0.5,0.4c-0.1,0.1-0.3,0.3-0.4,0.4
	c-0.3,0.3-0.6,0.5-0.9,0.8c0,0,0,0-0.1,0.1c-5.5,5.4-10.5,13.3-11.9,24.1c0,0,0,0.1,0,0.1c-0.1,0.5-0.1,1.1-0.2,1.6
	c0,0.2,0,0.3-0.1,0.5c0,0.4-0.1,0.8-0.1,1.2c0,0.3,0,0.6-0.1,1c0,0.1,0,0.2,0,0.3c0,0.6,0,1.3,0,1.9v5.8h0V642
	c0.2,2.8,1.7,7.7,8.9,7.7h8.8h125.6h8.8c7.2,0,8.6-4.9,8.9-7.7v-17.8l0,0L433.1,618.4L433.1,618.4z"/>
<g>
	<path class="st0" d="M318.1,640.6l0-30.4c0-0.9,0-1.8-0.1-2.7c0-0.1,0-0.2,0-0.4c0-0.3,0-0.7-0.1-1l0-0.7c0-0.4-0.1-0.9-0.1-1.3
		c0-0.2,0-0.4-0.1-0.5l0-0.2c-0.1-0.7-0.1-1.5-0.2-2.2c0-0.1,0-0.2,0-0.4c-1.5-10.8-5.4-19.3-9.7-25.6l-10.3,4.1c0,0,0,0,0,0l-0.1,0
		c0,0,0,0,0,0c-2.8,1-6.4,2.8-9.9,5.7c0,0-0.1,0-0.1,0.1c-0.3,0.2-0.6,0.5-0.8,0.7c-0.2,0.1-0.3,0.3-0.5,0.5
		c-0.1,0.1-0.3,0.3-0.4,0.4c-0.3,0.3-0.6,0.5-0.9,0.8c0,0,0,0-0.1,0.1c-5.5,5.4-10.5,13.3-11.9,24.1c0,0,0,0.1,0,0.1
		c-0.1,0.5-0.1,1.1-0.2,1.6c0,0.2,0,0.3-0.1,0.5c0,0.4-0.1,0.8-0.1,1.2c0,0.3,0,0.6-0.1,1c0,0.1,0,0.2,0,0.3c0,0.6,0,1.3,0,1.9v5.8
		h0V642c0.2,2.8,1.7,7.7,8.9,7.7h8.8h25.1C316.8,646.9,317.8,643.7,318.1,640.6z"/>
	<path class="st0" d="M334,565.1l-36.5,14.3l-0.1,0c-9.3,3.3-25.2,15.3-25.2,39V642c0.2,2.8,1.7,7.7,8.9,7.7h1.8v-31.3
		c0-23.7,15.8-35.7,25.2-39l0.1,0l28.8-11.3L334,565.1z"/>
</g>
<path class="st6" d="M354.5,431.4h-4c-27,0-48.9,22-48.9,48.9v6.5v6.1v10.3c0,0,11.1-1.1,12.5-6.5l0,0c0.5-0.5,0.9-1.1,1.1-1.7
	c6.3-0.2,35.8-0.4,52.7-20.8c2,5.9,8.8,17,21.9,20.5c0.3,0.7,0.7,1.4,1.2,1.9l-0.1,0.1c1.4,5.4,12.5,6.5,12.5,6.5v-10.4v-6.1v-6.5
	C403.5,453.3,381.5,431.4,354.5,431.4z M391.4,493.2l0.5-0.3h0.1l-0.8,0.6L391.4,493.2z M391.2,493.4l0.1-0.2l0.2-0.3h0.1
	L391.2,493.4L391.2,493.4z M389.9,494.4L389.9,494.4l1.2-0.9l-0.3,0.3L389.9,494.4L389.9,494.4z M390.9,494.1l-0.4,0.8c0,0,0,0,0,0
	l-0.1,0c0,0,0,0,0,0l0.6-1.2l0,0L390.9,494.1z"/>
<path class="st7" d="M310.3,492.9v-6.1v-6.5c0-26.2,20.7-47.7,46.6-48.9c-0.8,0-1.6-0.1-2.3-0.1h-4c-27,0-48.9,22-48.9,48.9v6.5v6.1
	v10.3c0,0,4.9-0.5,8.6-2.4L310.3,492.9L310.3,492.9z"/>
<path class="st8" d="M397.6,496.2c-1.9-0.6-3.9-0.2-5.5,0.9c-1.6,1.2-2.5,3-2.5,5v17.6c0,2,0.9,3.8,2.5,5c1.1,0.8,2.4,1.2,3.7,1.2
	c0.6,0,1.2-0.1,1.8-0.3c1.2-0.4,2.3-0.9,3.5-1.6c0.6-0.4,1.2-0.9,1.7-1.5c0.7-0.4,1.3-0.8,1.8-1.4c2.5-2.8,3.9-6.4,3.9-10.2
	C408.4,504.1,404.1,498.2,397.6,496.2z"/>
<path class="st3" d="M313.2,497.1c-1.6-1.2-3.6-1.5-5.5-0.9c-6.5,2-10.8,7.9-10.8,14.7c0,6.8,4.3,12.7,10.8,14.7
	c0.6,0.2,1.2,0.3,1.8,0.3c1.3,0,2.6-0.4,3.7-1.2c1.6-1.2,2.5-3,2.5-5V502C315.7,500.1,314.8,498.2,313.2,497.1z"/>
<path class="st8" d="M369.5,550.2c-1.2-1.2-2.8-1.8-4.5-1.7l-0.2,0c-0.4,0-0.7,0.1-1.1,0.1c-2.4,0.5-4.8,0.8-7.2,0.8h-7.5
	c-2.5,0-5-0.3-7.4-0.8c-1.8-0.4-3.8,0-5.2,1.2c-1.5,1.2-2.3,2.9-2.3,4.8v17.9l0,0.1c-0.1,1.8,0.6,3.5,1.9,4.8l12.4,12.1
	c1.2,1.1,2.7,1.7,4.3,1.7c0,0,0.1,0,0.1,0c1.6,0,3.2-0.7,4.3-1.9l12.8-13.2c1.1-1.1,1.7-2.7,1.7-4.3v-17.1
	C371.4,553,370.7,551.4,369.5,550.2z"/>
<path class="st3" d="M353.7,587.6l-12.4-12.1c-1.3-1.2-2-3-1.9-4.8l0-0.1v-17.9c0-1.6,0.6-3.1,1.7-4.2c-1.7-0.3-3.5,0.1-4.9,1.2
	c-1.5,1.2-2.3,2.9-2.3,4.8v17.9l0,0.1c-0.1,1.8,0.6,3.5,1.9,4.8l12.4,12.1c1.2,1.1,2.7,1.7,4.3,1.7c0,0,0.1,0,0.1,0
	c1.6,0,3.2-0.7,4.3-1.9l0.1-0.1C355.7,589,354.6,588.4,353.7,587.6z"/>
<path class="st8" d="M388.7,491.1c-0.7-0.3-1.4-0.6-2.1-0.9c-10.4-4.8-14.7-11.1-16.4-14.9c-0.1-0.1-0.2-0.3-0.3-0.5
	c-1.2-2.3-3.2-0.8-3.2-0.8l0,0c-9.7,7.4-20.2,11.8-29,14.3c-3.4,1-6.7,1.7-9.7,2.3c-5.9,1.1-9.7,1.2-9.7,1.2
	c-3.2,0.2-5.7,2.9-5.7,6.1v25.1c0,20,16.3,36.3,36.3,36.3h7.5c20,0,36.3-16.3,36.3-36.3v-26.1C392.7,494.3,391.1,492,388.7,491.1z"
	/>
<path class="st3" d="M320,523.1v-25.1c0-3.2,2.5-5.9,5.7-6.1c0,0,3.8-0.1,9.7-1.2c3-0.5,6.2-1.3,9.7-2.3c7.8-2.2,16.9-5.9,25.6-11.8
	c-0.2-0.4-0.4-0.7-0.5-1.1c-0.1-0.1-0.2-0.3-0.3-0.5c-1.2-2.3-3.2-0.8-3.2-0.8l0,0c-9.7,7.4-20.2,11.8-29,14.3
	c-3.4,1-6.7,1.7-9.7,2.3c-5.9,1.1-9.7,1.2-9.7,1.2c-3.2,0.2-5.7,2.9-5.7,6.1V523c0,20,16.3,36.3,36.3,36.3h7.4
	C336.3,559.3,320,543,320,523.1z"/>
<path class="st5" d="M136.2,618.4c0-0.6,0-1.3,0-1.9c0-0.1,0-0.2,0-0.3c0-0.3,0-0.6-0.1-1c0-0.4,0-0.8-0.1-1.2c0-0.2,0-0.3-0.1-0.5
	c-0.1-0.5-0.1-1.1-0.2-1.6c0,0,0-0.1,0-0.1c-1.4-10.8-6.4-18.8-11.9-24.1c0,0-0.1,0-0.1-0.1c-0.3-0.3-0.6-0.6-0.9-0.8
	c-0.1-0.1-0.3-0.3-0.4-0.4c-0.2-0.2-0.3-0.3-0.5-0.4c-0.3-0.2-0.6-0.5-0.8-0.7c0,0-0.1,0-0.1-0.1c-3.6-2.9-7.1-4.8-9.9-5.7
	c0,0,0,0,0,0l-0.1,0c0,0,0,0,0,0l-36.7-14.7l-9.2,9.5l-9.4,9.1l-9.4-9.1l-9.2-9.5L0.6,579.4c0,0,0,0,0,0l-0.1,0c0,0,0,0,0,0
	c-2.8,1-6.4,2.8-9.9,5.7c0,0-0.1,0-0.1,0.1c-0.3,0.2-0.6,0.5-0.8,0.7c-0.2,0.1-0.3,0.3-0.5,0.4c-0.1,0.1-0.3,0.3-0.4,0.4
	c-0.3,0.3-0.6,0.5-0.9,0.8c0,0,0,0-0.1,0.1c-5.5,5.4-10.5,13.3-11.9,24.1c0,0,0,0.1,0,0.1c-0.1,0.5-0.1,1.1-0.2,1.6
	c0,0.2,0,0.3-0.1,0.5c0,0.4-0.1,0.8-0.1,1.2c0,0.3,0,0.6-0.1,1c0,0.1,0,0.2,0,0.3c0,0.6,0,1.3,0,1.9v5.8h0V642
	c0.2,2.8,1.7,7.7,8.9,7.7H-7h125.6h8.8c7.2,0,8.6-4.9,8.9-7.7v-17.8l0,0L136.2,618.4L136.2,618.4z"/>
<path class="st0" d="M37.1,565.1L0.6,579.3l-0.1,0c-9.3,3.3-25.2,15.3-25.2,39V642c0.2,2.8,1.7,7.7,8.9,7.7h1.8v-31.3
	c0-23.7,15.8-35.7,25.2-39l0.1,0l28.8-11.3L37.1,565.1z"/>
<path class="st6" d="M57.6,431.4h-4c-27,0-48.9,22-48.9,48.9v6.5v6.1v10.3c0,0,11.1-1.1,12.5-6.5l0,0c0.5-0.5,0.9-1.1,1.1-1.7
	c6.3-0.2,35.8-0.4,52.7-20.8c2,5.9,8.8,17,21.9,20.5c0.3,0.7,0.7,1.4,1.2,1.9l-0.1,0.1c1.4,5.4,12.5,6.5,12.5,6.5v-10.4v-6.1v-6.5
	C106.6,453.3,84.6,431.4,57.6,431.4z M94.5,493.2l0.5-0.3h0.1l-0.8,0.6L94.5,493.2z M94.3,493.4l0.1-0.2l0.2-0.3h0.1L94.3,493.4
	L94.3,493.4z M93,494.4L93,494.4l1.2-0.9l-0.3,0.3L93,494.4L93,494.4z M94,494.1l-0.4,0.8c0,0,0,0,0,0l-0.1,0c0,0,0,0,0,0l0.6-1.2
	l0,0L94,494.1z"/>
<path class="st7" d="M13.4,492.9v-6.1v-6.5c0-26.2,20.7-47.7,46.6-48.9c-0.8,0-1.6-0.1-2.3-0.1h-4c-27,0-48.9,22-48.9,48.9v6.5v6.1
	v10.3c0,0,4.9-0.5,8.6-2.4L13.4,492.9L13.4,492.9z"/>
<path class="st8" d="M100.7,496.2c-1.9-0.6-3.9-0.2-5.5,0.9c-1.6,1.2-2.5,3-2.5,5v17.6c0,2,0.9,3.8,2.5,5c1.1,0.8,2.4,1.2,3.7,1.2
	c0.6,0,1.2-0.1,1.8-0.3c1.2-0.4,2.3-0.9,3.4-1.6c0.7-0.4,1.2-0.9,1.7-1.5c0.7-0.4,1.3-0.8,1.8-1.4c2.5-2.8,3.9-6.4,3.9-10.2
	C111.5,504.1,107.2,498.2,100.7,496.2z"/>
<path class="st3" d="M16.3,497.1c-1.6-1.2-3.6-1.5-5.5-0.9c-6.5,2-10.8,7.9-10.8,14.7c0,6.8,4.3,12.7,10.8,14.7
	c0.6,0.2,1.2,0.3,1.8,0.3c1.3,0,2.6-0.4,3.7-1.2c1.6-1.2,2.5-3,2.5-5V502C18.8,500.1,17.9,498.2,16.3,497.1z"/>
<path class="st8" d="M72.6,550.2c-1.2-1.2-2.8-1.8-4.5-1.7l-0.2,0c-0.4,0-0.7,0.1-1.1,0.1c-2.4,0.5-4.8,0.8-7.2,0.8H52
	c-2.5,0-5-0.3-7.4-0.8c-1.8-0.4-3.8,0-5.2,1.2c-1.5,1.2-2.3,2.9-2.3,4.8v17.9l0,0.1c-0.1,1.8,0.6,3.5,1.9,4.8l12.4,12.1
	c1.2,1.1,2.7,1.7,4.3,1.7c0,0,0.1,0,0.1,0c1.6,0,3.2-0.7,4.3-1.9L72.8,576c1.1-1.1,1.7-2.7,1.7-4.3v-17.1
	C74.5,553,73.8,551.4,72.6,550.2z"/>
<path class="st3" d="M56.8,587.6l-12.4-12.1c-1.3-1.2-2-3-1.9-4.8l0-0.1v-17.9c0-1.6,0.6-3.1,1.7-4.2c-1.7-0.3-3.5,0.1-4.9,1.2
	c-1.5,1.2-2.3,2.9-2.3,4.8v17.9l0,0.1c-0.1,1.8,0.6,3.5,1.9,4.8l12.4,12.1c1.2,1.1,2.7,1.7,4.3,1.7c0,0,0.1,0,0.1,0
	c1.6,0,3.2-0.7,4.3-1.9l0.1-0.1C58.8,589,57.7,588.4,56.8,587.6z"/>
<path class="st8" d="M91.8,491.1c-0.7-0.3-1.4-0.6-2.1-0.9c-10.4-4.8-14.7-11.1-16.4-14.9c-0.1-0.1-0.2-0.3-0.3-0.5
	c-1.2-2.3-3.2-0.8-3.2-0.8l0,0c-9.7,7.4-20.2,11.8-29,14.3c-3.4,1-6.7,1.7-9.7,2.3c-5.9,1.1-9.7,1.2-9.7,1.2
	c-3.2,0.2-5.7,2.9-5.7,6.1v25.1c0,20,16.3,36.3,36.3,36.3h7.5c20,0,36.3-16.3,36.3-36.3v-26.1C95.8,494.3,94.2,492,91.8,491.1z"/>
<path class="st3" d="M23.1,523.1v-25.1c0-3.2,2.5-5.9,5.7-6.1c0,0,3.8-0.1,9.7-1.2c3-0.5,6.2-1.3,9.7-2.3
	c7.8-2.2,16.9-5.9,25.6-11.8c-0.2-0.4-0.4-0.7-0.5-1.1c-0.1-0.1-0.2-0.3-0.3-0.5c-1.2-2.3-3.2-0.8-3.2-0.8l0,0
	c-9.7,7.4-20.2,11.8-29,14.3c-3.4,1-6.7,1.7-9.7,2.3c-5.9,1.1-9.7,1.2-9.7,1.2c-3.2,0.2-5.7,2.9-5.7,6.1V523
	c0,20,16.3,36.3,36.3,36.3h7.4C39.4,559.3,23.1,543,23.1,523.1z"/>
<path id="SVGCleanerId_0" class="st5" d="M311.2,610.2c0-0.8,0-1.6-0.1-2.4c0-0.1,0-0.2,0-0.3c0-0.4,0-0.8-0.1-1.2
	c0-0.5-0.1-1-0.1-1.5c0-0.2,0-0.4-0.1-0.6c-0.1-0.7-0.1-1.4-0.2-2c0-0.1,0-0.1,0-0.2c-1.8-13.7-8.1-23.7-15.1-30.5
	c0,0-0.1-0.1-0.1-0.1c-0.4-0.4-0.7-0.7-1.1-1c-0.2-0.2-0.4-0.3-0.6-0.5c-0.2-0.2-0.4-0.4-0.6-0.6c-0.4-0.3-0.7-0.6-1.1-0.9
	c0,0-0.1-0.1-0.1-0.1c-4.5-3.6-9-6-12.5-7.2c0,0,0,0,0,0l-0.1,0c0,0,0,0,0,0l-46.3-18.5l-11.6,12l-11.8,11.5l-11.8-11.5l-11.6-12
	l-46.3,18.5c0,0,0,0,0,0l-0.1,0c0,0,0,0,0,0c-3.5,1.2-8,3.6-12.5,7.2c0,0-0.1,0.1-0.1,0.1c-0.4,0.3-0.7,0.6-1.1,0.9
	c-0.2,0.2-0.4,0.4-0.6,0.6c-0.2,0.2-0.4,0.3-0.6,0.5c-0.4,0.3-0.7,0.7-1.1,1c0,0-0.1,0.1-0.1,0.1c-7,6.8-13.2,16.8-15.1,30.5
	c0,0.1,0,0.1,0,0.2c-0.1,0.7-0.2,1.3-0.2,2c0,0.2,0,0.4-0.1,0.6c0,0.5-0.1,1-0.1,1.5c0,0.4-0.1,0.8-0.1,1.2c0,0.1,0,0.2,0,0.3
	c0,0.8-0.1,1.6-0.1,2.4v7.4h0V640c0.3,3.5,2.1,9.7,11.2,9.7h11.1H289h11.1c9.1,0,10.9-6.2,11.2-9.7v-22.5l0,0L311.2,610.2
	L311.2,610.2z"/>
<g>
	<path id="SVGCleanerId_0_1_" class="st5" d="M311.2,610.2c0-0.8,0-1.6-0.1-2.4c0-0.1,0-0.2,0-0.3c0-0.4,0-0.8-0.1-1.2
		c0-0.5-0.1-1-0.1-1.5c0-0.2,0-0.4-0.1-0.6c-0.1-0.7-0.1-1.4-0.2-2c0-0.1,0-0.1,0-0.2c-1.8-13.7-8.1-23.7-15.1-30.5
		c0,0-0.1-0.1-0.1-0.1c-0.4-0.4-0.7-0.7-1.1-1c-0.2-0.2-0.4-0.3-0.6-0.5c-0.2-0.2-0.4-0.4-0.6-0.6c-0.4-0.3-0.7-0.6-1.1-0.9
		c0,0-0.1-0.1-0.1-0.1c-4.5-3.6-9-6-12.5-7.2c0,0,0,0,0,0l-0.1,0c0,0,0,0,0,0l-46.3-18.5l-11.6,12l-11.8,11.5l-11.8-11.5l-11.6-12
		l-46.3,18.5c0,0,0,0,0,0l-0.1,0c0,0,0,0,0,0c-3.5,1.2-8,3.6-12.5,7.2c0,0-0.1,0.1-0.1,0.1c-0.4,0.3-0.7,0.6-1.1,0.9
		c-0.2,0.2-0.4,0.4-0.6,0.6c-0.2,0.2-0.4,0.3-0.6,0.5c-0.4,0.3-0.7,0.7-1.1,1c0,0-0.1,0.1-0.1,0.1c-7,6.8-13.2,16.8-15.1,30.5
		c0,0.1,0,0.1,0,0.2c-0.1,0.7-0.2,1.3-0.2,2c0,0.2,0,0.4-0.1,0.6c0,0.5-0.1,1-0.1,1.5c0,0.4-0.1,0.8-0.1,1.2c0,0.1,0,0.2,0,0.3
		c0,0.8-0.1,1.6-0.1,2.4v7.4h0V640c0.3,3.5,2.1,9.7,11.2,9.7h11.1H289h11.1c9.1,0,10.9-6.2,11.2-9.7v-22.5l0,0L311.2,610.2
		L311.2,610.2z"/>
</g>
<path class="st0" d="M186.1,542.9l-46,18L140,561c-11.8,4.2-31.7,19.3-31.7,49.2V640c0.3,3.5,2.1,9.7,11.2,9.7h2.3v-39.5
	c0-29.9,20-45,31.8-49.2l0.1,0l36.4-14.2L186.1,542.9z"/>
<path class="st6" d="M212.1,374.1h-5c-34.1,0-61.8,27.7-61.8,61.8v8.2v7.7v13c0,0,14.1-1.4,15.8-8.2l0,0c0.6-0.6,1.1-1.4,1.4-2.2
	c8-0.2,45.2-0.5,66.5-26.2c2.5,7.4,11.1,21.5,27.7,25.9c0.3,0.9,0.8,1.7,1.5,2.4l-0.1,0.1c1.7,6.8,15.8,8.2,15.8,8.2v-13.1v-7.7
	v-8.2C273.9,401.8,246.2,374.1,212.1,374.1z M258.7,452.2l0.6-0.4h0.1l-1,0.7L258.7,452.2z M258.4,452.4l0.1-0.2l0.2-0.4h0.1
	l-0.2,0.5L258.4,452.4z M256.7,453.7L256.7,453.7l1.5-1.1l-0.4,0.3L256.7,453.7L256.7,453.7z M258,453.3l-0.5,1c0,0,0,0,0,0l-0.1,0
	c0,0,0,0,0,0l0.8-1.5l0,0L258,453.3z"/>
<path class="st7" d="M156.2,451.8v-7.7v-8.2c0-33.1,26.1-60.2,58.8-61.7c-1,0-2-0.1-3-0.1h-5c-34.1,0-61.8,27.7-61.8,61.8v8.2v7.7
	v13c0,0,6.2-0.6,10.9-3L156.2,451.8L156.2,451.8z"/>
<path class="st8" d="M266.5,455.9c-2.4-0.7-4.9-0.3-6.9,1.2c-2,1.5-3.2,3.8-3.2,6.3v22.2c0,2.5,1.2,4.8,3.2,6.3c1.4,1,3,1.5,4.6,1.5
	c0.8,0,1.6-0.1,2.3-0.4c1.5-0.5,3-1.1,4.4-2c0.8-0.5,1.5-1.2,2.1-1.9c0.9-0.4,1.6-1,2.3-1.8c3.1-3.6,4.9-8.1,4.9-12.8
	C280.1,465.9,274.6,458.4,266.5,455.9z"/>
<path class="st3" d="M159.9,457.1c-2-1.5-4.6-1.9-6.9-1.2c-8.1,2.5-13.6,10-13.6,18.5c0,8.5,5.5,16,13.6,18.5
	c0.8,0.2,1.5,0.4,2.3,0.4c1.6,0,3.3-0.5,4.6-1.5c2-1.5,3.2-3.8,3.2-6.3v-22.2C163.1,460.9,161.9,458.5,159.9,457.1z"/>
<path class="st8" d="M231,524.1c-1.5-1.5-3.6-2.2-5.7-2.2l-0.3,0c-0.5,0-0.9,0.1-1.4,0.2c-3,0.7-6.1,1-9.1,1H205
	c-3.1,0-6.3-0.4-9.4-1.1c-2.3-0.5-4.7,0-6.6,1.5c-1.9,1.5-2.9,3.7-2.9,6.1v22.6l0,0.1c-0.1,2.2,0.7,4.4,2.3,6l15.6,15.2
	c1.5,1.4,3.4,2.2,5.4,2.2c0,0,0.1,0,0.1,0c2.1,0,4-0.9,5.5-2.4l16.1-16.7c1.4-1.4,2.2-3.4,2.2-5.4v-21.6
	C233.4,527.6,232.5,525.6,231,524.1z"/>
<path class="st3" d="M211.1,571.3l-15.6-15.2c-1.6-1.6-2.5-3.8-2.3-6l0-0.1v-22.6c0-2,0.8-3.9,2.1-5.3c-2.2-0.4-4.4,0.2-6.2,1.6
	c-1.9,1.5-2.9,3.7-2.9,6.1v22.6l0,0.1c-0.1,2.2,0.7,4.4,2.3,6l15.6,15.2c1.5,1.4,3.4,2.2,5.4,2.2c0,0,0.1,0,0.1,0
	c2.1,0,4-0.9,5.5-2.4l0.1-0.1C213.6,573.1,212.2,572.4,211.1,571.3z"/>
<path class="st8" d="M255.2,449.6c-0.9-0.4-1.8-0.8-2.7-1.2c-13.1-6.1-18.5-14-20.7-18.8c-0.1-0.2-0.3-0.4-0.4-0.6
	c-1.6-2.9-4-1.1-4-1.1l0,0c-12.2,9.4-25.5,14.8-36.6,18c-4.3,1.3-8.4,2.2-12.2,2.9c-7.4,1.4-12.2,1.5-12.2,1.5
	c-4.1,0.3-7.2,3.7-7.2,7.8v31.7c0,25.2,20.5,45.8,45.8,45.8h9.5c25.2,0,45.8-20.5,45.8-45.8v-33
	C260.3,453.6,258.2,450.7,255.2,449.6z"/>
<path class="st3" d="M168.5,489.9v-31.7c0-4.1,3.1-7.5,7.2-7.8c0,0,4.8-0.2,12.2-1.5c3.7-0.7,7.9-1.6,12.2-2.9
	c9.8-2.8,21.4-7.4,32.4-15c-0.3-0.5-0.5-0.9-0.7-1.4c-0.1-0.2-0.3-0.4-0.4-0.6c-1.6-2.9-4-1.1-4-1.1l0,0
	c-12.2,9.4-25.5,14.8-36.6,18c-4.3,1.3-8.4,2.2-12.2,2.9c-7.4,1.4-12.2,1.5-12.2,1.5c-4.1,0.3-7.2,3.7-7.2,7.8v31.7
	c0,25.2,20.5,45.8,45.8,45.8h9.3C189.1,535.6,168.5,515.1,168.5,489.9z"/>
</svg>
