<?xml version="1.0" encoding="utf-8"?>
<!-- Generator: Adobe Illustrator 19.0.0, SVG Export Plug-In . SVG Version: 6.00 Build 0)  -->
<svg version="1.1" id="Layer_1" xmlns="http://www.w3.org/2000/svg" xmlns:xlink="http://www.w3.org/1999/xlink" x="0px" y="0px"
	 viewBox="-49 141 512 512" style="enable-background:new -49 141 512 512;" xml:space="preserve">
<style type="text/css">
	.st0{fill:#FED2A4;}
	.st1{fill:#FFBD86;}
</style>
<path class="st0" d="M357,448.5V341.4c0-10.8-2.4-21.6-6.9-31.5l-70.8-151.5c-7.2-15-24.9-21.6-39.9-14.7
	c-15.6,7.6-21.3,25.6-14.7,39.9l68.1,145.8c2.7,6,4.2,12.3,4.2,18.9V426h-30v-75c0-16.5-13.5-30-30-30s-30,13.5-30,30
	c0-16.5-13.5-30-30-30s-30,13.5-30,30v75h-30v-77.7c0-6.6,1.5-12.9,4.2-18.9l68.1-145.8c6.6-14.3,0.9-32.3-14.7-39.9
	c-15-6.9-32.7-0.3-39.9,14.7L63.9,309.9c-4.5,9.9-6.9,20.7-6.9,31.5v107.1L-49,471v150c0.3,0,159.4-27.6,181.6-31.5
	c43.8-7.8,74.4-45.3,74.4-88.5c0,43.2,30.6,80.7,74.4,88.5C303.6,593.4,462.7,621,463,621V471L357,448.5z"/>
<path class="st1" d="M357,448.5V341.4c0-10.8-2.4-21.6-6.9-31.5l-70.8-151.5c-7.2-15-24.9-21.6-39.9-14.7
	c-15.6,7.6-21.3,25.6-14.7,39.9l68.1,145.8c2.7,6,4.2,12.3,4.2,18.9V426h-30v-75c0-16.5-13.5-30-30-30s-30,13.5-30,30v150
	c0,43.2,30.6,80.7,74.4,88.5C303.6,593.4,462.7,621,463,621V471L357,448.5z"/>
</svg>
