<?xml version="1.0" encoding="utf-8"?>
<!-- Generator: Adobe Illustrator 19.0.0, SVG Export Plug-In . SVG Version: 6.00 Build 0)  -->
<svg version="1.1" id="Capa_1" xmlns="http://www.w3.org/2000/svg" xmlns:xlink="http://www.w3.org/1999/xlink" x="0px" y="0px"
	 viewBox="-49 141 512 512" style="enable-background:new -49 141 512 512;" xml:space="preserve">
<style type="text/css">
	.st0{fill:#9CE8FF;}
	.st1{fill:#FFAF68;}
	.st2{fill:#CB7C52;}
	.st3{fill:#AB5436;}
	.st4{fill:#08375E;}
	.st5{fill:#63C3EA;}
	.st6{opacity:0.1;}
	.st7{fill:#231F20;}
	.st8{fill:#FF9F3D;}
	.st9{opacity:0.1;fill:#231F20;enable-background:new    ;}
	.st10{fill:#FFBB4A;}
	.st11{fill:#3EAF91;}
	.st12{fill:#FCC96C;}
	.st13{fill:#B1E8FF;}
	.st14{fill:#86D5B5;}
</style>
<path class="st0" d="M451.7,504.6v-16.7c0-2.9-2.4-5.3-5.3-5.3h-67.1c-2.9,0-5.3,2.4-5.3,5.3v16.7H451.7z"/>
<g>
	<path class="st1" d="M362.6,569v25.3c0,2.9,2.4,5.3,5.3,5.3h9.6c2.9,0,5.3-2.4,5.3-5.3V569H362.6z"/>
	<path class="st1" d="M442.8,594.3c0,2.9,2.4,5.3,5.3,5.3h9.6c2.9,0,5.3-2.4,5.3-5.3V569h-20.2L442.8,594.3L442.8,594.3z"/>
</g>
<rect x="362.6" y="546.4" class="st2" width="100.4" height="25.9"/>
<path class="st3" d="M457.6,501.4H368c-3,0-5.4,2.4-5.4,5.4v43H463v-43C463,503.8,460.6,501.4,457.6,501.4z"/>
<path class="st2" d="M423.1,536.9h-20.5c-4.3,0-7.7-3.5-7.7-7.7c0-4.3,3.5-7.7,7.7-7.7h20.5c4.3,0,7.7,3.5,7.7,7.7
	C430.8,533.4,427.3,536.9,423.1,536.9z"/>
<path class="st4" d="M0.4,578.7V362.4c0-4.1-3.4-7.5-7.5-7.5s-7.5,3.4-7.5,7.5v216.3H0.4z"/>
<path class="st5" d="M28,575.4h-64c-2.8,0-5.2,2.3-5.2,5.1v14c0,2.8,2.3,5.2,5.2,5.2h64V575.4z"/>
<g class="st6">
	<path class="st7" d="M-18.6,594.5v-14c0-2.8,2.3-5.1,5.1-5.1H-36c-2.8,0-5.2,2.3-5.2,5.1v14c0,2.8,2.3,5.2,5.2,5.2h22.5
		C-16.3,599.7-18.6,597.3-18.6,594.5z"/>
</g>
<path class="st8" d="M34.7,371.1c0,2.8-2.3,5.1-5.2,5.1h-73.4c-2.8,0-5.2-2.3-5.2-5.1v-93.5c0-2.8,2.3-5.2,5.2-5.2h73.4
	c2.8,0,5.2,2.3,5.2,5.2L34.7,371.1L34.7,371.1z"/>
<path class="st9" d="M-26.9,371.1v-93.5c0-2.8,2.3-5.2,5.2-5.2h-22.1c-2.8,0-5.2,2.3-5.2,5.2v93.5c0,2.8,2.3,5.1,5.2,5.1h22.1
	C-24.5,376.2-26.9,373.9-26.9,371.1z"/>
<path class="st10" d="M316,409.5H68.3c-5.7,0-10.3,4.6-10.3,10.3V524h268.3V419.8C326.3,414.1,321.6,409.5,316,409.5z"/>
<path class="st9" d="M86.3,409.5h-18c-5.7,0-10.3,4.6-10.3,10.3V524h18V419.8C76,414.1,80.6,409.5,86.3,409.5z"/>
<rect x="184.6" y="409.5" class="st8" width="15" height="114.5"/>
<g>
	<path class="st11" d="M155.5,518.8c0,2.8-2.3,5.2-5.1,5.2H104c-2.8,0-5.1-2.3-5.1-5.2v-46.3c0-2.8,2.3-5.1,5.1-5.1h46.3
		c2.8,0,5.1,2.3,5.1,5.1V518.8z"/>
	<path class="st11" d="M289.6,518.8c0,2.8-2.3,5.2-5.1,5.2h-46.3c-2.8,0-5.2-2.3-5.2-5.2v-46.3c0-2.8,2.3-5.1,5.2-5.1h46.3
		c2.8,0,5.1,2.3,5.1,5.1V518.8z"/>
</g>
<rect x="58" y="520.2" class="st8" width="268.3" height="53"/>
<path class="st12" d="M57,481.5H31.8c-5.8,0-10.5,4.7-10.5,10.5v102.4c0,2.9,2.4,5.2,5.2,5.2h35.6c2.9,0,5.2-2.4,5.2-5.2V491.9
	C67.5,486.2,62.7,481.5,57,481.5z"/>
<path class="st9" d="M43.5,594.3V491.9c0-5.8,4.7-10.5,10.5-10.5H31.8c-5.8,0-10.5,4.7-10.5,10.5v102.4c0,2.9,2.4,5.2,5.2,5.2h22.1
	C45.8,599.6,43.5,597.2,43.5,594.3z"/>
<path class="st12" d="M352.5,481.5h-25.1c-5.8,0-10.5,4.7-10.5,10.5v102.4c0,2.9,2.4,5.2,5.2,5.2h35.6c2.9,0,5.2-2.4,5.2-5.2V491.9
	C363,486.2,358.2,481.5,352.5,481.5z"/>
<path class="st9" d="M333.7,594.3V491.9c0-5.8,4.7-10.5,10.5-10.5h-16.9c-5.8,0-10.5,4.7-10.5,10.5v102.4c0,2.9,2.4,5.2,5.2,5.2H339
	C336.1,599.6,333.7,597.2,333.7,594.3z"/>
<path class="st3" d="M307.9,218.1H76.4c-3,0-5.5,2.5-5.5,5.5v127.9c0,3,2.5,5.5,5.5,5.5h231.5c3,0,5.5-2.5,5.5-5.5V223.5
	C313.4,220.5,310.9,218.1,307.9,218.1z"/>
<path class="st13" d="M95.8,335c-1.6,0-3-1.3-3-3v-89.1c0-1.7,1.4-3,3-3h192.8c1.6,0,3,1.3,3,3V332c0,1.7-1.4,3-3,3H95.8z"/>
<g>
	<path class="st10" d="M365.5,409.4c-1.2,0-2.3-0.8-2.6-2c-4.3-14-7.2-16.9-21-21.3c-1.1-0.4-1.9-1.4-1.9-2.7c0-1.2,0.8-2.3,1.9-2.6
		c13.8-4.3,16.7-7.3,21-21.3c0.4-1.2,1.4-1.9,2.6-1.9s2.3,0.8,2.6,1.9c4.3,14,7.2,16.9,21,21.3c1.1,0.4,1.9,1.4,1.9,2.6
		c0,1.2-0.8,2.3-1.9,2.7c-13.8,4.3-16.7,7.3-21,21.3C367.7,408.6,366.7,409.4,365.5,409.4z"/>
	<path class="st10" d="M403.2,299.1c-1.3,0-2.5-0.9-2.9-2.2c-4.8-15.5-8-18.8-23.3-23.6c-1.3-0.4-2.1-1.6-2.1-2.9
		c0-1.3,0.9-2.5,2.1-2.9c15.3-4.8,18.5-8.1,23.3-23.6c0.4-1.3,1.6-2.2,2.9-2.2c1.3,0,2.5,0.9,2.9,2.2c4.8,15.5,8,18.8,23.3,23.6
		c1.3,0.4,2.1,1.6,2.1,2.9c0,1.3-0.9,2.5-2.1,2.9c-15.3,4.8-18.5,8.1-23.3,23.6C405.7,298.3,404.6,299.1,403.2,299.1z"/>
	<path class="st10" d="M22.6,237.2c-1,0-1.9-0.7-2.2-1.6c-3.6-11.6-6-14-17.4-17.6c-0.9-0.3-1.6-1.2-1.6-2.2c0-1,0.6-1.9,1.6-2.2
		c11.4-3.6,13.9-6.1,17.4-17.6c0.3-1,1.2-1.6,2.2-1.6s1.9,0.7,2.2,1.6c3.6,11.6,6,14,17.4,17.6c0.9,0.3,1.6,1.2,1.6,2.2
		c0,1-0.6,1.9-1.6,2.2c-11.4,3.6-13.9,6.1-17.4,17.6C24.5,236.5,23.6,237.2,22.6,237.2z"/>
</g>
<path class="st14" d="M252.6,285.4L220.1,335h68.4l-32.4-49.6C255.1,283.9,253.5,283.9,252.6,285.4z"/>
<path class="st11" d="M190,261.1L141.7,335h100.2l-48.3-73.9C192.6,259.6,191,259.6,190,261.1z"/>
<path class="st14" d="M128.9,284.3L95.8,335h69.8l-33.1-50.7C131.5,282.8,129.9,282.8,128.9,284.3z"/>
<path class="st9" d="M95.8,239.9c-1.6,0-3,1.3-3,3V332c0,1.7,1.4,3,3,3h14.4v-95.1H95.8z"/>
<path class="st5" d="M451.7,477.4c0,2.9-2.4,5.3-5.3,5.3h-67.1c-2.9,0-5.3-2.4-5.3-5.3v-12.1c0-2.9,2.4-5.3,5.3-5.3h67.1
	c2.9,0,5.3,2.4,5.3,5.3V477.4z"/>
</svg>
