<?xml version="1.0" encoding="utf-8"?>
<!-- Generator: Adobe Illustrator 19.0.0, SVG Export Plug-In . SVG Version: 6.00 Build 0)  -->
<svg version="1.1" id="Capa_1" xmlns="http://www.w3.org/2000/svg" xmlns:xlink="http://www.w3.org/1999/xlink" x="0px" y="0px"
	 viewBox="46 380 34 34" style="enable-background:new 46 380 34 34;" xml:space="preserve">
<style type="text/css">
	.st0{fill:#48C5FF;}
</style>
<g>
	<g>
		<g>
			<path class="st0" d="M63,381.3c-8.7,0-15.7,7-15.7,15.7s7,15.7,15.7,15.7s15.7-7,15.7-15.7S71.7,381.3,63,381.3z M63,411.3
				c-7.9,0-14.3-6.4-14.3-14.3s6.4-14.3,14.3-14.3s14.3,6.4,14.3,14.3S70.9,411.3,63,411.3z"/>
		</g>
	</g>
	<g>
		<g>
			<path class="st0" d="M63,395c-1.1,0-2,0.9-2,2s0.9,2,2,2s2-0.9,2-2S64.1,395,63,395z M63,397.7c-0.4,0-0.7-0.3-0.7-0.7
				s0.3-0.7,0.7-0.7s0.7,0.3,0.7,0.7S63.4,397.7,63,397.7z"/>
		</g>
	</g>
	<g>
		<g>
			<path class="st0" d="M71.2,388.8C71.2,388.8,71.2,388.8,71.2,388.8C71.2,388.8,71.2,388.8,71.2,388.8c-2.2-2.1-5-3.4-8.2-3.4
				s-6.1,1.3-8.2,3.4c0,0,0,0,0,0c0,0,0,0,0,0c-2.1,2.1-3.4,5-3.4,8.2c0,3.2,1.3,6.1,3.4,8.2c0,0,0,0,0,0c0,0,0,0,0,0
				c2.1,2.1,5,3.4,8.2,3.4c3.2,0,6.1-1.3,8.2-3.4c0,0,0,0,0,0c0,0,0,0,0,0c2.1-2.1,3.4-5,3.4-8.2S73.3,390.9,71.2,388.8z
				 M73.2,396.3h-4.1c-0.1-1.2-0.6-2.3-1.3-3.2l2.9-2.9C72.1,391.9,73.1,394,73.2,396.3z M63.7,386.8c2.3,0.2,4.4,1.1,6.1,2.5
				l-2.9,2.9c-0.9-0.7-2-1.2-3.2-1.3C63.7,390.9,63.7,386.8,63.7,386.8z M62.3,386.8v4.1c-1.2,0.1-2.3,0.6-3.2,1.3l-2.9-2.9
				C57.9,387.9,60,386.9,62.3,386.8z M55.3,390.3l2.9,2.9c-0.7,0.9-1.2,2-1.3,3.2h-4.1C52.9,394,53.9,391.9,55.3,390.3z M52.8,397.7
				h4.1c0.1,1.2,0.6,2.3,1.3,3.2l-2.9,2.9C53.9,402.1,52.9,400,52.8,397.7z M62.3,407.2c-2.3-0.2-4.4-1.1-6.1-2.5l2.9-2.9
				c0.9,0.7,2,1.2,3.2,1.3V407.2z M58.2,397c0-2.6,2.1-4.8,4.8-4.8c2.6,0,4.8,2.1,4.8,4.8s-2.1,4.8-4.8,4.8
				C60.4,401.8,58.2,399.6,58.2,397z M63.7,407.2v-4.1c1.2-0.1,2.3-0.6,3.2-1.3l2.9,2.9C68.1,406.1,66,407.1,63.7,407.2z
				 M70.7,403.7l-2.9-2.9c0.7-0.9,1.2-2,1.3-3.2h4.1C73.1,400,72.1,402.1,70.7,403.7z"/>
		</g>
	</g>
</g>
</svg>
