<?xml version="1.0" encoding="utf-8"?>
<!-- Generator: Adobe Illustrator 19.0.0, SVG Export Plug-In . SVG Version: 6.00 Build 0)  -->
<svg version="1.1" id="Capa_1" xmlns="http://www.w3.org/2000/svg" xmlns:xlink="http://www.w3.org/1999/xlink" x="0px" y="0px"
	 viewBox="-121 213 368 368" style="enable-background:new -121 213 368 368;" xml:space="preserve">
<style type="text/css">
	.st0{fill:#B0AECC;}
</style>
<g>
	<g>
		<path class="st0" d="M63,213c-101.5,0-184,82.5-184,184s82.5,184,184,184s184-82.5,184-184S164.5,213,63,213z M63,565
			c-92.6,0-168-75.4-168-168s75.4-168,168-168s168,75.4,168,168S155.6,565,63,565z"/>
	</g>
</g>
<g>
	<g>
		<path class="st0" d="M63,373c-13.2,0-24,10.8-24,24s10.8,24,24,24s24-10.8,24-24S76.2,373,63,373z M63,405c-4.4,0-8-3.6-8-8
			s3.6-8,8-8s8,3.6,8,8S67.4,405,63,405z"/>
	</g>
</g>
<g>
	<g>
		<path class="st0" d="M159.4,301.2c-0.1-0.1-0.1-0.3-0.3-0.4c-0.1-0.1-0.3-0.2-0.4-0.3C134.2,276.1,100.3,261,63,261
			c-37.3,0-71.2,15.1-95.8,39.6c-0.1,0.1-0.2,0.1-0.4,0.2c-0.1,0.1-0.1,0.2-0.2,0.4C-57.9,325.8-73,359.7-73,397
			c0,37.4,15.2,71.2,39.6,95.8c0.1,0.1,0.1,0.2,0.2,0.3s0.2,0.1,0.3,0.2C-8.2,517.8,25.6,533,63,533c37.3,0,71.2-15.1,95.8-39.6
			c0.1-0.1,0.3-0.1,0.4-0.2c0.1-0.1,0.1-0.2,0.2-0.4c24.4-24.6,39.6-58.5,39.6-95.8C199,359.7,183.9,325.8,159.4,301.2z M182.6,389
			h-48.1c-1.5-13.9-7-26.5-15.3-36.9l34-34C170,337.4,180.8,361.9,182.6,389z M71,277.4c27.1,1.8,51.7,12.6,70.9,29.4l-34,34
			c-10.4-8.3-23-13.8-36.9-15.3V277.4z M55,277.4v48.1c-13.9,1.5-26.5,7-36.9,15.3l-34-34C3.3,290,27.9,279.2,55,277.4z
			 M-27.2,318.1l34,34C-1.5,362.5-7,375.1-8.5,389h-48.1C-54.8,361.9-44,337.3-27.2,318.1z M-56.6,405h48.1
			c1.5,13.9,7,26.5,15.3,36.9l-34,34C-44,456.7-54.8,432.1-56.6,405z M55,516.6c-27.1-1.8-51.6-12.6-70.9-29.4l34-34
			c10.4,8.3,23,13.8,36.9,15.3V516.6z M7,397c0-30.9,25.1-56,56-56s56,25.1,56,56s-25.1,56-56,56S7,427.9,7,397z M71,516.6v-48.1
			c13.9-1.5,26.5-7,36.9-15.3l34,34C122.7,504,98.1,514.8,71,516.6z M153.2,475.9l-34-34c8.3-10.4,13.8-23,15.3-36.9h48.1
			C180.8,432.1,170,456.7,153.2,475.9z"/>
	</g>
</g>
</svg>
