<?xml version="1.0" encoding="utf-8"?>
<!-- Generator: Adobe Illustrator 19.0.0, SVG Export Plug-In . SVG Version: 6.00 Build 0)  -->
<svg version="1.1" id="Layer_1" xmlns="http://www.w3.org/2000/svg" xmlns:xlink="http://www.w3.org/1999/xlink" x="0px" y="0px"
	 viewBox="-49 141 512 512" style="enable-background:new -49 141 512 512;" xml:space="preserve">
<style type="text/css">
	.st0{fill:#B0AECC;}
</style>
<g>
	<g>
		<path class="st0" d="M96,371.4H36.3c-4.7,0-8.5,3.8-8.5,8.5v85.3c0,4.7,3.8,8.5,8.5,8.5H96c4.7,0,8.5-3.8,8.5-8.5v-85.3
			C104.6,375.2,100.8,371.4,96,371.4z M87.5,456.7H44.9v-68.3h42.7L87.5,456.7L87.5,456.7z"/>
	</g>
</g>
<g>
	<g>
		<path class="st0" d="M241.1,371.4h-59.7c-4.7,0-8.5,3.8-8.5,8.5v85.3c0,4.7,3.8,8.5,8.5,8.5h59.7c4.7,0,8.5-3.8,8.5-8.5v-85.3
			C249.6,375.2,245.8,371.4,241.1,371.4z M232.6,456.7h-42.7v-68.3h42.7V456.7z"/>
	</g>
</g>
<g>
	<g>
		<path class="st0" d="M241.1,507.9h-59.7c-4.7,0-8.5,3.8-8.5,8.5v85.3c0,4.7,3.8,8.5,8.5,8.5h59.7c4.7,0,8.5-3.8,8.5-8.5v-85.3
			C249.6,511.7,245.8,507.9,241.1,507.9z M232.6,593.2h-42.7V525h42.7V593.2z"/>
	</g>
</g>
<g>
	<g>
		<path class="st0" d="M377.6,371.4h-59.7c-4.7,0-8.5,3.8-8.5,8.5v85.3c0,4.7,3.8,8.5,8.5,8.5h59.7c4.7,0,8.5-3.8,8.5-8.5v-85.3
			C386.1,375.2,382.3,371.4,377.6,371.4z M369.1,456.7h-42.7v-68.3h42.7V456.7z"/>
	</g>
</g>
<g>
	<g>
		<path class="st0" d="M96,507.9H36.3c-4.7,0-8.5,3.8-8.5,8.5v85.3c0,4.7,3.8,8.5,8.5,8.5H96c4.7,0,8.5-3.8,8.5-8.5v-85.3
			C104.6,511.7,100.8,507.9,96,507.9z M87.5,593.2H44.9V525h42.7L87.5,593.2L87.5,593.2z"/>
	</g>
</g>
<g>
	<g>
		<path class="st0" d="M377.6,507.9h-59.7c-4.7,0-8.5,3.8-8.5,8.5v85.3c0,4.7,3.8,8.5,8.5,8.5h59.7c4.7,0,8.5-3.8,8.5-8.5v-85.3
			C386.1,511.7,382.3,507.9,377.6,507.9z M369.1,593.2h-42.7V525h42.7V593.2z"/>
	</g>
</g>
<g>
	<g>
		<path class="st0" d="M428.8,635.9V345.8h8.5c4.7,0,8.5-3.8,8.5-8.5v-42.7c0-4.7-3.8-8.5-8.5-8.5h-8.5V252c0-4.7-3.8-8.5-8.5-8.5
			h-17.1v-93.9c0-4.7-3.8-8.5-8.5-8.5H19.3c-4.7,0-8.5,3.8-8.5,8.5v93.9H-6.3c-4.7,0-8.5,3.8-8.5,8.5v34.1h-8.5
			c-4.7,0-8.5,3.8-8.5,8.5v42.7c0,4.7,3.8,8.5,8.5,8.5h8.5v290.1H-49V653h42.7h426.6H463v-17.1L428.8,635.9L428.8,635.9z
			 M27.8,158.1h358.3v85.3H27.8V158.1z M2.2,260.5h17.1h375.4h17.1v25.6H2.2V260.5z M411.7,635.9H2.2V345.8h409.5L411.7,635.9
			L411.7,635.9z M-6.3,328.7h-8.5v-25.6h8.5h426.6h8.5v25.6h-8.5L-6.3,328.7L-6.3,328.7z"/>
	</g>
</g>
</svg>
