<?xml version="1.0" encoding="utf-8"?>
<!-- Generator: Adobe Illustrator 19.0.0, SVG Export Plug-In . SVG Version: 6.00 Build 0)  -->
<svg version="1.1" id="Layer_1" xmlns="http://www.w3.org/2000/svg" xmlns:xlink="http://www.w3.org/1999/xlink" x="0px" y="0px"
	 viewBox="-100 192.8 409.2 409.2" style="enable-background:new -100 192.8 409.2 409.2;" xml:space="preserve">
<style type="text/css">
	.st0{fill:#B0AECC;}
</style>
<path class="st0" d="M190,440.5c0,5.5-4.5,10-10,10h-50.8c-5.5,0-10-4.5-10-10s4.5-10,10-10H180C185.5,430.5,190,435,190,440.5z
	 M155.6,461.1h-26.4c-5.5,0-10,4.5-10,10s4.5,10,10,10h26.4c5.5,0,10-4.5,10-10S161.1,461.1,155.6,461.1z M58.1,275.8
	c0-19.2,20.4-34.3,46.5-34.3s46.5,15.1,46.5,34.3c0,19.2-20.4,34.3-46.5,34.3S58.1,295,58.1,275.8z M78.1,275.8
	c0,6.8,11.3,14.3,26.5,14.3s26.5-7.6,26.5-14.3c0-6.8-11.3-14.3-26.5-14.3S78.1,269,78.1,275.8z M119.2,409.9c0,5.5,4.5,10,10,10
	H180c5.5,0,10-4.5,10-10c0-5.5-4.5-10-10-10h-50.8C123.6,399.9,119.2,404.4,119.2,409.9z M267.7,592c0,5.5-4.5,10-10,10H-48.5
	c-5.5,0-10-4.5-10-10s4.5-10,10-10H-27v-63V202.8c0-5.5,4.5-10,10-10h243.3c5.5,0,10,4.5,10,10V582h21.4
	C263.2,582,267.7,586.5,267.7,592L267.7,592z M15.7,529H-7v53h22.8V529z M173.5,529H35.7v53h137.7V529z M216.2,529h-22.8v53h22.8
	V529z M216.2,212.8H-7V509h32.7c0.1,0,0.1,0,0.2,0h157.5c0.1,0,0.1,0,0.2,0h32.7L216.2,212.8L216.2,212.8z M29.3,419.9h26.4
	c5.5,0,10-4.5,10-10c0-5.5-4.5-10-10-10H29.3c-5.5,0-10,4.5-10,10C19.3,415.5,23.7,419.9,29.3,419.9L29.3,419.9z M29.3,358.7h50.8
	c5.5,0,10-4.5,10-10s-4.5-10-10-10H29.3c-5.5,0-10,4.5-10,10S23.7,358.7,29.3,358.7L29.3,358.7z M29.3,389.3h50.8
	c5.5,0,10-4.5,10-10c0-5.5-4.5-10-10-10H29.3c-5.5,0-10,4.5-10,10C19.3,384.9,23.7,389.3,29.3,389.3L29.3,389.3z"/>
</svg>
