<?xml version="1.0" encoding="utf-8"?>
<!-- Generator: Adobe Illustrator 19.0.0, SVG Export Plug-In . SVG Version: 6.00 Build 0)  -->
<svg version="1.1" id="Layer_1" xmlns="http://www.w3.org/2000/svg" xmlns:xlink="http://www.w3.org/1999/xlink" x="0px" y="0px"
	 viewBox="-352.7 144.7 512 512" style="enable-background:new -352.7 144.7 512 512;" xml:space="preserve">
<style type="text/css">
	.st0{fill:#CDD6E0;}
	.st1{fill:#F2F2F2;}
	.st2{fill:#FF7058;}
	.st3{fill:#84DBFF;}
	.st4{fill:#B8CAD8;}
	.st5{fill:#ACB3BA;}
	.st6{fill:#F8B64C;}
	.st7{fill:#F7AF48;}
	.st8{fill:#FFD15C;}
	.st9{fill:#40596B;}
	.st10{fill:#FFFFFF;}
	.st11{fill:#334A5E;}
</style>
<polygon class="st0" points="92.2,454.5 92.2,511.9 70.9,511.9 70.9,475.7 -86.6,475.7 -86.6,507.7 -107.9,507.7 -107.9,475.7 
	-265.4,475.7 -265.4,511.9 -286.7,511.9 -286.7,454.5 -107.9,454.5 -107.9,422.5 -86.6,422.5 -86.6,454.5 "/>
<g>
	<path class="st1" d="M-199.4,579c0,16-4.3,30.9-12.8,42.6c-6.4,8.5-13.8,16-22.4,22.4c-1.1,1.1-3.2,2.1-4.3,3.2
		c-10.6,6.4-23.4,9.6-37.3,9.6c-12.8,0-25.5-3.2-36.2-9.6c-1.1-1.1-3.2-2.1-4.3-3.2c-8.5-5.3-17-12.8-22.4-22.4
		c-8.5-11.7-12.8-26.6-12.8-42.6c0-42.6,34.1-76.6,76.6-76.6C-233.5,501.3-199.4,536.4-199.4,579z"/>
	<circle class="st1" cx="81.6" cy="579" r="76.6"/>
	<path class="st1" d="M-20.6,579c0,17-5.3,33-14.9,45.8c-13.8,19.2-36.2,31.9-61.7,31.9s-47.9-12.8-61.7-31.9
		c-9.6-12.8-14.9-28.7-14.9-45.8c0-42.6,34.1-76.6,76.6-76.6S-20.6,536.4-20.6,579z"/>
</g>
<path class="st2" d="M-35.5,623.7c-13.8,19.2-36.2,31.9-61.7,31.9s-47.9-12.8-61.7-31.9c3.2-3.2,6.4-4.3,9.6-6.4
	c10.6-4.3,24.5-10.6,30.9-14.9c1.1,0,1.1-1.1,2.1-1.1c0,0,1.1-11.7,1.1-12.8c0,0-6.4-9.6-9.6-18.1l0,0c-2.1,0-4.3-3.2-5.3-8.5
	c-1.1-5.3,0-9.6,2.1-9.6l0,0c-1.1-10.6-2.1-40.4,31.9-40.4c33,0,33,29.8,31.9,40.4l0,0c2.1,0,3.2,5.3,2.1,9.6
	c-1.1,5.3-3.2,8.5-5.3,8.5l0,0c-3.2,8.5-9.6,18.1-9.6,18.1c0,1.1,1.1,12.8,1.1,12.8c1.1,0,1.1,1.1,2.1,1.1
	c5.3,4.3,20.2,10.6,30.9,14.9C-41.9,619.4-37.6,621.6-35.5,623.7z"/>
<path class="st0" d="M-214.3,623.7c-13.8,19.2-36.2,31.9-61.7,31.9c-25.5,0-47.9-12.8-61.7-31.9c3.2-3.2,6.4-4.3,9.6-6.4
	c10.6-4.3,24.5-10.6,30.9-14.9c1.1,0,1.1-1.1,2.1-1.1c0,0,1.1-11.7,1.1-12.8c0,0-6.4-9.6-9.6-18.1l0,0c-2.1,0-4.3-3.2-5.3-8.5
	c-1.1-5.3,0-9.6,2.1-9.6l0,0c-1.1-10.6-2.1-40.4,31.9-40.4c33,0,33,29.8,31.9,40.4l0,0c2.1,0,3.2,5.3,2.1,9.6
	c-1.1,5.3-3.2,8.5-5.3,8.5l0,0c-3.2,8.5-9.6,18.1-9.6,18.1c0,1.1,1.1,12.8,1.1,12.8c1.1,0,1.1,1.1,2.1,1.1
	c6.4,4.3,20.2,10.6,30.9,14.9C-219.6,619.4-216.5,621.6-214.3,623.7z"/>
<path class="st3" d="M143.3,623.7c-13.8,19.2-36.2,31.9-61.7,31.9c-25.5,0-47.9-12.8-61.7-31.9c3.2-3.2,6.4-4.3,9.6-6.4
	c10.6-4.3,24.5-10.6,30.9-14.9c1.1,0,1.1-1.1,2.1-1.1c0,0,1.1-11.7,1.1-12.8c0,0-6.4-9.6-9.6-18.1l0,0c-2.1,0-4.3-3.2-5.3-8.5
	c-1.1-5.3,0-9.6,2.1-9.6l0,0c-1.1-10.6-2.1-40.4,31.9-40.4c33,0,33,29.8,31.9,40.4l0,0c2.1,0,3.2,5.3,2.1,9.6
	c-1.1,5.3-3.2,8.5-5.3,8.5l0,0c-3.2,8.5-9.6,18.1-9.6,18.1c0,1.1,1.1,12.8,1.1,12.8s1.1,1.1,2.1,1.1c5.3,4.3,20.2,10.6,30.9,14.9
	C136.9,619.4,140.1,621.6,143.3,623.7z"/>
<path class="st4" d="M-86.6,422.5v22.4c-1.1,0-1.1,0-2.1,0h-1.1c-2.1,0-4.3,0-7.5,0c-3.2,0-5.3,0-8.5,0c-1.1,0-2.1,0-2.1,0v-22.4
	H-86.6z"/>
<path class="st5" d="M44.3,286.3c0,29.8-9.6,57.5-25.5,80.9c-5.3,7.5-11.7,14.9-19.2,22.4c-23.4,22.4-55.4,37.3-90.5,39.4l0,0
	c-2.1,0-5.3,0-7.5,0s-5.3,0-7.5,0c-35.1-2.1-67.1-16-90.5-39.4c-7.5-6.4-12.8-13.8-19.2-22.4c-16-23.4-25.5-51.1-25.5-80.9
	c0-78.8,63.9-141.6,141.6-141.6C-18.5,144.7,44.3,208.6,44.3,286.3z"/>
<g>
	
		<ellipse transform="matrix(-0.9806 0.1961 -0.1961 -0.9806 -245.2388 520.1374)" class="st6" cx="-148.4" cy="247.9" rx="6.4" ry="16"/>
	
		<ellipse transform="matrix(-0.1961 0.9806 -0.9806 -0.1961 188.2058 342.3024)" class="st6" cx="-46.2" cy="248.3" rx="16" ry="6.4"/>
</g>
<path class="st0" d="M19.9,367.2c-5.3,7.5-11.7,14.9-19.2,22.4c-23.4,22.4-55.4,37.3-90.5,39.4h-14.9c-35.1-2.1-67.1-16-90.5-39.4
	c-7.5-6.4-12.8-13.8-19.2-22.4c2.1-6.4,5.3-11.7,8.5-16c0,0,1.1,0,2.1-1.1l0,0l0,0c2.1-1.1,7.5-2.1,12.8-5.3
	c12.8-5.3,30.9-12.8,45.8-21.3c2.1-1.1,5.3-3.2,7.5-4.3s4.3-3.2,6.4-4.3l0,0l2.1-9.6c0,0,8.5,17,26.6,19.2c1.1,0,3.2,0,4.3,0h2.1
	c2.1,0,4.3,0,6.4,0l0,0c1.1,0,2.1,0,3.2-1.1c1.1,0,2.1-1.1,3.2-1.1c2.1-1.1,3.2-1.1,4.3-2.1c1.1,0,2.1-1.1,3.2-2.1
	c2.1-1.1,3.2-2.1,4.3-3.2c2.1-2.1,3.2-3.2,4.3-4.3c2.1-3.2,3.2-5.3,3.2-5.3l2.1,9.6c20.2,14.9,61.7,30.9,72.4,35.1
	c1.1,0,2.1,1.1,2.1,1.1C14.5,355.5,16.7,361.8,19.9,367.2z"/>
<path class="st5" d="M-128.1,344.8l8.5,14.9l11.7-18.1l-3.2-3.2l-9.6,13.8l-10.6-20.2C-130.2,335.2-130.2,339.5-128.1,344.8z"/>
<path class="st6" d="M-65.3,306.5c0,0-8.5,17-26.6,19.2c-2.1,0-4.3,0-6.4,0c-2.1,0-4.3,0-6.4,0c-18.1-2.1-26.6-19.2-26.6-19.2
	s0-3.2,0-6.4c0-2.1,0-3.2,0-5.3c14.9,19.2,31.9,21.3,31.9,21.3s17-3.2,31.9-21.3c0,1.1,0,3.2,0,5.3
	C-65.3,302.2-65.3,306.5-65.3,306.5z"/>
<path class="st7" d="M-65.3,299c-14.9,16-29.8,19.2-30.9,19.2l0,0l0,0c-1.1,0-17-3.2-30.9-19.2c0-2.1,0-3.2,0-5.3
	c14.9,19.2,31.9,21.3,31.9,21.3s17-3.2,31.9-21.3C-65.3,295.9-65.3,296.9-65.3,299z"/>
<path class="st8" d="M-44,234.1c0,3.2-1.1,5.3-1.1,5.3c-9.6,69.2-53.2,76.6-53.2,76.6s-43.6-7.5-53.2-76.6c0,0,0-2.1-1.1-5.3l0,0
	c-2.1-17-4.3-70.3,53.2-69.2C-39.8,162.8-40.8,216-44,234.1z"/>
<path class="st9" d="M12,351l-9.7,37.9c-23.8,22.7-56.2,37.9-91.9,40h-7.6v-18.4c1.1-2.2,2.2-4.3,3.2-7.6c2.2-5.4,5.4-10.8,7.6-15.1
	c0-1.1,1.1-1.1,1.1-2.2c6.5-11.9,10.8-21.6,10.8-21.6c3.2-7.6,6.5-14.1,8.7-20.5c1.1-2.2,1.1-5.4,2.2-7.6
	c3.2-15.1,1.1-22.7,1.1-22.7l0,0c20.5,15.1,62.7,31.4,73.5,35.7L12,351z"/>
<path class="st5" d="M-66.4,344.8l-8.5,14.9l-11.7-18.1l3.2-3.2l9.6,13.8l10.6-20.2C-63.2,335.2-64.2,339.5-66.4,344.8z"/>
<path class="st10" d="M-91.9,346.9l6.4,39.4c-4.3,7.5-8.5,17-11.7,24.5c-3.2-7.5-8.5-17-11.7-24.5l6.4-39.4l-8.5-9.6l7.5-12.8l0,0
	c2.1,0,4.3,0,6.4,0c2.1,0,4.3,0,6.4,0l0,0l7.5,12.8L-91.9,346.9z"/>
<g>
	<path class="st11" d="M-90.6,428.9L-90.6,428.9h-7.6c-2.2,0-5.4,0-7.6,0c-35.8-2.2-68.4-16.3-92.2-40.1l-9.8-38l2.2-1.1l0,0l0,0
		c2.2-1.1,7.6-2.2,13-4.3c13-5.4,31.5-13,46.7-21.7c2.2-1.1,5.4-3.3,7.6-4.3c2.2-1.1,4.3-3.3,6.5-4.3l0,0c0,0-2.2,7.6,1.1,22.8
		c0,2.2,1.1,4.3,2.2,7.6c2.2,6.5,4.3,13,8.7,20.6c0,0,5.4,9.8,10.9,21.7c0,1.1,1.1,1.1,1.1,2.2c2.2,5.4,5.4,10.9,7.6,15.2
		c1.1,2.2,2.2,5.4,3.3,7.6C-93.8,419.1-90.6,425.7-90.6,428.9z"/>
	<path class="st11" d="M-43.9,230.3l-2.2,2.2c0,0-2.2-28.2-15.2-48.8c0,0-8.7,11.9-36.9,11.9c-29.3,0-36.9-11.9-36.9-11.9
		c-13,19.5-15.2,48.8-15.2,48.8l-2.2-2.2l0,0c-2.2-17.4-4.3-71.6,54.3-70.5C-39.6,157.6-40.6,211.9-43.9,230.3z"/>
</g>
</svg>
