<?xml version="1.0" encoding="iso-8859-1"?>
<!-- Generator: Adobe Illustrator 19.0.0, SVG Export Plug-In . SVG Version: 6.00 Build 0)  -->
<svg version="1.1" id="Capa_1" xmlns="http://www.w3.org/2000/svg" xmlns:xlink="http://www.w3.org/1999/xlink" x="0px" y="0px"
	 viewBox="0 0 512.001 512.001" style="enable-background:new 0 0 512.001 512.001;" xml:space="preserve">
<path style="fill:#695A6E;" d="M367.011,481.886c-11.891,0-21.529-9.639-21.529-21.529V286.234c0-11.891,9.639-21.529,21.529-21.529
	c11.891,0,21.529,9.639,21.529,21.529v174.122C388.54,472.247,378.902,481.886,367.011,481.886z"/>
<path style="fill:#50374B;" d="M418.984,481.886c-11.891,0-21.529-9.639-21.529-21.529V286.234c0-11.891,9.639-21.529,21.529-21.529
	c11.891,0,21.529,9.639,21.529,21.529v174.122C440.513,472.247,430.874,481.886,418.984,481.886z"/>
<path style="fill:#1E2D64;" d="M509.157,197.137l-40.559-63.165c-7.092-11.044-19.163-17.638-32.288-17.638h-37.895H387.58h-37.895
	c-13.125,0-25.195,6.593-32.288,17.638l-40.559,63.165c-3.853,5.999-3.786,13.712,0.167,19.645
	c3.363,5.047,8.998,7.991,14.926,7.991c1.042,0,2.092-0.091,3.141-0.277l50.408-8.956v72.729h95.031v-72.729l50.408,8.956
	c1.049,0.187,2.1,0.277,3.141,0.277c5.929,0,11.563-2.945,14.926-7.991C512.943,210.849,513.009,203.137,509.157,197.137z
	 M329.21,181.987l16.273-25.343v22.452L329.21,181.987z M440.513,179.096v-22.452l16.273,25.343L440.513,179.096z"/>
<polygon style="fill:#FFFFFF;" points="392.131,116.333 363.029,116.333 392.131,192.695 421.232,116.333 "/>
<path style="fill:#FF3C3C;" d="M404.759,142.444l-6.478-11.781l5.621-10.224c1.013-1.843-0.322-4.105-2.428-4.105h-18.688
	c-2.103,0-3.442,2.259-2.428,4.105l5.621,10.224l-6.478,11.781c-0.892,1.623-1.183,3.51-0.82,5.327l3.404,18.568l10.045,26.356
	l10.045-26.356l3.404-18.568C405.942,145.954,405.651,144.068,404.759,142.444z"/>
<path style="fill:#DC1428;" d="M401.475,116.333c2.103,0,3.442,2.259,2.428,4.105l-5.621,10.224l6.478,11.781
	c0.892,1.623,1.183,3.51,0.82,5.327l-3.404,18.568l-10.045,26.356v-76.362L401.475,116.333L401.475,116.333z"/>
<polygon style="fill:#E4F2F6;" points="392.131,242.483 356.239,233.633 356.239,147.359 392.131,156.208 "/>
<polygon style="fill:#B4D7DC;" points="392.131,242.483 429.757,233.633 429.757,147.359 392.131,156.208 "/>
<circle style="fill:#FFB69E;" cx="393" cy="67.295" r="37.182"/>
<path style="fill:#1E2D64;" d="M291.915,224.775c-8.533,0-16.099-6.111-17.643-14.807c-1.734-9.756,4.771-19.069,14.527-20.802
	l65.796-11.689c9.753-1.734,19.069,4.771,20.803,14.527c1.733,9.756-4.771,19.069-14.527,20.802l-65.796,11.689
	C294.013,224.684,292.956,224.775,291.915,224.775z"/>
<path style="fill:#FFB69E;" d="M375.396,192.004c-1.734-9.756-11.049-16.26-20.803-14.527l6.276,35.329
	C370.625,211.074,377.129,201.76,375.396,192.004z"/>
<polygon style="fill:#FFFFFF;" points="344.422,179.284 350.627,214.626 360.87,212.806 354.593,177.477 "/>
<path style="fill:#1E2D64;" d="M494.077,224.775c8.533,0,16.099-6.111,17.643-14.807c1.734-9.756-4.771-19.069-14.527-20.802
	l-65.796-11.689c-9.753-1.734-19.069,4.771-20.802,14.527c-1.733,9.756,4.771,19.069,14.527,20.802l65.796,11.689
	C491.98,224.684,493.035,224.775,494.077,224.775z"/>
<path style="fill:#FFB69E;" d="M410.596,192.004c1.734-9.756,11.049-16.26,20.802-14.527l-6.276,35.329
	C415.367,211.074,408.863,201.76,410.596,192.004z"/>
<polygon style="fill:#FFFFFF;" points="441.569,179.284 435.365,214.626 425.123,212.806 431.399,177.477 "/>
<path style="fill:#783C28;" d="M53.891,481.885c-0.248,0-0.495-0.008-0.747-0.026c-5.837-0.406-10.24-5.468-9.834-11.306
	l5.48-78.735c1.112-15.977,14.53-28.493,30.546-28.493h31.621c16.337,0,29.77,12.782,30.582,29.099l3.895,78.339
	c0.29,5.844-4.212,10.818-10.056,11.109c-5.876,0.299-10.818-4.213-11.109-10.056l-3.895-78.339
	c-0.25-5.025-4.387-8.961-9.418-8.961H79.335c-4.933,0-9.064,3.854-9.406,8.775l-5.48,78.735
	C64.06,477.612,59.407,481.885,53.891,481.885z"/>
<path style="fill:#A55A3C;" d="M151.648,384.316H40.007c-6.077,0-11.304-4.3-12.475-10.262L0.241,235.221
	c-1.355-6.89,3.134-13.573,10.024-14.928c6.89-1.351,13.573,3.133,14.928,10.024l25.273,128.571h101.182
	c7.022,0,12.714,5.693,12.714,12.714C164.362,378.623,158.67,384.316,151.648,384.316z"/>
<path style="fill:#87AFB9;" d="M198.441,326.125c-3.912-5.756-10.42-9.2-17.379-9.2h-48.347l1.349-85.668
	c0.123-7.82-2.883-15.365-8.349-20.959c-5.467-5.593-12.941-8.771-20.761-8.827l-12.533-0.089
	c-11.644-0.083-22.839,4.492-31.09,12.708s-12.876,19.389-12.845,31.034l0.233,85.014c0.021,7.801,3.15,15.272,8.694,20.76
	c5.544,5.488,13.046,8.142,20.847,8.084h53.794l0.001-0.031h18.095l-37.52,94.185c-4.271,10.791,1.016,23,11.807,27.271
	c10.793,4.271,23.002-1.02,27.271-11.807l48.895-122.93C203.162,339.198,202.354,331.88,198.441,326.125z"/>
<path style="fill:#55879B;" d="M179.148,288.722c-3.085,0-5.989-1.884-7.143-4.942l-16.186-42.942
	c-1.486-3.944,0.505-8.346,4.449-9.833c3.945-1.486,8.346,0.505,9.833,4.449l16.186,42.942c1.486,3.944-0.505,8.346-4.449,9.833
	C180.951,288.563,180.042,288.722,179.148,288.722z"/>
<g>
	<circle style="fill:#FFB69E;" cx="110.293" cy="146.532" r="38.65"/>
	<path style="fill:#FFB69E;" d="M181.064,302.226h-62.229c-7.609,0-14.347-4.913-16.673-12.159l-19.681-61.311
		c-2.956-9.208,2.113-19.069,11.321-22.024c9.207-2.957,19.069,2.112,22.024,11.321l15.778,49.153h49.458
		c9.671,0,17.511,7.841,17.511,17.511S190.734,302.226,181.064,302.226z"/>
</g>
<path style="fill:#B4D7DC;" d="M93.498,263.076l33.887-9.02l-11.558-36.006c-2.956-9.209-12.817-14.277-22.024-11.321
	c-9.208,2.956-14.277,12.817-11.321,22.024L93.498,263.076z"/>
<path style="fill:#414B82;" d="M202.075,338.159c0.044-4.23-1.188-8.437-3.634-12.034c-3.912-5.756-10.42-9.2-17.379-9.2h-48.347
	l-83.888,15.547c0.574,6.944,3.598,13.488,8.587,18.427c5.157,5.105,12.011,7.755,19.222,8.054h55.419l0,0h18.095l0,0l0,0
	l-37.52,94.185c-4.271,10.791,1.016,23,11.807,27.271c0.675,0.267,1.355,0.496,2.038,0.69c10.25,2.899,21.23-2.384,25.233-12.497
	l48.895-122.93C201.563,343.243,202.049,340.697,202.075,338.159z"/>
<path style="fill:#783C28;" d="M251.573,481.886H214.16c-7.022,0-12.714-5.693-12.714-12.714s5.693-12.714,12.714-12.714h24.7
	V327.143h-78.988c-7.022,0-12.714-5.693-12.714-12.714s5.693-12.714,12.714-12.714h91.703c7.022,0,12.714,5.693,12.714,12.714
	v154.743C264.287,476.194,258.595,481.886,251.573,481.886z"/>
<g>
</g>
<g>
</g>
<g>
</g>
<g>
</g>
<g>
</g>
<g>
</g>
<g>
</g>
<g>
</g>
<g>
</g>
<g>
</g>
<g>
</g>
<g>
</g>
<g>
</g>
<g>
</g>
<g>
</g>
</svg>
