<?xml version="1.0" encoding="utf-8"?>
<!-- Generator: Adobe Illustrator 19.0.0, SVG Export Plug-In . SVG Version: 6.00 Build 0)  -->
<svg version="1.1" id="Layer_1" xmlns="http://www.w3.org/2000/svg" xmlns:xlink="http://www.w3.org/1999/xlink" x="0px" y="0px"
	 viewBox="-49 141 512 512" style="enable-background:new -49 141 512 512;" xml:space="preserve">
<style type="text/css">
	.st0{fill:#694B4B;}
	.st1{fill:#5A4146;}
	.st2{fill:#785550;}
	.st3{fill:#E6AF78;}
	.st4{fill:#EFF2FA;}
	.st5{fill:#D29B6E;}
	.st6{fill:#E4EAF6;}
	.st7{fill:#F0C087;}
	.st8{fill:#5B5D6E;}
	.st9{fill:#515262;}
	.st10{fill:#B4E1FA;}
	.st11{fill:#A0D2F0;}
</style>
<g>
	<path class="st0" d="M39.3,300.6c-82.1,0-73,99.9-72.7,172.3c0,2.7,1.4,5.2,3.8,6.6c9.1,5.5,34.1,18.3,68.9,18.3
		s59.8-12.8,68.9-18.3c2.3-1.4,3.8-3.9,3.8-6.6C112.4,400.5,121.4,300.6,39.3,300.6z"/>
	<path class="st1" d="M34,300.8c-76.4,4.3-67.7,101.3-67.3,172.1c0,2.7,1.4,5.2,3.8,6.6c9.1,5.5,34.1,18.3,68.9,18.3L60,352.5"/>
	<path class="st0" d="M39.3,300.6c-46.7,0-49.9,56.5-49.9,56.5c26.9-4.5,43.5,6.8,70.7-4.5L39.3,497.8c34.8,0,59.8-12.8,68.9-18.3
		c2.3-1.4,3.8-3.9,3.8-6.6C112.4,400.5,121.4,300.6,39.3,300.6z"/>
	<path class="st2" d="M111.9,472.9c0.3-62.2,7-144.7-43.2-166.6c-0.9,4.5-2.5,17.3,1.7,25.5c10.4,20.8,20.8,20.8,31.1,36.3
		c10.4,57.1-19.8,117.7-29.9,125.9l0,0c17.8-4.2,30.5-10.9,36.5-14.5C110.4,478.1,111.9,475.6,111.9,472.9z"/>
	<path class="st3" d="M117.9,488.6l-46.3-19.3c-3.9-1.6-6.4-5.4-6.4-9.6v-12.5H13.3v12.5c0,4.2-2.5,8-6.4,9.6l-46.3,19.3
		c-5.8,2.4-9.6,8.1-9.6,14.4v20.8c0,5.7,4.6,10.4,10.4,10.4h155.7c5.7,0,10.4-4.6,10.4-10.4V503
		C127.4,496.7,123.8,491.1,117.9,488.6z"/>
	<path class="st4" d="M117.9,488.6l-44.8-18.7l-33.9,14.6L5.4,469.9l-44.8,18.7c-5.8,2.4-9.6,8.1-9.6,14.4v20.8
		c0,5.7,4.6,10.4,10.4,10.4h155.7c5.7,0,10.4-4.6,10.4-10.4V503C127.4,496.7,123.8,491.1,117.9,488.6z"/>
	<path class="st5" d="M65.3,447.2H13.3v12.5c0,4.2-2.5,8-6.4,9.6l-7.2,3C55,486.5,65.3,447.2,65.3,447.2z"/>
	<g>
		<path class="st6" d="M-23.7,508.7l-20.8-16.6c-2.8,2.9-4.5,6.7-4.5,10.9v20.8c0,5.7,4.6,10.4,10.4,10.4h20.8v-13.3
			C-17.9,516.1-20,511.7-23.7,508.7z"/>
		<path class="st6" d="M127.4,523.8V503c0-4.1-1.6-8-4.4-10.8l-20.9,16.5c-3.7,3-5.8,7.4-5.8,12.2v13.2h20.8
			C122.9,534.2,127.4,529.5,127.4,523.8z"/>
		<path class="st6" d="M40,523.8h-1.6c-2.4,0-4.4-2-4.4-4.4v-34.7h10.4v34.7C44.5,521.8,42.5,523.8,40,523.8z"/>
		<path class="st6" d="M39.3,484.6L9.5,462.3c-1.9-1.4-4.6-1-5.9,1l-5.9,8.8L16,497.6c1.4,1.9,4.1,2.3,6,0.8L39.3,484.6z"/>
		<path class="st6" d="M39.3,484.6l29.7-22.3c1.9-1.4,4.6-1,5.9,1l5.9,8.8l-18.2,25.5c-1.4,1.9-4.1,2.3-6,0.8L39.3,484.6z"/>
	</g>
	<path class="st7" d="M65.3,347.3c-25.9,25.9-76.9,5.2-76.9,46.7l3.2,30.6c0.6,6.8,4.6,12.9,10.6,16.3l29.5,16.4
		c4.7,2.6,10.4,2.6,15.1,0l29.5-16.4c6-3.3,10-9.4,10.6-16.3l3.7-36.3c0.3-2.6,0.3-5.2,0.2-7.8C88.9,367.3,70.4,357.7,65.3,347.3z"
		/>
	<path class="st3" d="M-11.7,394l3.2,30.6c0.6,6.8,4.6,12.9,10.6,16.3l29.5,16.4c3.3,1.8,7,2.3,10.6,1.6l0,0c0,0-14.9-4.5-23.8-28.5
		c-2.7-7.4-6.5-46.3-3.2-51c6.4-9.4,42.2-10.4,52.7-27.8c-0.5-0.6-1-1.3-1.4-1.9c0-0.1-0.1-0.1-0.1-0.2c-0.5-0.7-0.9-1.4-1.2-2.1
		C39.3,373.3-11.7,352.5-11.7,394z"/>
	<path class="st6" d="M77.1,523.8H63.6c-4.9,0-8.8,4-8.8,8.8v1.6h31.1v-1.6C85.9,527.7,82.1,523.8,77.1,523.8z"/>
	<polygon class="st3" points="393.8,464.5 393.8,436 320.5,436 320.5,464.5 357.1,497.1 	"/>
	<path class="st4" d="M450.4,477.8L400,465.9c-0.8-0.2-1.5-0.5-2.1-0.9l-40.8,23.8l-39.2-25c-1,1-2.3,1.7-3.7,2l-50.4,11.9
		c-7.4,1.7-12.6,8.3-12.6,15.9v31.9c0,4.5,3.6,8.1,8.1,8.1h195.4c4.5,0,8.1-3.6,8.1-8.1v-31.9C463,486.1,457.8,479.6,450.4,477.8z"
		/>
	<path class="st5" d="M320.5,436v30.1c46.2,16.6,73.3-25,73.3-25V436H320.5L320.5,436z"/>
	<path class="st7" d="M304.3,342.4l3.5,78.1c0.3,7.3,3.9,14.1,9.7,18.4l16.8,12.6c4.2,3.2,9.4,4.9,14.7,4.9h16.3
		c5.3,0,10.4-1.7,14.7-4.9l16.8-12.6c5.8-4.4,9.4-11.1,9.7-18.4l3.5-78.1H304.3L304.3,342.4z"/>
	<path class="st3" d="M344.9,358.6c16.3,0,40.7-4.1,46.5-16.3h-87.2l3.5,78.1c0.3,7.3,3.9,14.1,9.7,18.4l16.8,12.6
		c4.2,3.2,9.4,4.9,14.7,4.9h8.1c-8.1,0-24.4-16.3-24.4-36.6c0-10,0-36.6,0-48.9C332.8,366.8,336.8,358.6,344.9,358.6z"/>
	<path class="st6" d="M433.1,507.3l26.4-23.7c2.2,2.8,3.5,6.3,3.5,10.1v31.9c0,4.5-3.6,8.1-8.1,8.1h-28.5v-11.3
		C426.4,516.7,428.8,511.2,433.1,507.3z"/>
	<polygon class="st8" points="367.3,533.7 347,533.7 349.5,497.1 364.8,497.1 	"/>
	<path class="st9" d="M367.3,488.9H347v2.4c0,5.4,4.4,9.9,9.9,9.9h0.6c5.4,0,9.9-4.4,9.9-9.9L367.3,488.9L367.3,488.9z"/>
	<g>
		<path class="st6" d="M319.9,455.4l37.2,33.5c0,0-10.4,5.3-23.3,15.9c-2.7,2.2-6.7,1.3-8.1-1.8l-17.5-38.5l5.5-8.3
			C315.3,454.2,318.1,453.8,319.9,455.4z"/>
		<path class="st6" d="M394.4,455.4l-37.2,33.5c0,0,10.4,5.3,23.3,15.9c2.7,2.2,6.7,1.3,8.1-1.8l17.5-38.5l-5.5-8.3
			C399.1,454.2,396.3,453.8,394.4,455.4z"/>
	</g>
	<path class="st2" d="M381.8,315.4l3.8,27c17.4,3.5,19.9,30.8,20.3,38.6c0.1,1.4,0.5,2.8,1.3,4l6.6,10.3c0,0-2.3-17.1,8.1-28.5
		C422,366.8,425.6,299.1,381.8,315.4z"/>
	<path class="st7" d="M418,393.6l-4.6,18.4c-0.5,2.2-2.5,3.7-4.7,3.7l0,0c-2.5,0-4.6-1.8-4.9-4.3l-2.4-18.8c-0.6-5,3.3-9.5,8.4-9.5
		l0,0C415.3,383.1,419.3,388.2,418,393.6z"/>
	<path class="st0" d="M308.1,308.1l6,4.1c-27.2,20.1-22.1,54.6-22.1,54.6c8.1,8.1,8.1,28.5,8.1,28.5l8.1-8.1c0,0-3.1-23.5,12.2-32.6
		c14.3-8.4,26.7-4.1,39.4-4.1c34.1,0,43.6-12.9,42-28.5c-0.9-8.1-13.2-25-44.8-24.4C344.4,297.8,320.5,301.6,308.1,308.1z"/>
	<path class="st1" d="M305.8,346.9c0,0-4.3-17.1,8.4-34.7c-27.2,20.1-22.1,54.6-22.1,54.6c8.1,8.1,8.1,28.5,8.1,28.5l8.1-8.1
		c0,0-3.1-23.5,12.2-32.6c14.3-8.4,26.7-4.1,39.4-4.1c5.5,0,10.4-0.4,14.7-1C348.4,350.4,332.9,330.5,305.8,346.9z"/>
	<path class="st3" d="M296.3,393.6l4.6,18.4c0.5,2.2,2.5,3.7,4.8,3.7l0,0c2.5,0,4.6-1.8,4.9-4.3l2.4-18.8c0.6-5-3.3-9.5-8.4-9.5l0,0
		C299,383.1,295,388.2,296.3,393.6z"/>
	<path class="st6" d="M406,525.6h-20.4c-4.5,0-8.1,3.6-8.1,8.1l0,0h36.6l0,0C414.1,529.2,410.5,525.6,406,525.6z"/>
	<path class="st0" d="M207.3,198.5c-139.7,0-124.2,169.8-123.6,292.9c0,4.6,2.5,8.8,6.4,11.2c15.5,9.3,58,31.1,117.1,31.1
		s101.6-21.8,117.1-31.1c4-2.4,6.4-6.6,6.4-11.2C331.3,368.3,346.8,198.5,207.3,198.5z"/>
	<path class="st1" d="M198.3,198.8C68.4,206.1,83.1,371,83.6,491.4c0,4.6,2.5,8.8,6.4,11.2c15.5,9.3,58,31.1,117.1,31.1l35.3-247"/>
	<path class="st0" d="M207.3,198.5c-79.4,0-84.9,95.9-84.9,95.9c45.8-7.7,73.9,11.6,120.2-7.7l-35.3,247
		c59.1,0,101.6-21.8,117.1-31.1c4-2.4,6.4-6.6,6.4-11.2C331.3,368.3,346.8,198.5,207.3,198.5z"/>
	<path class="st2" d="M330.8,491.4c0.5-105.7,12-245.9-73.4-283.3c-1.5,7.7-4.2,29.3,2.8,43.3c17.6,35.3,35.3,35.3,52.9,61.8
		c17.6,97-33.7,200-50.8,214.1l0,0c30.2-7.2,51.9-18.6,62-24.6C328.3,500.2,330.8,496,330.8,491.4z"/>
	<path class="st3" d="M340.8,518.1l-78.7-32.8c-6.6-2.7-10.9-9.2-10.9-16.3v-21.3h-88.2V469c0,7.1-4.3,13.5-10.9,16.3l-78.6,32.8
		c-9.9,4.1-16.3,13.7-16.3,24.4v35.3c0,9.7,7.9,17.6,17.6,17.6h264.7c9.7,0,17.6-7.9,17.6-17.6v-35.3
		C357.1,531.9,350.8,522.2,340.8,518.1z"/>
	<path class="st10" d="M340.8,518.1l-76.1-31.7l-57.6,24.8l-57.6-24.8l-76,31.7c-9.9,4.1-16.3,13.7-16.3,24.4v35.3
		c0,9.7,7.9,17.6,17.6,17.6h264.7c9.7,0,17.6-7.9,17.6-17.6v-35.3C357.1,531.9,350.8,522.2,340.8,518.1z"/>
	<path class="st5" d="M251.3,447.7h-88.3V469c0,7.1-4.3,13.5-10.9,16.3l-12.3,5.1C234.1,514.4,251.3,447.7,251.3,447.7z"/>
	<g>
		<path class="st11" d="M100.3,552.3l-35.4-28.2c-4.7,4.9-7.6,11.4-7.6,18.5v35.3c0,9.7,7.9,17.6,17.6,17.6h35.3v-22.6
			C110.1,564.9,106.6,557.3,100.3,552.3z"/>
		<path class="st11" d="M357.1,577.8v-35.3c0-7-2.8-13.5-7.5-18.4l-35.5,28.1c-6.3,5-9.9,12.6-9.9,20.7v22.6h35.3
			C349.3,595.5,357.1,587.6,357.1,577.8z"/>
		<path class="st11" d="M207.3,577.8L207.3,577.8c-4.9,0-8.8-4-8.8-8.8v-57.7h17.6V569C216.1,573.9,212.1,577.8,207.3,577.8z"/>
		<path class="st11" d="M207.3,511.3l-50.5-37.9c-3.2-2.4-7.9-1.6-10.1,1.7l-10,15l31,43.3c2.4,3.3,7,3.9,10.2,1.4L207.3,511.3z"/>
		<path class="st11" d="M207.3,511.3l50.5-37.9c3.2-2.4,7.9-1.6,10.1,1.7l10,15l-31,43.3c-2.4,3.3-7,3.9-10.2,1.4L207.3,511.3z"/>
	</g>
	<path class="st7" d="M251.3,277.9c-44.1,44.1-130.7,8.8-130.7,79.4l5.5,52c1.1,11.6,7.8,22,18,27.7l50.2,27.9
		c8,4.4,17.7,4.4,25.7,0l50.2-27.9c10.2-5.7,16.9-16,18-27.7l6.3-61.7c0.5-4.4,0.5-8.8,0.4-13.2
		C291.8,311.9,260.1,295.5,251.3,277.9z"/>
	<path class="st3" d="M120.7,357.3l5.5,52c1.1,11.6,7.8,22,18,27.7l50.2,27.9c5.5,3.1,11.9,3.9,18,2.7l0,0c0,0-25.3-7.7-40.4-48.5
		c-4.6-12.5-11-78.7-5.5-86.8c10.9-16,71.7-17.6,89.6-47.3c-0.9-1.1-1.7-2.2-2.5-3.3c-0.1-0.1-0.1-0.2-0.2-0.3
		c-0.8-1.2-1.5-2.3-2.1-3.5C207.3,322,120.7,286.7,120.7,357.3z"/>
	<path class="st11" d="M277.8,577.8h-35.3c-4.9,0-8.8,4-8.8,8.8v8.8h52.9v-8.8C286.6,581.8,282.6,577.8,277.8,577.8z"/>
</g>
</svg>
