<?xml version="1.0" encoding="utf-8"?>
<!-- Generator: Adobe Illustrator 19.0.0, SVG Export Plug-In . SVG Version: 6.00 Build 0)  -->
<svg version="1.1" id="Capa_1" xmlns="http://www.w3.org/2000/svg" xmlns:xlink="http://www.w3.org/1999/xlink" x="0px" y="0px"
	 viewBox="-343 145 512 512" style="enable-background:new -343 145 512 512;" xml:space="preserve">
<style type="text/css">
	.st0{fill:#EBEEF2;}
	.st1{fill:#D1D6DE;}
	.st2{fill:#444966;}
	.st3{fill:#ED5575;}
	.st4{fill:#CC3A60;}
	.st5{fill:#F9C295;}
	.st6{fill:#5C9CEE;}
	.st7{fill:#F2DF33;}
	.st8{fill:#D9B92C;}
</style>
<path class="st0" d="M-11.7,194.5h-268.4c-15,0-27.2,12.2-27.2,27.2v378.1c0,15,12.2,27.2,27.2,27.2h268.4c15,0,27.2-12.2,27.2-27.2
	V221.7C15.6,206.7,3.3,194.5-11.7,194.5z"/>
<path class="st1" d="M-11.7,194.5h-31.6c15,0,27.2,12.2,27.2,27.2v378.1c0,15-12.2,27.2-27.2,27.2h31.6c15,0,27.2-12.2,27.2-27.2
	V221.7C15.6,206.7,3.3,194.5-11.7,194.5z"/>
<path class="st2" d="M-111.1,197.2h-69.6c-4.8,0-8.7-3.9-8.7-8.7c0-24,19.5-43.5,43.5-43.5s43.5,19.5,43.5,43.5
	C-102.4,193.3-106.3,197.2-111.1,197.2z M-170.5,179.8h49.3c-3.6-10.2-13.3-17.4-24.6-17.4S-166.9,169.6-170.5,179.8z"/>
<path class="st3" d="M133.2,511.4l-20.9-3.2c-1.3-3.8-2.8-7.5-4.6-11l12.5-17c2.2-3,1.9-7.1-0.7-9.7L91.1,442
	c-2.6-2.6-6.8-2.9-9.7-0.7l-17,12.5c-3.6-1.8-7.3-3.3-11-4.6l-3.2-20.9c-0.6-3.7-3.7-6.4-7.4-6.4H2.5c-3.7,0-6.9,2.7-7.4,6.4
	l-3.2,20.9c-3.8,1.3-7.5,2.8-11,4.6l-17-12.5c-3-2.2-7.1-1.9-9.7,0.7l-28.4,28.4c-2.6,2.6-2.9,6.8-0.7,9.7l12.5,17
	c-1.8,3.6-3.3,7.3-4.6,11l-20.9,3.2c-3.7,0.6-6.4,3.7-6.4,7.4v40.2c0,3.7,2.7,6.9,6.4,7.4l20.9,3.2c1.3,3.8,2.8,7.5,4.6,11l-12.5,17
	c-2.2,3-1.9,7.1,0.7,9.7l28.4,28.4c2.6,2.6,6.8,2.9,9.7,0.8l17-12.5c3.6,1.8,7.3,3.3,11,4.6l3.2,20.9c0.6,3.7,3.7,6.4,7.4,6.4h40.2
	c3.7,0,6.9-2.7,7.4-6.4l3.2-20.9c3.8-1.3,7.5-2.8,11-4.6l17,12.5c3,2.2,7.1,1.9,9.7-0.8l28.4-28.4c2.6-2.6,2.9-6.8,0.7-9.7l-12.5-17
	c1.8-3.6,3.3-7.3,4.6-11l20.9-3.2c3.7-0.6,6.4-3.7,6.4-7.4v-40.2C139.6,515.2,136.9,512,133.2,511.4z M69.4,539
	c0,25.9-21,46.8-46.8,46.8c-25.9,0-46.8-21-46.8-46.8c0-25.9,21-46.8,46.8-46.8C48.4,492.1,69.4,513.1,69.4,539z"/>
<path class="st4" d="M22.6,474.6c-35.6,0-64.4,28.8-64.4,64.4s28.8,64.4,64.4,64.4s64.4-28.8,64.4-64.4S58.1,474.6,22.6,474.6z
	 M22.6,585.8c-25.9,0-46.8-21-46.8-46.8c0-25.9,21-46.8,46.8-46.8c25.9,0,46.8,21,46.8,46.8C69.4,564.8,48.4,585.8,22.6,585.8z"/>
<path class="st5" d="M-226.9,279.6L-226.9,279.6c-24.7,0-44.7,20-44.7,44.7v21.6c0,24.7,20,44.7,44.7,44.7l0,0
	c24.7,0,44.7-20,44.7-44.7v-21.6C-182.1,299.6-202.2,279.6-226.9,279.6z"/>
<path class="st6" d="M-160.6,457.5c-18.9,12.8-41.7,20.3-66.2,20.3s-47.3-7.5-66.2-20.3c2.2-18.5,15-33.7,32.1-39.4l0,0
	c3.5-1.2,5.4-1.4,5.5-1.5c9.6-2,14.8-0.4,47.7-1c3.4,0,6.5,0.3,9.6,1c0.1,0.1,2.1,0.3,5.5,1.5l0,0
	C-175.6,423.8-162.8,439-160.6,457.5z"/>
<g>
	<path class="st2" d="M-197.8,290.4C-197.8,290.4-197.8,290.4-197.8,290.4c-28.5-24.4-73.8-4.8-73.8,33.9v4.1
		c6.6,2.9,13.9,4.5,21.5,4.5c15.7,0,29.9-6.8,39.6-17.6c6.2,9.5,16.4,16.2,28.3,17.4C-182.8,329.2-178.3,307-197.8,290.4z"/>
	<path class="st2" d="M-28,314.7h-98.9c-4.8,0-8.7-3.9-8.7-8.7s3.9-8.7,8.7-8.7H-28c4.8,0,8.7,3.9,8.7,8.7S-23.2,314.7-28,314.7z"/>
	<path class="st2" d="M-28,365.6h-98.9c-4.8,0-8.7-3.9-8.7-8.7c0-4.8,3.9-8.7,8.7-8.7H-28c4.8,0,8.7,3.9,8.7,8.7
		C-19.3,361.7-23.2,365.6-28,365.6z"/>
	<path class="st2" d="M-28,416.4h-98.9c-4.8,0-8.7-3.9-8.7-8.7c0-4.8,3.9-8.7,8.7-8.7H-28c4.8,0,8.7,3.9,8.7,8.7
		C-19.3,412.5-23.2,416.4-28,416.4z"/>
</g>
<path class="st7" d="M-91.2,179.8h-109.4c-9.4,0-17.1,7.7-17.1,17.1V224c0,9.4,7.7,17.1,17.1,17.1h109.4c9.4,0,17.1-7.7,17.1-17.1
	v-27.1C-74.1,187.5-81.7,179.8-91.2,179.8z"/>
<path class="st8" d="M-91.2,179.8h-16.8c9.4,0,17.1,7.7,17.1,17.1V224c0,9.4-7.7,17.1-17.1,17.1h16.8c9.4,0,17.1-7.7,17.1-17.1
	v-27.1C-74.1,187.5-81.7,179.8-91.2,179.8z"/>
</svg>
