<?xml version="1.0" encoding="utf-8"?>
<!-- Generator: Adobe Illustrator 19.0.0, SVG Export Plug-In . SVG Version: 6.00 Build 0)  -->
<svg version="1.1" id="Isolation_Mode" xmlns="http://www.w3.org/2000/svg" xmlns:xlink="http://www.w3.org/1999/xlink" x="0px"
	 y="0px" viewBox="-41 164.9 512 512" style="enable-background:new -41 164.9 512 512;" xml:space="preserve">
<style type="text/css">
	.st0{fill:#FFFFFF;}
	.st1{fill:#C1E8E6;}
	.st2{fill:#98D9D5;}
	.st3{fill:#6DA8D6;}
	.st4{fill:#F2EBD9;}
	.st5{fill:#F9F9F9;}
	.st6{fill:#F2484B;}
	.st7{fill:#FFCC75;}
</style>
<g>
	<path class="st0" d="M247.3,179.8c-13.5,0-25.4,6.9-32.3,17.4c-7-10.5-18.8-17.4-32.3-17.4H-7.2v361.8h189.9
		c13.5,0,25.4,6.9,32.3,17.3c7-10.5,18.8-17.3,32.3-17.3h189.9V179.8H247.3z"/>
	<path class="st1" d="M215,559v33.8c-7-10.5-18.8-17.3-32.3-17.3H-7.2v-33.8h189.9C196.2,541.6,208,548.5,215,559z"/>
	<path class="st1" d="M437.2,541.6v33.8H247.3c-13.5,0-25.4,6.9-32.3,17.3V559c7-10.5,18.8-17.3,32.3-17.3H437.2z"/>
	<path class="st2" d="M437.2,247.3v328.1H247.3c-13.5,0-25.4,6.9-32.3,17.3c-7-10.5-18.8-17.3-32.3-17.3H-7.2V247.3H-41v361.8h223.7
		c2.4,0,3.8,1.6,4.2,2.3l10,11.7h36.2l10-11.7c0.5-0.7,1.8-2.3,4.2-2.3H471V247.3H437.2z"/>
	<path class="st2" d="M437.2,247.3L215,269.8L-7.2,247.3H-41v361.8h223.7c2.4,0,3.8,1.6,4.2,2.3l10,11.7h36.2l10-11.7
		c0.5-0.7,1.8-2.3,4.2-2.3H471V247.3H437.2z"/>
	<path class="st1" d="M-7.2,541.6v33.8h189.9c13.5,0,25.4,6.9,32.3,17.3l11.3-78.8L-7.2,541.6z"/>
	<path class="st3" d="M215,513.9v78.8c7-10.5,18.8-17.3,32.3-17.3h189.9v-33.8L215,513.9z"/>
	<rect x="343" y="213.6" class="st4" width="60.5" height="62.7"/>
	<rect x="248.8" y="213.6" class="st4" width="60.5" height="62.7"/>
	<rect x="343" y="377.6" class="st4" width="60.5" height="62.8"/>
	<rect x="248.8" y="377.6" class="st4" width="60.5" height="62.8"/>
	<rect x="120.8" y="377.6" class="st4" width="60.5" height="62.8"/>
	<rect x="26.5" y="377.6" class="st4" width="60.5" height="62.8"/>
	<rect x="120.8" y="213.6" class="st4" width="60.5" height="62.7"/>
	<rect x="26.5" y="213.6" class="st4" width="60.5" height="62.7"/>
	<path class="st4" d="M182.7,179.8H-7.2v361.8h189.9c13.5,0,25.4,6.9,32.3,17.3l22.5-180.9L215,197.2
		C208,186.7,196.2,179.8,182.7,179.8z"/>
	<path class="st5" d="M247.3,179.8c-13.5,0-25.4,6.9-32.3,17.4V559c7-10.5,18.8-17.3,32.3-17.3h189.9V179.8H247.3z"/>
	<path class="st3" d="M167.1,488.2h-14.1V459c0-4.7-3.8-8.4-8.4-8.4s-8.4,3.8-8.4,8.4v29.1h-18.7v-62.9c0-4.7-3.8-8.4-8.4-8.4
		s-8.4,3.8-8.4,8.4v62.9H81.8V459c0-4.7-3.8-8.4-8.4-8.4S65,454.4,65,459v29.1H46.2v-62.9c0-4.7-3.8-8.4-8.4-8.4s-8.4,3.8-8.4,8.4
		v71.3c0,4.7,3.8,8.4,8.4,8.4h129.4c4.7,0,8.4-3.8,8.4-8.4S171.8,488.2,167.1,488.2z"/>
	<path class="st3" d="M37.8,233.3h129.4c4.7,0,8.4-3.8,8.4-8.4s-3.8-8.4-8.4-8.4H37.8c-4.7,0-8.4,3.8-8.4,8.4S33.1,233.3,37.8,233.3
		z"/>
	<path class="st3" d="M167.1,256.5H37.8c-4.7,0-8.4,3.8-8.4,8.4s3.8,8.4,8.4,8.4h129.4c4.7,0,8.4-3.8,8.4-8.4
		S171.8,256.5,167.1,256.5z"/>
	<path class="st3" d="M37.8,313.4h64.7c4.7,0,8.4-3.8,8.4-8.4s-3.8-8.4-8.4-8.4H37.8c-4.7,0-8.4,3.8-8.4,8.4S33.1,313.4,37.8,313.4z
		"/>
	<path class="st3" d="M167.1,336.6H37.8c-4.7,0-8.4,3.8-8.4,8.4s3.8,8.4,8.4,8.4h129.4c4.7,0,8.4-3.8,8.4-8.4
		S171.8,336.6,167.1,336.6z"/>
	<path class="st3" d="M167.1,376.7H37.8c-4.7,0-8.4,3.8-8.4,8.4s3.8,8.4,8.4,8.4h129.4c4.7,0,8.4-3.8,8.4-8.4
		S171.8,376.7,167.1,376.7z"/>
	<path class="st6" d="M303.6,648.5v-23.6l22.5-11.3l22.5,11.3v23.6c0,7.4-6.1,13.5-13.5,13.5h-18C309.7,662,303.6,655.9,303.6,648.5
		z"/>
	<polygon class="st1" points="303.6,591.1 326.1,579.8 348.6,591.1 348.6,624.8 303.6,624.8 	"/>
	<polygon class="st4" points="326.1,236.1 348.6,290.1 326.1,301.3 303.6,290.1 	"/>
	<rect x="303.6" y="290.1" class="st7" width="45" height="301"/>
</g>
</svg>
